2020-01-28 21:37:35 INFO  1580227655972_159:172 - Deploy request received
2020-01-28 21:37:36 INFO  1580227655972_159:437 - ===VALIDATE DEPLOYMENT===
2020-01-28 21:44:43 INFO  1580227655972_159:450 - Backup process started.
2020-01-29 18:23:48 INFO  1580227655972_159:1061 - Generating backup file.
2020-01-29 18:24:20 ERROR 1580227655972_159:757 - Error Message:Illegal access: this web application instance has been stopped already. Could not load [META-INF/services/org.apache.xerces.xni.parser.XMLParserConfiguration]. The following stack trace is thrown for debugging purposes as well as to attempt to terminate the thread which caused the illegal access.
2020-01-29 18:24:20 ERROR 1580227655972_159:758 - Deployment was failed.
