2020-02-21 18:34:53 INFO  9c8a091e-c6ea-4703-877c-c8e02433ec0d_913:1446 - Getting related records and dependenices with selected crieteria
2020-02-21 18:35:11 INFO  9c8a091e-c6ea-4703-877c-c8e02433ec0d_913:1477 - Identifying users for User-lookup mapping
2020-02-21 18:35:42 INFO  9c8a091e-c6ea-4703-877c-c8e02433ec0d_913:4680 - GetParents: Getting parents of Product2
2020-02-21 18:35:43 INFO  9c8a091e-c6ea-4703-877c-c8e02433ec0d_913:4729 - <font color='blue'>Product2 has 17 retrievable records</font>
2020-02-21 18:35:45 INFO  9c8a091e-c6ea-4703-877c-c8e02433ec0d_913:4775 - Product2 has no new parent record(s) in [ExternalDataSource] with the field ExternalDataSourceId as reference
2020-02-21 18:35:46 INFO  9c8a091e-c6ea-4703-877c-c8e02433ec0d_913:4794 - Creating parent SFobject for ExternalDataSource
2020-02-21 18:35:46 INFO  9c8a091e-c6ea-4703-877c-c8e02433ec0d_913:6207 - Updating level of ExternalDataSource from 1 to 1
2020-02-21 18:35:46 INFO  9c8a091e-c6ea-4703-877c-c8e02433ec0d_913:1579 - ExtractData: Get Parents for PricebookEntry
2020-02-21 18:35:46 INFO  9c8a091e-c6ea-4703-877c-c8e02433ec0d_913:4680 - GetParents: Getting parents of PricebookEntry
2020-02-21 18:35:46 INFO  9c8a091e-c6ea-4703-877c-c8e02433ec0d_913:4729 - <font color='blue'>PricebookEntry has 35 retrievable records</font>
2020-02-21 18:35:48 INFO  9c8a091e-c6ea-4703-877c-c8e02433ec0d_913:4825 - PricebookEntry has 3 parent record(s) in Pricebook2 with the field Pricebook2Id as reference
2020-02-21 18:35:49 INFO  9c8a091e-c6ea-4703-877c-c8e02433ec0d_913:4878 - Creating parent SFobject for Pricebook2
2020-02-21 18:35:49 INFO  9c8a091e-c6ea-4703-877c-c8e02433ec0d_913:4883 - <font color='blue'>Pricebook2 has 3 retrievable records</font>
2020-02-21 18:35:49 INFO  9c8a091e-c6ea-4703-877c-c8e02433ec0d_913:6207 - Updating level of Pricebook2 from 0 to 0
2020-02-21 18:35:49 INFO  9c8a091e-c6ea-4703-877c-c8e02433ec0d_913:4680 - GetParents: Getting parents of Pricebook2
2020-02-21 18:35:49 INFO  9c8a091e-c6ea-4703-877c-c8e02433ec0d_913:4729 - <font color='blue'>Pricebook2 has 3 retrievable records</font>
2020-02-21 18:35:50 INFO  9c8a091e-c6ea-4703-877c-c8e02433ec0d_913:4825 - PricebookEntry has 17 parent record(s) in Product2 with the field Product2Id as reference
2020-02-21 18:35:50 INFO  9c8a091e-c6ea-4703-877c-c8e02433ec0d_913:4902 - Object detected again: Product2
2020-02-21 18:35:50 INFO  9c8a091e-c6ea-4703-877c-c8e02433ec0d_913:4961 - <font color='blue'>Product2 has 17 retrievable records</font>
2020-02-21 18:35:50 INFO  9c8a091e-c6ea-4703-877c-c8e02433ec0d_913:6207 - Updating level of Product2 from 0 to 0
2020-02-21 18:35:50 INFO  9c8a091e-c6ea-4703-877c-c8e02433ec0d_913:1593 - Object-level map based on the object dependencies
2020-02-21 18:35:50 INFO  9c8a091e-c6ea-4703-877c-c8e02433ec0d_913:5150 - ExternalDataSource   :  '1'
2020-02-21 18:35:50 INFO  9c8a091e-c6ea-4703-877c-c8e02433ec0d_913:5150 - Pricebook2   :  '0'
2020-02-21 18:35:50 INFO  9c8a091e-c6ea-4703-877c-c8e02433ec0d_913:5150 - Product2   :  '0'
2020-02-21 18:35:50 INFO  9c8a091e-c6ea-4703-877c-c8e02433ec0d_913:5150 - PricebookEntry   :  '-1'
2020-02-21 18:35:50 INFO  9c8a091e-c6ea-4703-877c-c8e02433ec0d_913:4063 - No required records found in object: ExternalDataSource
2020-02-21 18:35:50 INFO  9c8a091e-c6ea-4703-877c-c8e02433ec0d_913:4256 - No masking rules applied on Pricebook2
2020-02-21 18:35:56 INFO  9c8a091e-c6ea-4703-877c-c8e02433ec0d_913:4452 - Pricebook2 has 2 Record(s)
2020-02-21 18:35:56 INFO  9c8a091e-c6ea-4703-877c-c8e02433ec0d_913:4256 - No masking rules applied on Product2
2020-02-21 18:35:58 INFO  9c8a091e-c6ea-4703-877c-c8e02433ec0d_913:4452 - Product2 has 17 Record(s)
2020-02-21 18:35:58 INFO  9c8a091e-c6ea-4703-877c-c8e02433ec0d_913:4256 - No masking rules applied on PricebookEntry
2020-02-21 18:36:00 INFO  9c8a091e-c6ea-4703-877c-c8e02433ec0d_913:4452 - PricebookEntry has 35 Record(s)
2020-02-21 18:36:01 INFO  9c8a091e-c6ea-4703-877c-c8e02433ec0d_913:1509 - Inserting data from org 'RJ_SF_IN_BB_Repo1' to org 'EswarOrgAcc1'
2020-02-21 18:36:07 INFO  9c8a091e-c6ea-4703-877c-c8e02433ec0d_913:3572 - Updating ExternalDataSource id's in Product2.
2020-02-21 18:36:20 INFO  9c8a091e-c6ea-4703-877c-c8e02433ec0d_913:2003 - Upsert started on object: Pricebook2
2020-02-21 18:36:30 INFO  9c8a091e-c6ea-4703-877c-c8e02433ec0d_913:2093 - Upsert completed for object : Pricebook2
2020-02-21 18:36:30 INFO  9c8a091e-c6ea-4703-877c-c8e02433ec0d_913:2097 - Success:2 Errors:0
2020-02-21 18:36:41 INFO  9c8a091e-c6ea-4703-877c-c8e02433ec0d_913:3293 - Checking for self reference id's on object: Pricebook2
2020-02-21 18:36:52 INFO  9c8a091e-c6ea-4703-877c-c8e02433ec0d_913:3572 - Updating Pricebook2 id's in PricebookEntry.
2020-02-21 18:36:52 INFO  9c8a091e-c6ea-4703-877c-c8e02433ec0d_913:2369 - Removing unnecessary fields from success csv file for the object: Pricebook2
2020-02-21 18:36:52 INFO  9c8a091e-c6ea-4703-877c-c8e02433ec0d_913:2412 - Removing unnecessary fields from error csv file for the object: Pricebook2
2020-02-21 18:37:03 INFO  9c8a091e-c6ea-4703-877c-c8e02433ec0d_913:2003 - Upsert started on object: Product2
2020-02-21 18:37:12 INFO  9c8a091e-c6ea-4703-877c-c8e02433ec0d_913:2093 - Upsert completed for object : Product2
2020-02-21 18:37:12 INFO  9c8a091e-c6ea-4703-877c-c8e02433ec0d_913:2097 - Success:17 Errors:0
2020-02-21 18:37:22 INFO  9c8a091e-c6ea-4703-877c-c8e02433ec0d_913:3293 - Checking for self reference id's on object: Product2
2020-02-21 18:37:32 INFO  9c8a091e-c6ea-4703-877c-c8e02433ec0d_913:3572 - Updating Product2 id's in PricebookEntry.
2020-02-21 18:37:32 INFO  9c8a091e-c6ea-4703-877c-c8e02433ec0d_913:2369 - Removing unnecessary fields from success csv file for the object: Product2
2020-02-21 18:37:32 INFO  9c8a091e-c6ea-4703-877c-c8e02433ec0d_913:2412 - Removing unnecessary fields from error csv file for the object: Product2
2020-02-21 18:37:48 INFO  9c8a091e-c6ea-4703-877c-c8e02433ec0d_913:2003 - Upsert started on object: PricebookEntry
2020-02-21 18:38:06 INFO  9c8a091e-c6ea-4703-877c-c8e02433ec0d_913:2093 - Upsert completed for object : PricebookEntry
2020-02-21 18:38:06 INFO  9c8a091e-c6ea-4703-877c-c8e02433ec0d_913:2097 - Success:0 Errors:53
2020-02-21 18:38:06 INFO  9c8a091e-c6ea-4703-877c-c8e02433ec0d_913:2369 - Removing unnecessary fields from success csv file for the object: PricebookEntry
2020-02-21 18:38:06 INFO  9c8a091e-c6ea-4703-877c-c8e02433ec0d_913:2412 - Removing unnecessary fields from error csv file for the object: PricebookEntry
2020-02-21 18:38:06 INFO  9c8a091e-c6ea-4703-877c-c8e02433ec0d_913:1295 - Process execution completed.
2020-02-21 18:38:17 INFO  9c8a091e-c6ea-4703-877c-c8e02433ec0d_913:1331 - Data Files have been deleted for the process ID 9c8a091e-c6ea-4703-877c-c8e02433ec0d [Ljava.io.File;@2fb28070
2020-02-21 18:38:23 INFO  9c8a091e-c6ea-4703-877c-c8e02433ec0d_913:1346 - Status Files have been deleted for the process ID 9c8a091e-c6ea-4703-877c-c8e02433ec0d [Ljava.io.File;@31e8d535
2020-02-21 18:38:23 INFO  9c8a091e-c6ea-4703-877c-c8e02433ec0d_913:1348 - Protecting  data files has been processed.
