2020-02-11 21:36:22 INFO  d55f48a5-cbce-4a2d-e8d1-333eb5bb0b67_328:1445 - Getting related records and dependenices with selected crieteria
2020-02-11 21:36:31 INFO  d55f48a5-cbce-4a2d-e8d1-333eb5bb0b67_328:1476 - Identifying users for User-lookup mapping
2020-02-11 21:36:34 INFO  d55f48a5-cbce-4a2d-e8d1-333eb5bb0b67_328:4609 - GetParents: Getting parents of Account
2020-02-11 21:36:34 INFO  d55f48a5-cbce-4a2d-e8d1-333eb5bb0b67_328:4658 - <font color='blue'>Account has 228 retrievable records</font>
2020-02-11 21:36:35 INFO  d55f48a5-cbce-4a2d-e8d1-333eb5bb0b67_328:4704 - Account has no new parent record(s) in [Account] with the field MasterRecordId as reference
2020-02-11 21:36:35 INFO  d55f48a5-cbce-4a2d-e8d1-333eb5bb0b67_328:4704 - Account has no new parent record(s) in [Account] with the field ParentId as reference
2020-02-11 21:36:36 INFO  d55f48a5-cbce-4a2d-e8d1-333eb5bb0b67_328:4704 - Account has no new parent record(s) in [OperatingHours] with the field OperatingHoursId as reference
2020-02-11 21:36:36 INFO  d55f48a5-cbce-4a2d-e8d1-333eb5bb0b67_328:4723 - Creating parent SFobject for OperatingHours
2020-02-11 21:36:36 INFO  d55f48a5-cbce-4a2d-e8d1-333eb5bb0b67_328:6137 - Updating level of OperatingHours from 1 to 1
2020-02-11 21:36:36 INFO  d55f48a5-cbce-4a2d-e8d1-333eb5bb0b67_328:1580 - ExtractData: Get Parents for Attachment
2020-02-11 21:36:36 INFO  d55f48a5-cbce-4a2d-e8d1-333eb5bb0b67_328:1580 - ExtractData: Get Parents for Case
2020-02-11 21:36:36 INFO  d55f48a5-cbce-4a2d-e8d1-333eb5bb0b67_328:4609 - GetParents: Getting parents of Case
2020-02-11 21:36:36 INFO  d55f48a5-cbce-4a2d-e8d1-333eb5bb0b67_328:4654 - No new records retrieved for object:Case.No need to get its parents and its relationships
2020-02-11 21:36:36 INFO  d55f48a5-cbce-4a2d-e8d1-333eb5bb0b67_328:1580 - ExtractData: Get Parents for Contact
2020-02-11 21:36:36 INFO  d55f48a5-cbce-4a2d-e8d1-333eb5bb0b67_328:4609 - GetParents: Getting parents of Contact
2020-02-11 21:36:36 INFO  d55f48a5-cbce-4a2d-e8d1-333eb5bb0b67_328:4654 - No new records retrieved for object:Contact.No need to get its parents and its relationships
2020-02-11 21:36:36 INFO  d55f48a5-cbce-4a2d-e8d1-333eb5bb0b67_328:1591 - Object-level map based on the object dependencies
2020-02-11 21:36:36 INFO  d55f48a5-cbce-4a2d-e8d1-333eb5bb0b67_328:5079 - OperatingHours   :  '1'
2020-02-11 21:36:36 INFO  d55f48a5-cbce-4a2d-e8d1-333eb5bb0b67_328:5079 - Account   :  '0'
2020-02-11 21:36:36 INFO  d55f48a5-cbce-4a2d-e8d1-333eb5bb0b67_328:5079 - Attachment   :  '-1'
2020-02-11 21:36:36 INFO  d55f48a5-cbce-4a2d-e8d1-333eb5bb0b67_328:5079 - Case   :  '-1'
2020-02-11 21:36:36 INFO  d55f48a5-cbce-4a2d-e8d1-333eb5bb0b67_328:5079 - Contact   :  '-1'
2020-02-11 21:36:36 INFO  d55f48a5-cbce-4a2d-e8d1-333eb5bb0b67_328:3992 - No required records found in object: OperatingHours
2020-02-11 21:36:36 INFO  d55f48a5-cbce-4a2d-e8d1-333eb5bb0b67_328:4185 - No masking rules applied on Account
2020-02-11 21:36:39 INFO  d55f48a5-cbce-4a2d-e8d1-333eb5bb0b67_328:4381 - Account has 228 Record(s)
2020-02-11 21:36:39 INFO  d55f48a5-cbce-4a2d-e8d1-333eb5bb0b67_328:4185 - No masking rules applied on Attachment
2020-02-11 21:36:40 INFO  d55f48a5-cbce-4a2d-e8d1-333eb5bb0b67_328:4381 - Attachment has 1 Record(s)
2020-02-11 21:36:40 INFO  d55f48a5-cbce-4a2d-e8d1-333eb5bb0b67_328:3992 - No required records found in object: Case
2020-02-11 21:36:40 INFO  d55f48a5-cbce-4a2d-e8d1-333eb5bb0b67_328:3992 - No required records found in object: Contact
2020-02-11 21:36:41 INFO  d55f48a5-cbce-4a2d-e8d1-333eb5bb0b67_328:1508 - Inserting data from org 'Surya_scorchy' to org 'EswarOrgAcc1'
2020-02-11 21:36:53 INFO  d55f48a5-cbce-4a2d-e8d1-333eb5bb0b67_328:1998 - Upsert started on object: Account
2020-02-11 21:37:33 INFO  d55f48a5-cbce-4a2d-e8d1-333eb5bb0b67_328:2088 - Upsert completed for object : Account
2020-02-11 21:37:33 INFO  d55f48a5-cbce-4a2d-e8d1-333eb5bb0b67_328:2092 - Success:30 Errors:198
2020-02-11 21:37:33 ERROR d55f48a5-cbce-4a2d-e8d1-333eb5bb0b67_328:5653 - checkForExternalField:com.sforce.ws.SoapFaultException: INVALID_SESSION_ID: Invalid Session ID found in SessionHeader: Illegal Session. Session not found, missing session hash: XtrUJvnhLLZHO+pepdGH+o2V3Gr8v5PWmy0Ax+A6uZ4=
This error usually occurs after a session expires or a user logs out. Decoder: DataInDbSessionKeyDecoder
com.sforce.ws.SoapFaultException: INVALID_SESSION_ID: Invalid Session ID found in SessionHeader: Illegal Session. Session not found, missing session hash: XtrUJvnhLLZHO+pepdGH+o2V3Gr8v5PWmy0Ax+A6uZ4=
This error usually occurs after a session expires or a user logs out. Decoder: DataInDbSessionKeyDecoder
	at com.sforce.ws.transport.SoapConnection.createException(SoapConnection.java:226)
	at com.sforce.ws.transport.SoapConnection.receive(SoapConnection.java:163)
	at com.sforce.ws.transport.SoapConnection.send(SoapConnection.java:108)
	at com.sforce.soap.metadata.MetadataConnection.listMetadata(MetadataConnection.java:405)
	at com.rabit.deployment.sf.dataloader.DataLoaderProConfig.checkForExternalField(DataLoaderProConfig.java:5626)
	at com.rabit.deployment.sf.dataloader.DataLoaderProConfig.getUpdatedNewIds(DataLoaderProConfig.java:3668)
	at com.rabit.deployment.sf.dataloader.DataLoaderProConfig.updateSelfRefIds(DataLoaderProConfig.java:3254)
	at com.rabit.deployment.sf.dataloader.DataLoaderProConfig.insertDataToDestination(DataLoaderProConfig.java:2158)
	at com.rabit.deployment.sf.dataloader.DataLoaderProConfig.startProcessExecution(DataLoaderProConfig.java:1510)
	at com.rabit.deployment.sf.dataloader.DataLoaderProConfig.runProcess(DataLoaderProConfig.java:1196)
	at com.rabit.service.ws.RabitServices.runDataloaderProProcess(RabitServices.java:4439)
	at java.base/jdk.internal.reflect.NativeMethodAccessorImpl.invoke0(Native Method)
	at java.base/jdk.internal.reflect.NativeMethodAccessorImpl.invoke(NativeMethodAccessorImpl.java:62)
	at java.base/jdk.internal.reflect.DelegatingMethodAccessorImpl.invoke(DelegatingMethodAccessorImpl.java:43)
	at java.base/java.lang.reflect.Method.invoke(Method.java:566)
	at com.sun.xml.ws.util.Trampoline.invoke(MethodUtil.java:52)
	at jdk.internal.reflect.GeneratedMethodAccessor366.invoke(Unknown Source)
	at java.base/jdk.internal.reflect.DelegatingMethodAccessorImpl.invoke(DelegatingMethodAccessorImpl.java:43)
	at java.base/java.lang.reflect.Method.invoke(Method.java:566)
	at com.sun.xml.ws.util.MethodUtil.invoke(MethodUtil.java:77)
	at com.sun.xml.ws.api.server.MethodUtil.invoke(MethodUtil.java:34)
	at com.sun.xml.ws.api.server.InstanceResolver$1.invoke(InstanceResolver.java:220)
	at com.sun.xml.ws.server.InvokerTube$2.invoke(InvokerTube.java:119)
	at com.sun.xml.ws.server.sei.SEIInvokerTube.processRequest(SEIInvokerTube.java:58)
	at com.sun.xml.ws.api.pipe.Fiber.__doRun(Fiber.java:1106)
	at com.sun.xml.ws.api.pipe.Fiber._doRun(Fiber.java:1020)
	at com.sun.xml.ws.api.pipe.Fiber.doRun(Fiber.java:989)
	at com.sun.xml.ws.api.pipe.Fiber.runSync(Fiber.java:847)
	at com.sun.xml.ws.server.WSEndpointImpl$2.process(WSEndpointImpl.java:389)
	at com.sun.xml.ws.transport.http.HttpAdapter$HttpToolkit.handle(HttpAdapter.java:838)
	at com.sun.xml.ws.transport.http.HttpAdapter.handle(HttpAdapter.java:392)
	at com.sun.xml.ws.transport.http.servlet.ServletAdapter.invokeAsync(ServletAdapter.java:195)
	at com.sun.xml.ws.transport.http.servlet.WSServletDelegate.doGet(WSServletDelegate.java:131)
	at com.sun.xml.ws.transport.http.servlet.WSServletDelegate.doPost(WSServletDelegate.java:167)
	at com.sun.xml.ws.transport.http.servlet.WSServlet.doPost(WSServlet.java:51)
	at javax.servlet.http.HttpServlet.service(HttpServlet.java:661)
	at javax.servlet.http.HttpServlet.service(HttpServlet.java:742)
	at org.apache.catalina.core.ApplicationFilterChain.internalDoFilter(ApplicationFilterChain.java:231)
	at org.apache.catalina.core.ApplicationFilterChain.doFilter(ApplicationFilterChain.java:166)
	at org.springframework.security.web.FilterChainProxy.doFilterInternal(FilterChainProxy.java:186)
	at org.springframework.security.web.FilterChainProxy.doFilter(FilterChainProxy.java:160)
	at org.springframework.web.filter.DelegatingFilterProxy.invokeDelegate(DelegatingFilterProxy.java:358)
	at org.springframework.web.filter.DelegatingFilterProxy.doFilter(DelegatingFilterProxy.java:271)
	at org.apache.catalina.core.ApplicationFilterChain.internalDoFilter(ApplicationFilterChain.java:193)
	at org.apache.catalina.core.ApplicationFilterChain.doFilter(ApplicationFilterChain.java:166)
	at org.apache.tomcat.websocket.server.WsFilter.doFilter(WsFilter.java:52)
	at org.apache.catalina.core.ApplicationFilterChain.internalDoFilter(ApplicationFilterChain.java:193)
	at org.apache.catalina.core.ApplicationFilterChain.doFilter(ApplicationFilterChain.java:166)
	at net.bull.javamelody.MonitoringFilter.doFilter(MonitoringFilter.java:239)
	at net.bull.javamelody.MonitoringFilter.doFilter(MonitoringFilter.java:215)
	at org.apache.catalina.core.ApplicationFilterChain.internalDoFilter(ApplicationFilterChain.java:193)
	at org.apache.catalina.core.ApplicationFilterChain.doFilter(ApplicationFilterChain.java:166)
	at com.rabit.testgen.services.rest.CORSFilter.doFilterInternal(CORSFilter.java:38)
	at org.springframework.web.filter.OncePerRequestFilter.doFilter(OncePerRequestFilter.java:119)
	at org.apache.catalina.core.ApplicationFilterChain.internalDoFilter(ApplicationFilterChain.java:193)
	at org.apache.catalina.core.ApplicationFilterChain.doFilter(ApplicationFilterChain.java:166)
	at com.rabit.service.ws.RabitServicesWebFilter.doFilter(RabitServicesWebFilter.java:54)
	at org.apache.catalina.core.ApplicationFilterChain.internalDoFilter(ApplicationFilterChain.java:193)
	at org.apache.catalina.core.ApplicationFilterChain.doFilter(ApplicationFilterChain.java:166)
	at com.rabit.service.ws.RabitServicesFilter.doFilter(RabitServicesFilter.java:340)
	at org.apache.catalina.core.ApplicationFilterChain.internalDoFilter(ApplicationFilterChain.java:193)
	at org.apache.catalina.core.ApplicationFilterChain.doFilter(ApplicationFilterChain.java:166)
	at org.apache.catalina.core.StandardWrapperValve.invoke(StandardWrapperValve.java:198)
	at org.apache.catalina.core.StandardContextValve.invoke(StandardContextValve.java:96)
	at org.apache.catalina.authenticator.AuthenticatorBase.invoke(AuthenticatorBase.java:478)
	at org.apache.catalina.core.StandardHostValve.invoke(StandardHostValve.java:140)
	at org.apache.catalina.valves.ErrorReportValve.invoke(ErrorReportValve.java:80)
	at org.apache.catalina.valves.AbstractAccessLogValve.invoke(AbstractAccessLogValve.java:624)
	at org.apache.catalina.core.StandardEngineValve.invoke(StandardEngineValve.java:87)
	at org.apache.catalina.connector.CoyoteAdapter.service(CoyoteAdapter.java:342)
	at org.apache.coyote.http11.Http11Processor.service(Http11Processor.java:799)
	at org.apache.coyote.AbstractProcessorLight.process(AbstractProcessorLight.java:66)
	at org.apache.coyote.AbstractProtocol$ConnectionHandler.process(AbstractProtocol.java:861)
	at org.apache.tomcat.util.net.NioEndpoint$SocketProcessor.doRun(NioEndpoint.java:1455)
	at org.apache.tomcat.util.net.SocketProcessorBase.run(SocketProcessorBase.java:49)
	at java.base/java.util.concurrent.ThreadPoolExecutor.runWorker(ThreadPoolExecutor.java:1128)
	at java.base/java.util.concurrent.ThreadPoolExecutor$Worker.run(ThreadPoolExecutor.java:628)
	at org.apache.tomcat.util.threads.TaskThread$WrappingRunnable.run(TaskThread.java:61)
	at java.base/java.lang.Thread.run(Thread.java:834)
2020-02-11 21:37:34 INFO  d55f48a5-cbce-4a2d-e8d1-333eb5bb0b67_328:2356 - Removing unnecessary fields from success csv file for the object: Account
2020-02-11 21:37:34 INFO  d55f48a5-cbce-4a2d-e8d1-333eb5bb0b67_328:2399 - Removing unnecessary fields from error csv file for the object: Account
2020-02-11 21:37:34 INFO  d55f48a5-cbce-4a2d-e8d1-333eb5bb0b67_328:3577 - Updating selected object id's.
2020-02-11 21:37:34 ERROR d55f48a5-cbce-4a2d-e8d1-333eb5bb0b67_328:5653 - checkForExternalField:com.sforce.ws.SoapFaultException: INVALID_SESSION_ID: Invalid Session ID found in SessionHeader: Illegal Session. Session not found, missing session hash: XtrUJvnhLLZHO+pepdGH+o2V3Gr8v5PWmy0Ax+A6uZ4=
This error usually occurs after a session expires or a user logs out. Decoder: DataInDbSessionKeyDecoder
com.sforce.ws.SoapFaultException: INVALID_SESSION_ID: Invalid Session ID found in SessionHeader: Illegal Session. Session not found, missing session hash: XtrUJvnhLLZHO+pepdGH+o2V3Gr8v5PWmy0Ax+A6uZ4=
This error usually occurs after a session expires or a user logs out. Decoder: DataInDbSessionKeyDecoder
	at com.sforce.ws.transport.SoapConnection.createException(SoapConnection.java:226)
	at com.sforce.ws.transport.SoapConnection.receive(SoapConnection.java:163)
	at com.sforce.ws.transport.SoapConnection.send(SoapConnection.java:108)
	at com.sforce.soap.metadata.MetadataConnection.listMetadata(MetadataConnection.java:405)
	at com.rabit.deployment.sf.dataloader.DataLoaderProConfig.checkForExternalField(DataLoaderProConfig.java:5626)
	at com.rabit.deployment.sf.dataloader.DataLoaderProConfig.getUpdatedNewIds(DataLoaderProConfig.java:3668)
	at com.rabit.deployment.sf.dataloader.DataLoaderProConfig.updateXMLWithSelectedObjIds(DataLoaderProConfig.java:3581)
	at com.rabit.deployment.sf.dataloader.DataLoaderProConfig.insertDataToDestination(DataLoaderProConfig.java:1901)
	at com.rabit.deployment.sf.dataloader.DataLoaderProConfig.startProcessExecution(DataLoaderProConfig.java:1510)
	at com.rabit.deployment.sf.dataloader.DataLoaderProConfig.runProcess(DataLoaderProConfig.java:1196)
	at com.rabit.service.ws.RabitServices.runDataloaderProProcess(RabitServices.java:4439)
	at java.base/jdk.internal.reflect.NativeMethodAccessorImpl.invoke0(Native Method)
	at java.base/jdk.internal.reflect.NativeMethodAccessorImpl.invoke(NativeMethodAccessorImpl.java:62)
	at java.base/jdk.internal.reflect.DelegatingMethodAccessorImpl.invoke(DelegatingMethodAccessorImpl.java:43)
	at java.base/java.lang.reflect.Method.invoke(Method.java:566)
	at com.sun.xml.ws.util.Trampoline.invoke(MethodUtil.java:52)
	at jdk.internal.reflect.GeneratedMethodAccessor366.invoke(Unknown Source)
	at java.base/jdk.internal.reflect.DelegatingMethodAccessorImpl.invoke(DelegatingMethodAccessorImpl.java:43)
	at java.base/java.lang.reflect.Method.invoke(Method.java:566)
	at com.sun.xml.ws.util.MethodUtil.invoke(MethodUtil.java:77)
	at com.sun.xml.ws.api.server.MethodUtil.invoke(MethodUtil.java:34)
	at com.sun.xml.ws.api.server.InstanceResolver$1.invoke(InstanceResolver.java:220)
	at com.sun.xml.ws.server.InvokerTube$2.invoke(InvokerTube.java:119)
	at com.sun.xml.ws.server.sei.SEIInvokerTube.processRequest(SEIInvokerTube.java:58)
	at com.sun.xml.ws.api.pipe.Fiber.__doRun(Fiber.java:1106)
	at com.sun.xml.ws.api.pipe.Fiber._doRun(Fiber.java:1020)
	at com.sun.xml.ws.api.pipe.Fiber.doRun(Fiber.java:989)
	at com.sun.xml.ws.api.pipe.Fiber.runSync(Fiber.java:847)
	at com.sun.xml.ws.server.WSEndpointImpl$2.process(WSEndpointImpl.java:389)
	at com.sun.xml.ws.transport.http.HttpAdapter$HttpToolkit.handle(HttpAdapter.java:838)
	at com.sun.xml.ws.transport.http.HttpAdapter.handle(HttpAdapter.java:392)
	at com.sun.xml.ws.transport.http.servlet.ServletAdapter.invokeAsync(ServletAdapter.java:195)
	at com.sun.xml.ws.transport.http.servlet.WSServletDelegate.doGet(WSServletDelegate.java:131)
	at com.sun.xml.ws.transport.http.servlet.WSServletDelegate.doPost(WSServletDelegate.java:167)
	at com.sun.xml.ws.transport.http.servlet.WSServlet.doPost(WSServlet.java:51)
	at javax.servlet.http.HttpServlet.service(HttpServlet.java:661)
	at javax.servlet.http.HttpServlet.service(HttpServlet.java:742)
	at org.apache.catalina.core.ApplicationFilterChain.internalDoFilter(ApplicationFilterChain.java:231)
	at org.apache.catalina.core.ApplicationFilterChain.doFilter(ApplicationFilterChain.java:166)
	at org.springframework.security.web.FilterChainProxy.doFilterInternal(FilterChainProxy.java:186)
	at org.springframework.security.web.FilterChainProxy.doFilter(FilterChainProxy.java:160)
	at org.springframework.web.filter.DelegatingFilterProxy.invokeDelegate(DelegatingFilterProxy.java:358)
	at org.springframework.web.filter.DelegatingFilterProxy.doFilter(DelegatingFilterProxy.java:271)
	at org.apache.catalina.core.ApplicationFilterChain.internalDoFilter(ApplicationFilterChain.java:193)
	at org.apache.catalina.core.ApplicationFilterChain.doFilter(ApplicationFilterChain.java:166)
	at org.apache.tomcat.websocket.server.WsFilter.doFilter(WsFilter.java:52)
	at org.apache.catalina.core.ApplicationFilterChain.internalDoFilter(ApplicationFilterChain.java:193)
	at org.apache.catalina.core.ApplicationFilterChain.doFilter(ApplicationFilterChain.java:166)
	at net.bull.javamelody.MonitoringFilter.doFilter(MonitoringFilter.java:239)
	at net.bull.javamelody.MonitoringFilter.doFilter(MonitoringFilter.java:215)
	at org.apache.catalina.core.ApplicationFilterChain.internalDoFilter(ApplicationFilterChain.java:193)
	at org.apache.catalina.core.ApplicationFilterChain.doFilter(ApplicationFilterChain.java:166)
	at com.rabit.testgen.services.rest.CORSFilter.doFilterInternal(CORSFilter.java:38)
	at org.springframework.web.filter.OncePerRequestFilter.doFilter(OncePerRequestFilter.java:119)
	at org.apache.catalina.core.ApplicationFilterChain.internalDoFilter(ApplicationFilterChain.java:193)
	at org.apache.catalina.core.ApplicationFilterChain.doFilter(ApplicationFilterChain.java:166)
	at com.rabit.service.ws.RabitServicesWebFilter.doFilter(RabitServicesWebFilter.java:54)
	at org.apache.catalina.core.ApplicationFilterChain.internalDoFilter(ApplicationFilterChain.java:193)
	at org.apache.catalina.core.ApplicationFilterChain.doFilter(ApplicationFilterChain.java:166)
	at com.rabit.service.ws.RabitServicesFilter.doFilter(RabitServicesFilter.java:340)
	at org.apache.catalina.core.ApplicationFilterChain.internalDoFilter(ApplicationFilterChain.java:193)
	at org.apache.catalina.core.ApplicationFilterChain.doFilter(ApplicationFilterChain.java:166)
	at org.apache.catalina.core.StandardWrapperValve.invoke(StandardWrapperValve.java:198)
	at org.apache.catalina.core.StandardContextValve.invoke(StandardContextValve.java:96)
	at org.apache.catalina.authenticator.AuthenticatorBase.invoke(AuthenticatorBase.java:478)
	at org.apache.catalina.core.StandardHostValve.invoke(StandardHostValve.java:140)
	at org.apache.catalina.valves.ErrorReportValve.invoke(ErrorReportValve.java:80)
	at org.apache.catalina.valves.AbstractAccessLogValve.invoke(AbstractAccessLogValve.java:624)
	at org.apache.catalina.core.StandardEngineValve.invoke(StandardEngineValve.java:87)
	at org.apache.catalina.connector.CoyoteAdapter.service(CoyoteAdapter.java:342)
	at org.apache.coyote.http11.Http11Processor.service(Http11Processor.java:799)
	at org.apache.coyote.AbstractProcessorLight.process(AbstractProcessorLight.java:66)
	at org.apache.coyote.AbstractProtocol$ConnectionHandler.process(AbstractProtocol.java:861)
	at org.apache.tomcat.util.net.NioEndpoint$SocketProcessor.doRun(NioEndpoint.java:1455)
	at org.apache.tomcat.util.net.SocketProcessorBase.run(SocketProcessorBase.java:49)
	at java.base/java.util.concurrent.ThreadPoolExecutor.runWorker(ThreadPoolExecutor.java:1128)
	at java.base/java.util.concurrent.ThreadPoolExecutor$Worker.run(ThreadPoolExecutor.java:628)
	at org.apache.tomcat.util.threads.TaskThread$WrappingRunnable.run(TaskThread.java:61)
	at java.base/java.lang.Thread.run(Thread.java:834)
2020-02-11 21:37:35 ERROR d55f48a5-cbce-4a2d-e8d1-333eb5bb0b67_328:3232 - saveMappingFile:[UnexpectedErrorFault [ApiFault  exceptionCode='INVALID_SESSION_ID'
 exceptionMessage='Invalid Session ID found in SessionHeader: Illegal Session. Session not found, missing session hash: zPfZZWfRn7y4R7kiO0SyR1yyTkrphz9h0czAtCQ3MPw=
This error usually occurs after a session expires or a user logs out. Decoder: DataInDbSessionKeyDecoder'
 extendedErrorDetails='{[0]}'
]
]
[UnexpectedErrorFault [ApiFault  exceptionCode='INVALID_SESSION_ID'
 exceptionMessage='Invalid Session ID found in SessionHeader: Illegal Session. Session not found, missing session hash: zPfZZWfRn7y4R7kiO0SyR1yyTkrphz9h0czAtCQ3MPw=
This error usually occurs after a session expires or a user logs out. Decoder: DataInDbSessionKeyDecoder'
 extendedErrorDetails='{[0]}'
]
]

	at java.base/jdk.internal.reflect.NativeConstructorAccessorImpl.newInstance0(Native Method)
	at java.base/jdk.internal.reflect.NativeConstructorAccessorImpl.newInstance(NativeConstructorAccessorImpl.java:62)
	at java.base/jdk.internal.reflect.DelegatingConstructorAccessorImpl.newInstance(DelegatingConstructorAccessorImpl.java:45)
	at java.base/java.lang.reflect.Constructor.newInstance(Constructor.java:490)
	at java.base/java.lang.Class.newInstance(Class.java:584)
	at com.sforce.ws.bind.TypeMapper.readSingle(TypeMapper.java:677)
	at com.sforce.ws.bind.TypeMapper.readObject(TypeMapper.java:560)
	at com.sforce.ws.transport.SoapConnection.parseDetail(SoapConnection.java:250)
	at com.sforce.ws.transport.SoapConnection.createException(SoapConnection.java:224)
	at com.sforce.ws.transport.SoapConnection.receive(SoapConnection.java:163)
	at com.sforce.ws.transport.SoapConnection.send(SoapConnection.java:108)
	at com.sforce.soap.partner.PartnerConnection.describeSObject(PartnerConnection.java:1492)
	at com.rabit.deployment.sf.dataloader.DataLoaderProConfig.saveMappingFile(DataLoaderProConfig.java:3045)
	at com.rabit.deployment.sf.dataloader.DataLoaderProConfig.insertDataToDestination(DataLoaderProConfig.java:1981)
	at com.rabit.deployment.sf.dataloader.DataLoaderProConfig.startProcessExecution(DataLoaderProConfig.java:1510)
	at com.rabit.deployment.sf.dataloader.DataLoaderProConfig.runProcess(DataLoaderProConfig.java:1196)
	at com.rabit.service.ws.RabitServices.runDataloaderProProcess(RabitServices.java:4439)
	at java.base/jdk.internal.reflect.NativeMethodAccessorImpl.invoke0(Native Method)
	at java.base/jdk.internal.reflect.NativeMethodAccessorImpl.invoke(NativeMethodAccessorImpl.java:62)
	at java.base/jdk.internal.reflect.DelegatingMethodAccessorImpl.invoke(DelegatingMethodAccessorImpl.java:43)
	at java.base/java.lang.reflect.Method.invoke(Method.java:566)
	at com.sun.xml.ws.util.Trampoline.invoke(MethodUtil.java:52)
	at jdk.internal.reflect.GeneratedMethodAccessor366.invoke(Unknown Source)
	at java.base/jdk.internal.reflect.DelegatingMethodAccessorImpl.invoke(DelegatingMethodAccessorImpl.java:43)
	at java.base/java.lang.reflect.Method.invoke(Method.java:566)
	at com.sun.xml.ws.util.MethodUtil.invoke(MethodUtil.java:77)
	at com.sun.xml.ws.api.server.MethodUtil.invoke(MethodUtil.java:34)
	at com.sun.xml.ws.api.server.InstanceResolver$1.invoke(InstanceResolver.java:220)
	at com.sun.xml.ws.server.InvokerTube$2.invoke(InvokerTube.java:119)
	at com.sun.xml.ws.server.sei.SEIInvokerTube.processRequest(SEIInvokerTube.java:58)
	at com.sun.xml.ws.api.pipe.Fiber.__doRun(Fiber.java:1106)
	at com.sun.xml.ws.api.pipe.Fiber._doRun(Fiber.java:1020)
	at com.sun.xml.ws.api.pipe.Fiber.doRun(Fiber.java:989)
	at com.sun.xml.ws.api.pipe.Fiber.runSync(Fiber.java:847)
	at com.sun.xml.ws.server.WSEndpointImpl$2.process(WSEndpointImpl.java:389)
	at com.sun.xml.ws.transport.http.HttpAdapter$HttpToolkit.handle(HttpAdapter.java:838)
	at com.sun.xml.ws.transport.http.HttpAdapter.handle(HttpAdapter.java:392)
	at com.sun.xml.ws.transport.http.servlet.ServletAdapter.invokeAsync(ServletAdapter.java:195)
	at com.sun.xml.ws.transport.http.servlet.WSServletDelegate.doGet(WSServletDelegate.java:131)
	at com.sun.xml.ws.transport.http.servlet.WSServletDelegate.doPost(WSServletDelegate.java:167)
	at com.sun.xml.ws.transport.http.servlet.WSServlet.doPost(WSServlet.java:51)
	at javax.servlet.http.HttpServlet.service(HttpServlet.java:661)
	at javax.servlet.http.HttpServlet.service(HttpServlet.java:742)
	at org.apache.catalina.core.ApplicationFilterChain.internalDoFilter(ApplicationFilterChain.java:231)
	at org.apache.catalina.core.ApplicationFilterChain.doFilter(ApplicationFilterChain.java:166)
	at org.springframework.security.web.FilterChainProxy.doFilterInternal(FilterChainProxy.java:186)
	at org.springframework.security.web.FilterChainProxy.doFilter(FilterChainProxy.java:160)
	at org.springframework.web.filter.DelegatingFilterProxy.invokeDelegate(DelegatingFilterProxy.java:358)
	at org.springframework.web.filter.DelegatingFilterProxy.doFilter(DelegatingFilterProxy.java:271)
	at org.apache.catalina.core.ApplicationFilterChain.internalDoFilter(ApplicationFilterChain.java:193)
	at org.apache.catalina.core.ApplicationFilterChain.doFilter(ApplicationFilterChain.java:166)
	at org.apache.tomcat.websocket.server.WsFilter.doFilter(WsFilter.java:52)
	at org.apache.catalina.core.ApplicationFilterChain.internalDoFilter(ApplicationFilterChain.java:193)
	at org.apache.catalina.core.ApplicationFilterChain.doFilter(ApplicationFilterChain.java:166)
	at net.bull.javamelody.MonitoringFilter.doFilter(MonitoringFilter.java:239)
	at net.bull.javamelody.MonitoringFilter.doFilter(MonitoringFilter.java:215)
	at org.apache.catalina.core.ApplicationFilterChain.internalDoFilter(ApplicationFilterChain.java:193)
	at org.apache.catalina.core.ApplicationFilterChain.doFilter(ApplicationFilterChain.java:166)
	at com.rabit.testgen.services.rest.CORSFilter.doFilterInternal(CORSFilter.java:38)
	at org.springframework.web.filter.OncePerRequestFilter.doFilter(OncePerRequestFilter.java:119)
	at org.apache.catalina.core.ApplicationFilterChain.internalDoFilter(ApplicationFilterChain.java:193)
	at org.apache.catalina.core.ApplicationFilterChain.doFilter(ApplicationFilterChain.java:166)
	at com.rabit.service.ws.RabitServicesWebFilter.doFilter(RabitServicesWebFilter.java:54)
	at org.apache.catalina.core.ApplicationFilterChain.internalDoFilter(ApplicationFilterChain.java:193)
	at org.apache.catalina.core.ApplicationFilterChain.doFilter(ApplicationFilterChain.java:166)
	at com.rabit.service.ws.RabitServicesFilter.doFilter(RabitServicesFilter.java:340)
	at org.apache.catalina.core.ApplicationFilterChain.internalDoFilter(ApplicationFilterChain.java:193)
	at org.apache.catalina.core.ApplicationFilterChain.doFilter(ApplicationFilterChain.java:166)
	at org.apache.catalina.core.StandardWrapperValve.invoke(StandardWrapperValve.java:198)
	at org.apache.catalina.core.StandardContextValve.invoke(StandardContextValve.java:96)
	at org.apache.catalina.authenticator.AuthenticatorBase.invoke(AuthenticatorBase.java:478)
	at org.apache.catalina.core.StandardHostValve.invoke(StandardHostValve.java:140)
	at org.apache.catalina.valves.ErrorReportValve.invoke(ErrorReportValve.java:80)
	at org.apache.catalina.valves.AbstractAccessLogValve.invoke(AbstractAccessLogValve.java:624)
	at org.apache.catalina.core.StandardEngineValve.invoke(StandardEngineValve.java:87)
	at org.apache.catalina.connector.CoyoteAdapter.service(CoyoteAdapter.java:342)
	at org.apache.coyote.http11.Http11Processor.service(Http11Processor.java:799)
	at org.apache.coyote.AbstractProcessorLight.process(AbstractProcessorLight.java:66)
	at org.apache.coyote.AbstractProtocol$ConnectionHandler.process(AbstractProtocol.java:861)
	at org.apache.tomcat.util.net.NioEndpoint$SocketProcessor.doRun(NioEndpoint.java:1455)
	at org.apache.tomcat.util.net.SocketProcessorBase.run(SocketProcessorBase.java:49)
	at java.base/java.util.concurrent.ThreadPoolExecutor.runWorker(ThreadPoolExecutor.java:1128)
	at java.base/java.util.concurrent.ThreadPoolExecutor$Worker.run(ThreadPoolExecutor.java:628)
	at org.apache.tomcat.util.threads.TaskThread$WrappingRunnable.run(TaskThread.java:61)
	at java.base/java.lang.Thread.run(Thread.java:834)
2020-02-11 21:37:35 ERROR d55f48a5-cbce-4a2d-e8d1-333eb5bb0b67_328:1212 - INVALID_LOGIN : Invalid username, password, security token; or user locked out.
com.rabit.service.ws.exception.RabitServicesException: INVALID_LOGIN : Invalid username, password, security token; or user locked out.
	at com.rabit.deployment.sf.dataloader.DataLoaderProConfig.saveMappingFile(DataLoaderProConfig.java:3233)
	at com.rabit.deployment.sf.dataloader.DataLoaderProConfig.insertDataToDestination(DataLoaderProConfig.java:1981)
	at com.rabit.deployment.sf.dataloader.DataLoaderProConfig.startProcessExecution(DataLoaderProConfig.java:1510)
	at com.rabit.deployment.sf.dataloader.DataLoaderProConfig.runProcess(DataLoaderProConfig.java:1196)
	at com.rabit.service.ws.RabitServices.runDataloaderProProcess(RabitServices.java:4439)
	at java.base/jdk.internal.reflect.NativeMethodAccessorImpl.invoke0(Native Method)
	at java.base/jdk.internal.reflect.NativeMethodAccessorImpl.invoke(NativeMethodAccessorImpl.java:62)
	at java.base/jdk.internal.reflect.DelegatingMethodAccessorImpl.invoke(DelegatingMethodAccessorImpl.java:43)
	at java.base/java.lang.reflect.Method.invoke(Method.java:566)
	at com.sun.xml.ws.util.Trampoline.invoke(MethodUtil.java:52)
	at jdk.internal.reflect.GeneratedMethodAccessor366.invoke(Unknown Source)
	at java.base/jdk.internal.reflect.DelegatingMethodAccessorImpl.invoke(DelegatingMethodAccessorImpl.java:43)
	at java.base/java.lang.reflect.Method.invoke(Method.java:566)
	at com.sun.xml.ws.util.MethodUtil.invoke(MethodUtil.java:77)
	at com.sun.xml.ws.api.server.MethodUtil.invoke(MethodUtil.java:34)
	at com.sun.xml.ws.api.server.InstanceResolver$1.invoke(InstanceResolver.java:220)
	at com.sun.xml.ws.server.InvokerTube$2.invoke(InvokerTube.java:119)
	at com.sun.xml.ws.server.sei.SEIInvokerTube.processRequest(SEIInvokerTube.java:58)
	at com.sun.xml.ws.api.pipe.Fiber.__doRun(Fiber.java:1106)
	at com.sun.xml.ws.api.pipe.Fiber._doRun(Fiber.java:1020)
	at com.sun.xml.ws.api.pipe.Fiber.doRun(Fiber.java:989)
	at com.sun.xml.ws.api.pipe.Fiber.runSync(Fiber.java:847)
	at com.sun.xml.ws.server.WSEndpointImpl$2.process(WSEndpointImpl.java:389)
	at com.sun.xml.ws.transport.http.HttpAdapter$HttpToolkit.handle(HttpAdapter.java:838)
	at com.sun.xml.ws.transport.http.HttpAdapter.handle(HttpAdapter.java:392)
	at com.sun.xml.ws.transport.http.servlet.ServletAdapter.invokeAsync(ServletAdapter.java:195)
	at com.sun.xml.ws.transport.http.servlet.WSServletDelegate.doGet(WSServletDelegate.java:131)
	at com.sun.xml.ws.transport.http.servlet.WSServletDelegate.doPost(WSServletDelegate.java:167)
	at com.sun.xml.ws.transport.http.servlet.WSServlet.doPost(WSServlet.java:51)
	at javax.servlet.http.HttpServlet.service(HttpServlet.java:661)
	at javax.servlet.http.HttpServlet.service(HttpServlet.java:742)
	at org.apache.catalina.core.ApplicationFilterChain.internalDoFilter(ApplicationFilterChain.java:231)
	at org.apache.catalina.core.ApplicationFilterChain.doFilter(ApplicationFilterChain.java:166)
	at org.springframework.security.web.FilterChainProxy.doFilterInternal(FilterChainProxy.java:186)
	at org.springframework.security.web.FilterChainProxy.doFilter(FilterChainProxy.java:160)
	at org.springframework.web.filter.DelegatingFilterProxy.invokeDelegate(DelegatingFilterProxy.java:358)
	at org.springframework.web.filter.DelegatingFilterProxy.doFilter(DelegatingFilterProxy.java:271)
	at org.apache.catalina.core.ApplicationFilterChain.internalDoFilter(ApplicationFilterChain.java:193)
	at org.apache.catalina.core.ApplicationFilterChain.doFilter(ApplicationFilterChain.java:166)
	at org.apache.tomcat.websocket.server.WsFilter.doFilter(WsFilter.java:52)
	at org.apache.catalina.core.ApplicationFilterChain.internalDoFilter(ApplicationFilterChain.java:193)
	at org.apache.catalina.core.ApplicationFilterChain.doFilter(ApplicationFilterChain.java:166)
	at net.bull.javamelody.MonitoringFilter.doFilter(MonitoringFilter.java:239)
	at net.bull.javamelody.MonitoringFilter.doFilter(MonitoringFilter.java:215)
	at org.apache.catalina.core.ApplicationFilterChain.internalDoFilter(ApplicationFilterChain.java:193)
	at org.apache.catalina.core.ApplicationFilterChain.doFilter(ApplicationFilterChain.java:166)
	at com.rabit.testgen.services.rest.CORSFilter.doFilterInternal(CORSFilter.java:38)
	at org.springframework.web.filter.OncePerRequestFilter.doFilter(OncePerRequestFilter.java:119)
	at org.apache.catalina.core.ApplicationFilterChain.internalDoFilter(ApplicationFilterChain.java:193)
	at org.apache.catalina.core.ApplicationFilterChain.doFilter(ApplicationFilterChain.java:166)
	at com.rabit.service.ws.RabitServicesWebFilter.doFilter(RabitServicesWebFilter.java:54)
	at org.apache.catalina.core.ApplicationFilterChain.internalDoFilter(ApplicationFilterChain.java:193)
	at org.apache.catalina.core.ApplicationFilterChain.doFilter(ApplicationFilterChain.java:166)
	at com.rabit.service.ws.RabitServicesFilter.doFilter(RabitServicesFilter.java:340)
	at org.apache.catalina.core.ApplicationFilterChain.internalDoFilter(ApplicationFilterChain.java:193)
	at org.apache.catalina.core.ApplicationFilterChain.doFilter(ApplicationFilterChain.java:166)
	at org.apache.catalina.core.StandardWrapperValve.invoke(StandardWrapperValve.java:198)
	at org.apache.catalina.core.StandardContextValve.invoke(StandardContextValve.java:96)
	at org.apache.catalina.authenticator.AuthenticatorBase.invoke(AuthenticatorBase.java:478)
	at org.apache.catalina.core.StandardHostValve.invoke(StandardHostValve.java:140)
	at org.apache.catalina.valves.ErrorReportValve.invoke(ErrorReportValve.java:80)
	at org.apache.catalina.valves.AbstractAccessLogValve.invoke(AbstractAccessLogValve.java:624)
	at org.apache.catalina.core.StandardEngineValve.invoke(StandardEngineValve.java:87)
	at org.apache.catalina.connector.CoyoteAdapter.service(CoyoteAdapter.java:342)
	at org.apache.coyote.http11.Http11Processor.service(Http11Processor.java:799)
	at org.apache.coyote.AbstractProcessorLight.process(AbstractProcessorLight.java:66)
	at org.apache.coyote.AbstractProtocol$ConnectionHandler.process(AbstractProtocol.java:861)
	at org.apache.tomcat.util.net.NioEndpoint$SocketProcessor.doRun(NioEndpoint.java:1455)
	at org.apache.tomcat.util.net.SocketProcessorBase.run(SocketProcessorBase.java:49)
	at java.base/java.util.concurrent.ThreadPoolExecutor.runWorker(ThreadPoolExecutor.java:1128)
	at java.base/java.util.concurrent.ThreadPoolExecutor$Worker.run(ThreadPoolExecutor.java:628)
	at org.apache.tomcat.util.threads.TaskThread$WrappingRunnable.run(TaskThread.java:61)
	at java.base/java.lang.Thread.run(Thread.java:834)
2020-02-11 21:37:35 INFO  d55f48a5-cbce-4a2d-e8d1-333eb5bb0b67_328:1294 - Process execution completed.
2020-02-11 21:37:35 INFO  d55f48a5-cbce-4a2d-e8d1-333eb5bb0b67_328:1299 - D:\filesystem\193\rabit\.rabit\org\autorabit.com-PmkSJi\dataloader\dataloaderpro\data\Attachment_d55f48a5-cbce-4a2d-e8d1-333eb5bb0b67 has been deleted.
2020-02-11 21:37:39 INFO  d55f48a5-cbce-4a2d-e8d1-333eb5bb0b67_328:1361 -  Process data files has been deleted .
