2020-02-03 22:33:53 INFO  2461f690-4942-44e3-e240-0015f78eb4ad_507:1445 - Getting related records and dependenices with selected crieteria
2020-02-03 22:34:17 INFO  2461f690-4942-44e3-e240-0015f78eb4ad_507:1476 - Identifying users for User-lookup mapping
2020-02-03 22:34:32 INFO  2461f690-4942-44e3-e240-0015f78eb4ad_507:4609 - GetParents: Getting parents of Account
2020-02-03 22:34:32 INFO  2461f690-4942-44e3-e240-0015f78eb4ad_507:4658 - <font color='blue'>Account has 202 retrievable records</font>
2020-02-03 22:34:33 INFO  2461f690-4942-44e3-e240-0015f78eb4ad_507:4704 - Account has no new parent record(s) in [Account] with the field MasterRecordId as reference
2020-02-03 22:34:33 INFO  2461f690-4942-44e3-e240-0015f78eb4ad_507:4704 - Account has no new parent record(s) in [Account] with the field ParentId as reference
2020-02-03 22:34:33 INFO  2461f690-4942-44e3-e240-0015f78eb4ad_507:1580 - ExtractData: Get Parents for AccountCleanInfo
2020-02-03 22:34:33 INFO  2461f690-4942-44e3-e240-0015f78eb4ad_507:4609 - GetParents: Getting parents of AccountCleanInfo
2020-02-03 22:34:33 INFO  2461f690-4942-44e3-e240-0015f78eb4ad_507:4654 - No new records retrieved for object:AccountCleanInfo.No need to get its parents and its relationships
2020-02-03 22:34:33 INFO  2461f690-4942-44e3-e240-0015f78eb4ad_507:1580 - ExtractData: Get Parents for Asset
2020-02-03 22:34:33 INFO  2461f690-4942-44e3-e240-0015f78eb4ad_507:4609 - GetParents: Getting parents of Asset
2020-02-03 22:34:33 INFO  2461f690-4942-44e3-e240-0015f78eb4ad_507:4654 - No new records retrieved for object:Asset.No need to get its parents and its relationships
2020-02-03 22:34:33 INFO  2461f690-4942-44e3-e240-0015f78eb4ad_507:1580 - ExtractData: Get Parents for Attachment
2020-02-03 22:34:33 INFO  2461f690-4942-44e3-e240-0015f78eb4ad_507:1580 - ExtractData: Get Parents for Case
2020-02-03 22:34:33 INFO  2461f690-4942-44e3-e240-0015f78eb4ad_507:4609 - GetParents: Getting parents of Case
2020-02-03 22:34:33 INFO  2461f690-4942-44e3-e240-0015f78eb4ad_507:4654 - No new records retrieved for object:Case.No need to get its parents and its relationships
2020-02-03 22:34:33 INFO  2461f690-4942-44e3-e240-0015f78eb4ad_507:1580 - ExtractData: Get Parents for Contact
2020-02-03 22:34:33 INFO  2461f690-4942-44e3-e240-0015f78eb4ad_507:4609 - GetParents: Getting parents of Contact
2020-02-03 22:34:33 INFO  2461f690-4942-44e3-e240-0015f78eb4ad_507:4654 - No new records retrieved for object:Contact.No need to get its parents and its relationships
2020-02-03 22:34:33 INFO  2461f690-4942-44e3-e240-0015f78eb4ad_507:1580 - ExtractData: Get Parents for ContactRequest
2020-02-03 22:34:33 INFO  2461f690-4942-44e3-e240-0015f78eb4ad_507:4609 - GetParents: Getting parents of ContactRequest
2020-02-03 22:34:33 INFO  2461f690-4942-44e3-e240-0015f78eb4ad_507:4654 - No new records retrieved for object:ContactRequest.No need to get its parents and its relationships
2020-02-03 22:34:33 INFO  2461f690-4942-44e3-e240-0015f78eb4ad_507:1580 - ExtractData: Get Parents for ContentVersion
2020-02-03 22:34:33 INFO  2461f690-4942-44e3-e240-0015f78eb4ad_507:1580 - ExtractData: Get Parents for Contract
2020-02-03 22:34:33 INFO  2461f690-4942-44e3-e240-0015f78eb4ad_507:4609 - GetParents: Getting parents of Contract
2020-02-03 22:34:33 INFO  2461f690-4942-44e3-e240-0015f78eb4ad_507:4654 - No new records retrieved for object:Contract.No need to get its parents and its relationships
2020-02-03 22:34:33 INFO  2461f690-4942-44e3-e240-0015f78eb4ad_507:1580 - ExtractData: Get Parents for Event
2020-02-03 22:34:33 INFO  2461f690-4942-44e3-e240-0015f78eb4ad_507:4609 - GetParents: Getting parents of Event
2020-02-03 22:34:33 INFO  2461f690-4942-44e3-e240-0015f78eb4ad_507:4654 - No new records retrieved for object:Event.No need to get its parents and its relationships
2020-02-03 22:34:33 INFO  2461f690-4942-44e3-e240-0015f78eb4ad_507:1580 - ExtractData: Get Parents for FeedComment
2020-02-03 22:34:33 INFO  2461f690-4942-44e3-e240-0015f78eb4ad_507:1580 - ExtractData: Get Parents for FeedItem
2020-02-03 22:34:33 INFO  2461f690-4942-44e3-e240-0015f78eb4ad_507:1580 - ExtractData: Get Parents for FlowRecordRelation
2020-02-03 22:34:33 INFO  2461f690-4942-44e3-e240-0015f78eb4ad_507:4609 - GetParents: Getting parents of FlowRecordRelation
2020-02-03 22:34:33 INFO  2461f690-4942-44e3-e240-0015f78eb4ad_507:4654 - No new records retrieved for object:FlowRecordRelation.No need to get its parents and its relationships
2020-02-03 22:34:33 INFO  2461f690-4942-44e3-e240-0015f78eb4ad_507:1580 - ExtractData: Get Parents for Lead
2020-02-03 22:34:33 INFO  2461f690-4942-44e3-e240-0015f78eb4ad_507:4609 - GetParents: Getting parents of Lead
2020-02-03 22:34:33 INFO  2461f690-4942-44e3-e240-0015f78eb4ad_507:4654 - No new records retrieved for object:Lead.No need to get its parents and its relationships
2020-02-03 22:34:33 INFO  2461f690-4942-44e3-e240-0015f78eb4ad_507:1580 - ExtractData: Get Parents for MessagingSession
2020-02-03 22:34:33 INFO  2461f690-4942-44e3-e240-0015f78eb4ad_507:4609 - GetParents: Getting parents of MessagingSession
2020-02-03 22:34:33 INFO  2461f690-4942-44e3-e240-0015f78eb4ad_507:4654 - No new records retrieved for object:MessagingSession.No need to get its parents and its relationships
2020-02-03 22:34:33 INFO  2461f690-4942-44e3-e240-0015f78eb4ad_507:1580 - ExtractData: Get Parents for Opportunity
2020-02-03 22:34:33 INFO  2461f690-4942-44e3-e240-0015f78eb4ad_507:4609 - GetParents: Getting parents of Opportunity
2020-02-03 22:34:33 INFO  2461f690-4942-44e3-e240-0015f78eb4ad_507:4654 - No new records retrieved for object:Opportunity.No need to get its parents and its relationships
2020-02-03 22:34:33 INFO  2461f690-4942-44e3-e240-0015f78eb4ad_507:1580 - ExtractData: Get Parents for Order
2020-02-03 22:34:33 INFO  2461f690-4942-44e3-e240-0015f78eb4ad_507:4609 - GetParents: Getting parents of Order
2020-02-03 22:34:33 INFO  2461f690-4942-44e3-e240-0015f78eb4ad_507:4654 - No new records retrieved for object:Order.No need to get its parents and its relationships
2020-02-03 22:34:33 INFO  2461f690-4942-44e3-e240-0015f78eb4ad_507:1580 - ExtractData: Get Parents for RecordAction
2020-02-03 22:34:33 INFO  2461f690-4942-44e3-e240-0015f78eb4ad_507:4609 - GetParents: Getting parents of RecordAction
2020-02-03 22:34:33 INFO  2461f690-4942-44e3-e240-0015f78eb4ad_507:4654 - No new records retrieved for object:RecordAction.No need to get its parents and its relationships
2020-02-03 22:34:33 INFO  2461f690-4942-44e3-e240-0015f78eb4ad_507:1580 - ExtractData: Get Parents for Task
2020-02-03 22:34:33 INFO  2461f690-4942-44e3-e240-0015f78eb4ad_507:4609 - GetParents: Getting parents of Task
2020-02-03 22:34:33 INFO  2461f690-4942-44e3-e240-0015f78eb4ad_507:4654 - No new records retrieved for object:Task.No need to get its parents and its relationships
2020-02-03 22:34:33 INFO  2461f690-4942-44e3-e240-0015f78eb4ad_507:1591 - Object-level map based on the object dependencies
2020-02-03 22:34:34 INFO  2461f690-4942-44e3-e240-0015f78eb4ad_507:6136 - Updating level of ContentVersion from -1 to 0
2020-02-03 22:34:34 INFO  2461f690-4942-44e3-e240-0015f78eb4ad_507:6136 - Updating level of ContentVersion from 0 to 0
2020-02-03 22:34:34 INFO  2461f690-4942-44e3-e240-0015f78eb4ad_507:5079 - Account   :  '0'
2020-02-03 22:34:34 INFO  2461f690-4942-44e3-e240-0015f78eb4ad_507:5079 - ContentVersion   :  '0'
2020-02-03 22:34:34 INFO  2461f690-4942-44e3-e240-0015f78eb4ad_507:5079 - Order   :  '-1'
2020-02-03 22:34:34 INFO  2461f690-4942-44e3-e240-0015f78eb4ad_507:5079 - Task   :  '-1'
2020-02-03 22:34:34 INFO  2461f690-4942-44e3-e240-0015f78eb4ad_507:5079 - AccountCleanInfo   :  '-1'
2020-02-03 22:34:34 INFO  2461f690-4942-44e3-e240-0015f78eb4ad_507:5079 - ContactRequest   :  '-1'
2020-02-03 22:34:34 INFO  2461f690-4942-44e3-e240-0015f78eb4ad_507:5079 - Attachment   :  '-1'
2020-02-03 22:34:34 INFO  2461f690-4942-44e3-e240-0015f78eb4ad_507:5079 - Case   :  '-1'
2020-02-03 22:34:34 INFO  2461f690-4942-44e3-e240-0015f78eb4ad_507:5079 - Contact   :  '-1'
2020-02-03 22:34:34 INFO  2461f690-4942-44e3-e240-0015f78eb4ad_507:5079 - FeedItem   :  '-1'
2020-02-03 22:34:34 INFO  2461f690-4942-44e3-e240-0015f78eb4ad_507:5079 - FeedComment   :  '-1'
2020-02-03 22:34:34 INFO  2461f690-4942-44e3-e240-0015f78eb4ad_507:5079 - Opportunity   :  '-1'
2020-02-03 22:34:34 INFO  2461f690-4942-44e3-e240-0015f78eb4ad_507:5079 - Lead   :  '-1'
2020-02-03 22:34:34 INFO  2461f690-4942-44e3-e240-0015f78eb4ad_507:5079 - MessagingSession   :  '-1'
2020-02-03 22:34:34 INFO  2461f690-4942-44e3-e240-0015f78eb4ad_507:5079 - Asset   :  '-1'
2020-02-03 22:34:34 INFO  2461f690-4942-44e3-e240-0015f78eb4ad_507:5079 - Event   :  '-1'
2020-02-03 22:34:34 INFO  2461f690-4942-44e3-e240-0015f78eb4ad_507:5079 - FlowRecordRelation   :  '-1'
2020-02-03 22:34:34 INFO  2461f690-4942-44e3-e240-0015f78eb4ad_507:5079 - RecordAction   :  '-1'
2020-02-03 22:34:34 INFO  2461f690-4942-44e3-e240-0015f78eb4ad_507:5079 - Contract   :  '-1'
2020-02-03 22:34:34 INFO  2461f690-4942-44e3-e240-0015f78eb4ad_507:4185 - No masking rules applied on Account
2020-02-03 22:34:36 INFO  2461f690-4942-44e3-e240-0015f78eb4ad_507:4381 - Account has 202 Record(s)
2020-02-03 22:34:36 INFO  2461f690-4942-44e3-e240-0015f78eb4ad_507:3992 - No required records found in object: ContentVersion
2020-02-03 22:34:36 INFO  2461f690-4942-44e3-e240-0015f78eb4ad_507:3992 - No required records found in object: Order
2020-02-03 22:34:36 INFO  2461f690-4942-44e3-e240-0015f78eb4ad_507:3992 - No required records found in object: Task
2020-02-03 22:34:36 INFO  2461f690-4942-44e3-e240-0015f78eb4ad_507:3992 - No required records found in object: AccountCleanInfo
2020-02-03 22:34:36 INFO  2461f690-4942-44e3-e240-0015f78eb4ad_507:3992 - No required records found in object: ContactRequest
2020-02-03 22:34:37 INFO  2461f690-4942-44e3-e240-0015f78eb4ad_507:3992 - No required records found in object: Attachment
2020-02-03 22:34:37 INFO  2461f690-4942-44e3-e240-0015f78eb4ad_507:3992 - No required records found in object: Case
2020-02-03 22:34:37 INFO  2461f690-4942-44e3-e240-0015f78eb4ad_507:3992 - No required records found in object: Contact
2020-02-03 22:34:38 INFO  2461f690-4942-44e3-e240-0015f78eb4ad_507:3992 - No required records found in object: FeedItem
2020-02-03 22:34:39 INFO  2461f690-4942-44e3-e240-0015f78eb4ad_507:3992 - No required records found in object: FeedComment
2020-02-03 22:34:39 INFO  2461f690-4942-44e3-e240-0015f78eb4ad_507:3992 - No required records found in object: Opportunity
2020-02-03 22:34:39 INFO  2461f690-4942-44e3-e240-0015f78eb4ad_507:3992 - No required records found in object: Lead
2020-02-03 22:34:39 INFO  2461f690-4942-44e3-e240-0015f78eb4ad_507:3992 - No required records found in object: MessagingSession
2020-02-03 22:34:39 INFO  2461f690-4942-44e3-e240-0015f78eb4ad_507:3992 - No required records found in object: Asset
2020-02-03 22:34:39 INFO  2461f690-4942-44e3-e240-0015f78eb4ad_507:3992 - No required records found in object: Event
2020-02-03 22:34:39 INFO  2461f690-4942-44e3-e240-0015f78eb4ad_507:3992 - No required records found in object: FlowRecordRelation
2020-02-03 22:34:39 INFO  2461f690-4942-44e3-e240-0015f78eb4ad_507:3992 - No required records found in object: RecordAction
2020-02-03 22:34:39 INFO  2461f690-4942-44e3-e240-0015f78eb4ad_507:3992 - No required records found in object: Contract
2020-02-03 22:34:39 INFO  2461f690-4942-44e3-e240-0015f78eb4ad_507:3992 - No required records found in object: ContentVersion
2020-02-03 22:34:41 INFO  2461f690-4942-44e3-e240-0015f78eb4ad_507:1508 - Inserting data from org 'RJ_SF_IN_BB_Repo1' to org 'EswarOrgAcc1'
2020-02-03 22:34:55 INFO  2461f690-4942-44e3-e240-0015f78eb4ad_507:1998 - Upsert started on object: Account
2020-02-03 22:35:24 INFO  2461f690-4942-44e3-e240-0015f78eb4ad_507:2088 - Upsert completed for object : Account
2020-02-03 22:35:24 INFO  2461f690-4942-44e3-e240-0015f78eb4ad_507:2092 - Success:14 Errors:188
2020-02-03 22:35:30 INFO  2461f690-4942-44e3-e240-0015f78eb4ad_507:3280 - Checking for self reference id's on object: Account
2020-02-03 22:35:31 INFO  2461f690-4942-44e3-e240-0015f78eb4ad_507:2356 - Removing unnecessary fields from success csv file for the object: Account
2020-02-03 22:35:31 INFO  2461f690-4942-44e3-e240-0015f78eb4ad_507:2399 - Removing unnecessary fields from error csv file for the object: Account
2020-02-03 22:36:15 INFO  2461f690-4942-44e3-e240-0015f78eb4ad_507:1294 - Process execution completed.
2020-02-03 22:36:23 INFO  2461f690-4942-44e3-e240-0015f78eb4ad_507:1361 -  Process data files has been deleted .
