2020-04-08 23:09:14 INFO  f91f3c1c-17aa-4e4b-e1d3-0e71930e858c_505:1449 - Getting related records and dependenices with selected crieteria
2020-04-08 23:09:27 INFO  f91f3c1c-17aa-4e4b-e1d3-0e71930e858c_505:1480 - Identifying users for User-lookup mapping
2020-04-08 23:10:07 INFO  f91f3c1c-17aa-4e4b-e1d3-0e71930e858c_505:4675 - GetParents: Getting parents of Account
2020-04-08 23:10:13 INFO  f91f3c1c-17aa-4e4b-e1d3-0e71930e858c_505:4724 - <font color='blue'>Account has 241 retrievable records</font>
2020-04-08 23:10:34 ERROR f91f3c1c-17aa-4e4b-e1d3-0e71930e858c_505:5492 - executeSoqlQueryFromPrepQuery:com.sforce.ws.ConnectionException: Failed to send request to https://ap15.salesforce.com/services/Soap/u/48.0
	
	
	
	
	
	
	
	
	
	
	
	
	
	
	
	
	
	
	
	
	
	
	
	
	
	
	
	
	
	
	
	
	
	
	
	
	
	
	
	
	
	
	
	
	
	
	
	
	
	
	
	
	
	
	
	
	
	
	
	
	
	
	
	
	
	
	
	
	
	
	
	
	
	
	
	
	
Caused by: java.net.ConnectException: Connection timed out: connect
	at java.net.DualStackPlainSocketImpl.connect0(Native Method)
	at java.net.DualStackPlainSocketImpl.socketConnect(DualStackPlainSocketImpl.java:79)
	at java.net.AbstractPlainSocketImpl.doConnect(AbstractPlainSocketImpl.java:350)
	at java.net.AbstractPlainSocketImpl.connectToAddress(AbstractPlainSocketImpl.java:206)
	at java.net.AbstractPlainSocketImpl.connect(AbstractPlainSocketImpl.java:188)
	at java.net.PlainSocketImpl.connect(PlainSocketImpl.java:172)
	at java.net.SocksSocketImpl.connect(SocksSocketImpl.java:392)
	at java.net.Socket.connect(Socket.java:589)
	at sun.security.ssl.SSLSocketImpl.connect(SSLSocketImpl.java:666)
	at sun.security.ssl.BaseSSLSocketImpl.connect(BaseSSLSocketImpl.java:173)
	at sun.net.NetworkClient.doConnect(NetworkClient.java:180)
	at sun.net.www.http.HttpClient.openServer(HttpClient.java:463)
	at sun.net.www.http.HttpClient.openServer(HttpClient.java:558)
	at sun.net.www.protocol.https.HttpsClient.<init>(HttpsClient.java:264)
	at sun.net.www.protocol.https.HttpsClient.New(HttpsClient.java:367)
	at sun.net.www.protocol.https.AbstractDelegateHttpsURLConnection.getNewHttpClient(AbstractDelegateHttpsURLConnection.java:191)
	at sun.net.www.protocol.http.HttpURLConnection.plainConnect0(HttpURLConnection.java:1199)
	at sun.net.www.protocol.http.HttpURLConnection.plainConnect(HttpURLConnection.java:1050)
	at sun.net.www.protocol.https.AbstractDelegateHttpsURLConnection.connect(AbstractDelegateHttpsURLConnection.java:177)
	at sun.net.www.protocol.http.HttpURLConnection.getOutputStream0(HttpURLConnection.java:1334)
	at sun.net.www.protocol.http.HttpURLConnection.getOutputStream(HttpURLConnection.java:1309)
	at sun.net.www.protocol.https.HttpsURLConnectionImpl.getOutputStream(HttpsURLConnectionImpl.java:259)
	at com.sforce.ws.transport.JdkHttpTransport.connectRaw(JdkHttpTransport.java:143)
	at com.sforce.ws.transport.JdkHttpTransport.connectLocal(JdkHttpTransport.java:103)
	at com.sforce.ws.transport.JdkHttpTransport.connectLocal(JdkHttpTransport.java:98)
	at com.sforce.ws.transport.JdkHttpTransport.connect(JdkHttpTransport.java:94)
	at com.sforce.ws.transport.SoapConnection.send(SoapConnection.java:104)
	... 76 more
com.sforce.ws.ConnectionException: Failed to send request to https://ap15.salesforce.com/services/Soap/u/48.0
	at com.sforce.ws.transport.SoapConnection.send(SoapConnection.java:128)
	at com.sforce.soap.partner.PartnerConnection.query(PartnerConnection.java:1196)
	at com.rabit.deployment.sf.dataloader.DataLoaderProConfig.executeSoqlQueryFromPrepQuery(DataLoaderProConfig.java:5458)
	at com.rabit.deployment.sf.dataloader.DataLoaderProConfig.querySample(DataLoaderProConfig.java:5419)
	at com.rabit.deployment.sf.dataloader.DataLoaderProConfig.getParentRelationship(DataLoaderProConfig.java:4760)
	at com.rabit.deployment.sf.dataloader.DataLoaderProConfig.extractDataFrmSource(DataLoaderProConfig.java:1582)
	at com.rabit.deployment.sf.dataloader.DataLoaderProConfig.startProcessExecution(DataLoaderProConfig.java:1510)
	at com.rabit.deployment.sf.dataloader.DataLoaderProConfig.runProcess(DataLoaderProConfig.java:1200)
	at com.rabit.service.ws.RabitServices.runDataloaderProProcess(RabitServices.java:4409)
	at sun.reflect.NativeMethodAccessorImpl.invoke0(Native Method)
	at sun.reflect.NativeMethodAccessorImpl.invoke(NativeMethodAccessorImpl.java:62)
	at sun.reflect.DelegatingMethodAccessorImpl.invoke(DelegatingMethodAccessorImpl.java:43)
	at java.lang.reflect.Method.invoke(Method.java:498)
	at com.sun.xml.ws.util.Trampoline.invoke(MethodUtil.java:52)
	at sun.reflect.GeneratedMethodAccessor582.invoke(Unknown Source)
	at sun.reflect.DelegatingMethodAccessorImpl.invoke(DelegatingMethodAccessorImpl.java:43)
	at java.lang.reflect.Method.invoke(Method.java:498)
	at com.sun.xml.ws.util.MethodUtil.invoke(MethodUtil.java:77)
	at com.sun.xml.ws.api.server.MethodUtil.invoke(MethodUtil.java:34)
	at com.sun.xml.ws.api.server.InstanceResolver$1.invoke(InstanceResolver.java:220)
	at com.sun.xml.ws.server.InvokerTube$2.invoke(InvokerTube.java:119)
	at com.sun.xml.ws.server.sei.SEIInvokerTube.processRequest(SEIInvokerTube.java:58)
	at com.sun.xml.ws.api.pipe.Fiber.__doRun(Fiber.java:1106)
	at com.sun.xml.ws.api.pipe.Fiber._doRun(Fiber.java:1020)
	at com.sun.xml.ws.api.pipe.Fiber.doRun(Fiber.java:989)
	at com.sun.xml.ws.api.pipe.Fiber.runSync(Fiber.java:847)
	at com.sun.xml.ws.server.WSEndpointImpl$2.process(WSEndpointImpl.java:389)
	at com.sun.xml.ws.transport.http.HttpAdapter$HttpToolkit.handle(HttpAdapter.java:838)
	at com.sun.xml.ws.transport.http.HttpAdapter.handle(HttpAdapter.java:392)
	at com.sun.xml.ws.transport.http.servlet.ServletAdapter.invokeAsync(ServletAdapter.java:195)
	at com.sun.xml.ws.transport.http.servlet.WSServletDelegate.doGet(WSServletDelegate.java:131)
	at com.sun.xml.ws.transport.http.servlet.WSServletDelegate.doPost(WSServletDelegate.java:167)
	at com.sun.xml.ws.transport.http.servlet.WSServlet.doPost(WSServlet.java:51)
	at javax.servlet.http.HttpServlet.service(HttpServlet.java:661)
	at javax.servlet.http.HttpServlet.service(HttpServlet.java:742)
	at org.apache.catalina.core.ApplicationFilterChain.internalDoFilter(ApplicationFilterChain.java:231)
	at org.apache.catalina.core.ApplicationFilterChain.doFilter(ApplicationFilterChain.java:166)
	at org.springframework.security.web.FilterChainProxy.doFilterInternal(FilterChainProxy.java:186)
	at org.springframework.security.web.FilterChainProxy.doFilter(FilterChainProxy.java:160)
	at org.springframework.web.filter.DelegatingFilterProxy.invokeDelegate(DelegatingFilterProxy.java:358)
	at org.springframework.web.filter.DelegatingFilterProxy.doFilter(DelegatingFilterProxy.java:271)
	at org.apache.catalina.core.ApplicationFilterChain.internalDoFilter(ApplicationFilterChain.java:193)
	at org.apache.catalina.core.ApplicationFilterChain.doFilter(ApplicationFilterChain.java:166)
	at org.apache.tomcat.websocket.server.WsFilter.doFilter(WsFilter.java:52)
	at org.apache.catalina.core.ApplicationFilterChain.internalDoFilter(ApplicationFilterChain.java:193)
	at org.apache.catalina.core.ApplicationFilterChain.doFilter(ApplicationFilterChain.java:166)
	at net.bull.javamelody.MonitoringFilter.doFilter(MonitoringFilter.java:239)
	at net.bull.javamelody.MonitoringFilter.doFilter(MonitoringFilter.java:215)
	at org.apache.catalina.core.ApplicationFilterChain.internalDoFilter(ApplicationFilterChain.java:193)
	at org.apache.catalina.core.ApplicationFilterChain.doFilter(ApplicationFilterChain.java:166)
	at com.rabit.testgen.services.rest.CORSFilter.doFilterInternal(CORSFilter.java:38)
	at org.springframework.web.filter.OncePerRequestFilter.doFilter(OncePerRequestFilter.java:119)
	at org.apache.catalina.core.ApplicationFilterChain.internalDoFilter(ApplicationFilterChain.java:193)
	at org.apache.catalina.core.ApplicationFilterChain.doFilter(ApplicationFilterChain.java:166)
	at com.rabit.service.ws.RabitServicesWebFilter.doFilter(RabitServicesWebFilter.java:54)
	at org.apache.catalina.core.ApplicationFilterChain.internalDoFilter(ApplicationFilterChain.java:193)
	at org.apache.catalina.core.ApplicationFilterChain.doFilter(ApplicationFilterChain.java:166)
	at com.rabit.service.ws.RabitServicesFilter.doFilter(RabitServicesFilter.java:340)
	at org.apache.catalina.core.ApplicationFilterChain.internalDoFilter(ApplicationFilterChain.java:193)
	at org.apache.catalina.core.ApplicationFilterChain.doFilter(ApplicationFilterChain.java:166)
	at org.apache.catalina.core.StandardWrapperValve.invoke(StandardWrapperValve.java:198)
	at org.apache.catalina.core.StandardContextValve.invoke(StandardContextValve.java:96)
	at org.apache.catalina.authenticator.AuthenticatorBase.invoke(AuthenticatorBase.java:478)
	at org.apache.catalina.core.StandardHostValve.invoke(StandardHostValve.java:140)
	at org.apache.catalina.valves.ErrorReportValve.invoke(ErrorReportValve.java:80)
	at org.apache.catalina.valves.AbstractAccessLogValve.invoke(AbstractAccessLogValve.java:624)
	at org.apache.catalina.core.StandardEngineValve.invoke(StandardEngineValve.java:87)
	at org.apache.catalina.connector.CoyoteAdapter.service(CoyoteAdapter.java:342)
	at org.apache.coyote.http11.Http11Processor.service(Http11Processor.java:799)
	at org.apache.coyote.AbstractProcessorLight.process(AbstractProcessorLight.java:66)
	at org.apache.coyote.AbstractProtocol$ConnectionHandler.process(AbstractProtocol.java:861)
	at org.apache.tomcat.util.net.NioEndpoint$SocketProcessor.doRun(NioEndpoint.java:1455)
	at org.apache.tomcat.util.net.SocketProcessorBase.run(SocketProcessorBase.java:49)
	at java.util.concurrent.ThreadPoolExecutor.runWorker(ThreadPoolExecutor.java:1149)
	at java.util.concurrent.ThreadPoolExecutor$Worker.run(ThreadPoolExecutor.java:624)
	at org.apache.tomcat.util.threads.TaskThread$WrappingRunnable.run(TaskThread.java:61)
	at java.lang.Thread.run(Thread.java:748)
Caused by: java.net.ConnectException: Connection timed out: connect
	at java.net.DualStackPlainSocketImpl.connect0(Native Method)
	at java.net.DualStackPlainSocketImpl.socketConnect(DualStackPlainSocketImpl.java:79)
	at java.net.AbstractPlainSocketImpl.doConnect(AbstractPlainSocketImpl.java:350)
	at java.net.AbstractPlainSocketImpl.connectToAddress(AbstractPlainSocketImpl.java:206)
	at java.net.AbstractPlainSocketImpl.connect(AbstractPlainSocketImpl.java:188)
	at java.net.PlainSocketImpl.connect(PlainSocketImpl.java:172)
	at java.net.SocksSocketImpl.connect(SocksSocketImpl.java:392)
	at java.net.Socket.connect(Socket.java:589)
	at sun.security.ssl.SSLSocketImpl.connect(SSLSocketImpl.java:666)
	at sun.security.ssl.BaseSSLSocketImpl.connect(BaseSSLSocketImpl.java:173)
	at sun.net.NetworkClient.doConnect(NetworkClient.java:180)
	at sun.net.www.http.HttpClient.openServer(HttpClient.java:463)
	at sun.net.www.http.HttpClient.openServer(HttpClient.java:558)
	at sun.net.www.protocol.https.HttpsClient.<init>(HttpsClient.java:264)
	at sun.net.www.protocol.https.HttpsClient.New(HttpsClient.java:367)
	at sun.net.www.protocol.https.AbstractDelegateHttpsURLConnection.getNewHttpClient(AbstractDelegateHttpsURLConnection.java:191)
	at sun.net.www.protocol.http.HttpURLConnection.plainConnect0(HttpURLConnection.java:1199)
	at sun.net.www.protocol.http.HttpURLConnection.plainConnect(HttpURLConnection.java:1050)
	at sun.net.www.protocol.https.AbstractDelegateHttpsURLConnection.connect(AbstractDelegateHttpsURLConnection.java:177)
	at sun.net.www.protocol.http.HttpURLConnection.getOutputStream0(HttpURLConnection.java:1334)
	at sun.net.www.protocol.http.HttpURLConnection.getOutputStream(HttpURLConnection.java:1309)
	at sun.net.www.protocol.https.HttpsURLConnectionImpl.getOutputStream(HttpsURLConnectionImpl.java:259)
	at com.sforce.ws.transport.JdkHttpTransport.connectRaw(JdkHttpTransport.java:143)
	at com.sforce.ws.transport.JdkHttpTransport.connectLocal(JdkHttpTransport.java:103)
	at com.sforce.ws.transport.JdkHttpTransport.connectLocal(JdkHttpTransport.java:98)
	at com.sforce.ws.transport.JdkHttpTransport.connect(JdkHttpTransport.java:94)
	at com.sforce.ws.transport.SoapConnection.send(SoapConnection.java:104)
	... 76 more
2020-04-08 23:10:34 ERROR f91f3c1c-17aa-4e4b-e1d3-0e71930e858c_505:1216 - INVALID_LOGIN : Invalid username, password, security token; or user locked out.
com.rabit.service.ws.exception.RabitServicesException: INVALID_LOGIN : Invalid username, password, security token; or user locked out.
	at com.rabit.deployment.sf.dataloader.DataLoaderProConfig.executeSoqlQueryFromPrepQuery(DataLoaderProConfig.java:5493)
	at com.rabit.deployment.sf.dataloader.DataLoaderProConfig.querySample(DataLoaderProConfig.java:5419)
	at com.rabit.deployment.sf.dataloader.DataLoaderProConfig.getParentRelationship(DataLoaderProConfig.java:4760)
	at com.rabit.deployment.sf.dataloader.DataLoaderProConfig.extractDataFrmSource(DataLoaderProConfig.java:1582)
	at com.rabit.deployment.sf.dataloader.DataLoaderProConfig.startProcessExecution(DataLoaderProConfig.java:1510)
	at com.rabit.deployment.sf.dataloader.DataLoaderProConfig.runProcess(DataLoaderProConfig.java:1200)
	at com.rabit.service.ws.RabitServices.runDataloaderProProcess(RabitServices.java:4409)
	at sun.reflect.NativeMethodAccessorImpl.invoke0(Native Method)
	at sun.reflect.NativeMethodAccessorImpl.invoke(NativeMethodAccessorImpl.java:62)
	at sun.reflect.DelegatingMethodAccessorImpl.invoke(DelegatingMethodAccessorImpl.java:43)
	at java.lang.reflect.Method.invoke(Method.java:498)
	at com.sun.xml.ws.util.Trampoline.invoke(MethodUtil.java:52)
	at sun.reflect.GeneratedMethodAccessor582.invoke(Unknown Source)
	at sun.reflect.DelegatingMethodAccessorImpl.invoke(DelegatingMethodAccessorImpl.java:43)
	at java.lang.reflect.Method.invoke(Method.java:498)
	at com.sun.xml.ws.util.MethodUtil.invoke(MethodUtil.java:77)
	at com.sun.xml.ws.api.server.MethodUtil.invoke(MethodUtil.java:34)
	at com.sun.xml.ws.api.server.InstanceResolver$1.invoke(InstanceResolver.java:220)
	at com.sun.xml.ws.server.InvokerTube$2.invoke(InvokerTube.java:119)
	at com.sun.xml.ws.server.sei.SEIInvokerTube.processRequest(SEIInvokerTube.java:58)
	at com.sun.xml.ws.api.pipe.Fiber.__doRun(Fiber.java:1106)
	at com.sun.xml.ws.api.pipe.Fiber._doRun(Fiber.java:1020)
	at com.sun.xml.ws.api.pipe.Fiber.doRun(Fiber.java:989)
	at com.sun.xml.ws.api.pipe.Fiber.runSync(Fiber.java:847)
	at com.sun.xml.ws.server.WSEndpointImpl$2.process(WSEndpointImpl.java:389)
	at com.sun.xml.ws.transport.http.HttpAdapter$HttpToolkit.handle(HttpAdapter.java:838)
	at com.sun.xml.ws.transport.http.HttpAdapter.handle(HttpAdapter.java:392)
	at com.sun.xml.ws.transport.http.servlet.ServletAdapter.invokeAsync(ServletAdapter.java:195)
	at com.sun.xml.ws.transport.http.servlet.WSServletDelegate.doGet(WSServletDelegate.java:131)
	at com.sun.xml.ws.transport.http.servlet.WSServletDelegate.doPost(WSServletDelegate.java:167)
	at com.sun.xml.ws.transport.http.servlet.WSServlet.doPost(WSServlet.java:51)
	at javax.servlet.http.HttpServlet.service(HttpServlet.java:661)
	at javax.servlet.http.HttpServlet.service(HttpServlet.java:742)
	at org.apache.catalina.core.ApplicationFilterChain.internalDoFilter(ApplicationFilterChain.java:231)
	at org.apache.catalina.core.ApplicationFilterChain.doFilter(ApplicationFilterChain.java:166)
	at org.springframework.security.web.FilterChainProxy.doFilterInternal(FilterChainProxy.java:186)
	at org.springframework.security.web.FilterChainProxy.doFilter(FilterChainProxy.java:160)
	at org.springframework.web.filter.DelegatingFilterProxy.invokeDelegate(DelegatingFilterProxy.java:358)
	at org.springframework.web.filter.DelegatingFilterProxy.doFilter(DelegatingFilterProxy.java:271)
	at org.apache.catalina.core.ApplicationFilterChain.internalDoFilter(ApplicationFilterChain.java:193)
	at org.apache.catalina.core.ApplicationFilterChain.doFilter(ApplicationFilterChain.java:166)
	at org.apache.tomcat.websocket.server.WsFilter.doFilter(WsFilter.java:52)
	at org.apache.catalina.core.ApplicationFilterChain.internalDoFilter(ApplicationFilterChain.java:193)
	at org.apache.catalina.core.ApplicationFilterChain.doFilter(ApplicationFilterChain.java:166)
	at net.bull.javamelody.MonitoringFilter.doFilter(MonitoringFilter.java:239)
	at net.bull.javamelody.MonitoringFilter.doFilter(MonitoringFilter.java:215)
	at org.apache.catalina.core.ApplicationFilterChain.internalDoFilter(ApplicationFilterChain.java:193)
	at org.apache.catalina.core.ApplicationFilterChain.doFilter(ApplicationFilterChain.java:166)
	at com.rabit.testgen.services.rest.CORSFilter.doFilterInternal(CORSFilter.java:38)
	at org.springframework.web.filter.OncePerRequestFilter.doFilter(OncePerRequestFilter.java:119)
	at org.apache.catalina.core.ApplicationFilterChain.internalDoFilter(ApplicationFilterChain.java:193)
	at org.apache.catalina.core.ApplicationFilterChain.doFilter(ApplicationFilterChain.java:166)
	at com.rabit.service.ws.RabitServicesWebFilter.doFilter(RabitServicesWebFilter.java:54)
	at org.apache.catalina.core.ApplicationFilterChain.internalDoFilter(ApplicationFilterChain.java:193)
	at org.apache.catalina.core.ApplicationFilterChain.doFilter(ApplicationFilterChain.java:166)
	at com.rabit.service.ws.RabitServicesFilter.doFilter(RabitServicesFilter.java:340)
	at org.apache.catalina.core.ApplicationFilterChain.internalDoFilter(ApplicationFilterChain.java:193)
	at org.apache.catalina.core.ApplicationFilterChain.doFilter(ApplicationFilterChain.java:166)
	at org.apache.catalina.core.StandardWrapperValve.invoke(StandardWrapperValve.java:198)
	at org.apache.catalina.core.StandardContextValve.invoke(StandardContextValve.java:96)
	at org.apache.catalina.authenticator.AuthenticatorBase.invoke(AuthenticatorBase.java:478)
	at org.apache.catalina.core.StandardHostValve.invoke(StandardHostValve.java:140)
	at org.apache.catalina.valves.ErrorReportValve.invoke(ErrorReportValve.java:80)
	at org.apache.catalina.valves.AbstractAccessLogValve.invoke(AbstractAccessLogValve.java:624)
	at org.apache.catalina.core.StandardEngineValve.invoke(StandardEngineValve.java:87)
	at org.apache.catalina.connector.CoyoteAdapter.service(CoyoteAdapter.java:342)
	at org.apache.coyote.http11.Http11Processor.service(Http11Processor.java:799)
	at org.apache.coyote.AbstractProcessorLight.process(AbstractProcessorLight.java:66)
	at org.apache.coyote.AbstractProtocol$ConnectionHandler.process(AbstractProtocol.java:861)
	at org.apache.tomcat.util.net.NioEndpoint$SocketProcessor.doRun(NioEndpoint.java:1455)
	at org.apache.tomcat.util.net.SocketProcessorBase.run(SocketProcessorBase.java:49)
	at java.util.concurrent.ThreadPoolExecutor.runWorker(ThreadPoolExecutor.java:1149)
	at java.util.concurrent.ThreadPoolExecutor$Worker.run(ThreadPoolExecutor.java:624)
	at org.apache.tomcat.util.threads.TaskThread$WrappingRunnable.run(TaskThread.java:61)
	at java.lang.Thread.run(Thread.java:748)
2020-04-08 23:10:35 INFO  f91f3c1c-17aa-4e4b-e1d3-0e71930e858c_505:1298 - Process execution completed.
2020-04-08 23:10:35 INFO  f91f3c1c-17aa-4e4b-e1d3-0e71930e858c_505:1365 -  Process data files has been deleted .
