2020-03-23 14:43:22 INFO  5aa8b601-f7f4-4e6f-b821-cdc4dfceff9e_972:1448 - Getting related records and dependenices with selected crieteria
2020-03-23 14:43:30 INFO  5aa8b601-f7f4-4e6f-b821-cdc4dfceff9e_972:1479 - Identifying users for User-lookup mapping
2020-03-23 14:43:35 INFO  5aa8b601-f7f4-4e6f-b821-cdc4dfceff9e_972:4669 - GetParents: Getting parents of Account
2020-03-23 14:44:47 INFO  5aa8b601-f7f4-4e6f-b821-cdc4dfceff9e_972:4718 - <font color='blue'>Account has 241 retrievable records</font>
2020-03-23 14:44:51 INFO  5aa8b601-f7f4-4e6f-b821-cdc4dfceff9e_972:4764 - Account has no new parent record(s) in [Account] with the field MasterRecordId as reference
2020-03-23 14:44:53 INFO  5aa8b601-f7f4-4e6f-b821-cdc4dfceff9e_972:4764 - Account has no new parent record(s) in [Account] with the field ParentId as reference
2020-03-23 14:44:53 INFO  5aa8b601-f7f4-4e6f-b821-cdc4dfceff9e_972:1595 - Object-level map based on the object dependencies
2020-03-23 14:44:53 INFO  5aa8b601-f7f4-4e6f-b821-cdc4dfceff9e_972:5139 - Account   :  '0'
2020-03-23 14:44:53 INFO  5aa8b601-f7f4-4e6f-b821-cdc4dfceff9e_972:4245 - No masking rules applied on Account
2020-03-23 14:44:57 INFO  5aa8b601-f7f4-4e6f-b821-cdc4dfceff9e_972:4441 - Account has 241 Record(s)
2020-03-23 14:44:57 INFO  5aa8b601-f7f4-4e6f-b821-cdc4dfceff9e_972:1511 - Inserting data from org 'RJ_SF_IN_BB_Repo1' to org 'RJ_SF_AR_BB'
2020-03-23 14:45:10 INFO  5aa8b601-f7f4-4e6f-b821-cdc4dfceff9e_972:2028 - Upsert started on object: Account
2020-03-23 14:45:14 INFO  5aa8b601-f7f4-4e6f-b821-cdc4dfceff9e_972:2118 - Upsert completed for object : Account
2020-03-23 14:45:14 INFO  5aa8b601-f7f4-4e6f-b821-cdc4dfceff9e_972:2122 - Success:0 Errors:0
2020-03-23 14:45:15 INFO  5aa8b601-f7f4-4e6f-b821-cdc4dfceff9e_972:1297 - Process execution completed.
2020-03-23 14:45:16 INFO  5aa8b601-f7f4-4e6f-b821-cdc4dfceff9e_972:1364 -  Process data files has been deleted .
