2020-02-02 12:48:16 INFO  Vwq4gFFEtG5U:247 - generateMasterCheckoutsThread Called from Rotation Policy.
2020-02-02 12:48:17 INFO  Vwq4gFFEtG5U:59 - Total Number of Orgs 2
2020-02-02 12:48:17 INFO  Vwq4gFFEtG5U:61 - ::generateMasterCheckouts - :: StartTimeSun Feb 02 12:48:17 IST 2020
2020-02-02 12:48:17 INFO  Vwq4gFFEtG5U:63 - processing for org nisum.com
2020-02-02 12:48:17 INFO  Vwq4gFFEtG5U:63 - processing for org autorabit.com-PmkSJi
2020-02-02 12:48:17 INFO  Vwq4gFFEtG5U:66 - Total Number of Repos 5
2020-02-02 12:48:19 INFO  Vwq4gFFEtG5U:96 - AR-Debug:: Fetching Credentials for userID:aSe3kkdDWf35X2Hw in orgName:autorabit.com-PmkSJi with accessKey:rj_bb_askme_repo
2020-02-02 12:48:19 INFO  Vwq4gFFEtG5U:133 - Master checkout process started for repo:BBrepo1
