2019-12-27 14:45:37 INFO  20191227144537781:4556 - generateMasterCheckoutsThread Called from Migration on Repo registration.
2019-12-27 14:45:37 INFO  20191227144537781:96 - AR-Debug:: Fetching Credentials for userID:XXZeRHWlZYsOSxSx in orgName:autorabit.com-PmkSJi with accessKey:rj_bb_askme_repo
2019-12-27 14:45:37 INFO  20191227144537781:133 - Master checkout process started for repo:Anupam_Repo
2019-12-27 14:45:37 INFO  20191227144537781:191 - SCM URL : https://bitbucket.org/rajashekarj/anupam.git
2019-12-27 14:45:37 INFO  20191227144537781:731 - AR-Debug:: Found https/http protocol setting username and password.
2019-12-27 14:45:40 INFO  20191227144537781:1341 - Found https/http protocol setting username and password.
2019-12-27 14:45:42 INFO  20191227144537781:144 - Working copy not exists. Taking checkout
2019-12-27 14:45:42 INFO  20191227144537781:1065 - Cloning the target branch.
2019-12-27 14:45:42 INFO  20191227144537781:1087 - OrgName : autorabit.com-PmkSJiFound https/http protocol setting username and password.
2019-12-27 14:45:46 INFO  20191227144537781:90 - remote: Counting objects: 3
2019-12-27 14:45:46 INFO  20191227144537781:90 - remote: Counting objects: 3
2019-12-27 14:45:46 INFO  20191227144537781:90 - remote: Compressing objects:  50% (1/2)
2019-12-27 14:45:46 INFO  20191227144537781:90 - remote: Compressing objects: 100% (2/2)
2019-12-27 14:45:46 INFO  20191227144537781:90 - remote: Compressing objects: 100% (2/2)
2019-12-27 14:45:46 INFO  20191227144537781:90 - Receiving objects:       33% (1/3)
2019-12-27 14:45:46 INFO  20191227144537781:90 - Receiving objects:       66% (2/3)
2019-12-27 14:45:46 INFO  20191227144537781:90 - Receiving objects:      100% (3/3)
2019-12-27 14:45:46 INFO  20191227144537781:90 - Receiving objects:      100% (3/3)
2019-12-27 14:45:46 INFO  20191227144537781:90 - Updating references:    100% (1/1)
2019-12-27 14:45:46 INFO  20191227144537781:90 - Updating references:    100% (1/1)
2019-12-27 14:45:47 INFO  20191227144537781:90 - Checking out files:     100% (1/1)
2019-12-27 14:45:47 INFO  20191227144537781:90 - Checking out files:     100% (1/1)
2019-12-27 14:45:47 INFO  20191227144537781:1095 - OrgName : autorabit.com-PmkSJi branch cloned successfully.
2019-12-27 14:45:47 INFO  20191227144537781:1096 - target branch cloned successfully.
2019-12-27 14:45:47 INFO  20191227144537781:168 - Master checkout process Completed for repo:Anupam_Repo
