2020.02.19.08.29.16--Updated build properties.
2020.02.19.08.29.16--Starting the Build Process
2020.02.19.08.29.16--AR-Debug:: orgname : autorabit.com-PmkSJi projectname : Test22627 buildnumber : 6 buildforced : true agentname : ArAgent status : Inprogress
2020.02.19.08.29.17--AR-Debug:: update build status : Success
2020.02.19.08.29.17--Step1 : Checking for modifications to continue the build.
2020.02.19.08.29.17--::::::In getUserCredential ::
2020.02.19.08.29.17--Org Name: autorabit.com-PmkSJi, Project Name: Test22627,getUserCredentials initated to AgentService.
2020.02.19.08.29.17--Org Name: autorabit.com-PmkSJi, Project Name: Test22627, getUserCredentials completed.
2020.02.19.08.29.17--SCM URL : https://bitbucket.org/kareemuddin/new-ap3-repo.git
2020.02.19.08.29.17--Updating working copy.
2020.02.19.08.29.17--Same remote url found. Updating working copy.
2020.02.19.08.29.17--AR-Debug:: OrgName : autorabit.com-PmkSJi Executing custom API
2020.02.19.08.29.17--Executing custom API
2020.02.19.08.29.19--orgName : autorabit.com-PmkSJi Executing custom API
2020.02.19.08.29.20--Same remote url found. Updating working copy.
2020.02.19.08.29.21--AR-Debug:: OrgName : autorabit.com-PmkSJi Executing custom API
2020.02.19.08.29.21--Executing custom API
2020.02.19.08.29.23--Checkout completed.
2020.02.19.08.29.23--Step1 : Modifications exist, Proceeding for next steps...
2020.02.19.08.29.23--Step2 : Cleaning the directories and creating.
2020.02.19.08.29.23--Step2 : Directories creation completed proceeding for next steps...
2020.02.19.08.29.23--Step3 : Checkout / Data retrieval process started.
2020.02.19.08.29.23--Project checkout path : D:\filesystem\193\agent\projects\autorabit.com-PmkSJi_Test22627
2020.02.19.08.29.23--Fetching all changed files.
2020.02.19.08.29.23--SCM URL : https://bitbucket.org/kareemuddin/new-ap3-repo.git
2020.02.19.08.29.23--::generateChangeList - scm.getLog:: StartTimeWed Feb 19 13:59:23 IST 2020
2020.02.19.08.29.23--Same remote url found. Updating working copy.
2020.02.19.08.29.23--AR-Debug:: OrgName : autorabit.com-PmkSJi Executing custom API
2020.02.19.08.29.23--Executing custom API
2020.02.19.08.29.25--From Revision : null To Revision : bc6a323
2020.02.19.08.29.25--Revision numbers are same so getting complete log and filtering.
2020.02.19.08.29.25--AR-Debug:: OrgName : autorabit.com-PmkSJi Executing custom API
2020.02.19.08.29.25--Executing custom API
2020.02.19.08.29.26--AR-Debug::  isSame: true
2020.02.19.08.29.26--AR-Debug::  fromRev: null
2020.02.19.08.29.26--AR-Debug::  gitshaLength: 7
2020.02.19.08.29.27--
 Generated log entries and finished all threads - 
2020.02.19.08.29.27--AR-Debug::  allRevisions: [bc6a323, 242fd50, 653d9bb, 89b40cb, 8376cbd]
2020.02.19.08.29.27--AR-Debug::  allRevisions size: 5
2020.02.19.08.29.27--AR-Debug::  logsMap size: 5
2020.02.19.08.29.27--AR-Debug::  logsMap revisions: [8376cbd, 242fd50, 653d9bb, bc6a323, 89b40cb]
2020.02.19.08.29.27--generateChangeList - scm.getLog:: EndTime : Wed Feb 19 13:59:27 IST 2020
2020.02.19.08.29.27--Total scm.getLog time in sec: 3
2020.02.19.08.29.27--SCM log generated for processing changes.
2020.02.19.08.29.27--Writing scmlog to file.
2020.02.19.08.29.27--Changelist generated.
2020.02.19.08.29.35--In validateDeployableMetaDataSchema:::::::startTime::Wed Feb 19 13:59:35 IST 2020 directoryPath::D:\filesystem\193\agent\projects\autorabit.com-PmkSJi_Test22627\customDeploy lastCall::true
2020.02.19.08.29.37--Package xml file path : D:\filesystem\193\agent\projects\autorabit.com-PmkSJi_Test22627\customDeploy\package.xml
2020.02.19.08.29.37--Preparing the dynamic package.xml file.
2020.02.19.08.29.37--Saved package manifest.
2020.02.19.08.29.37--D:\filesystem\193\agent\projects\autorabit.com-PmkSJi_Test22627\customDeploy\force-app\main\default\lwc deleted
2020.02.19.08.29.37--D:\filesystem\193\agent\projects\autorabit.com-PmkSJi_Test22627\customDeploy\sfdxbuild deleted
2020.02.19.08.29.37--Step3 : Checkout / Data retrieval completed proceeding for next steps...
2020.02.19.08.29.37--Building source from a SFDX branch
2020.02.19.08.29.37--Step4 : Package steps started
2020.02.19.08.29.44--Checking for modifications on source folder: force-app
2020.02.19.08.29.44--Modifications exist with source folder: force-app
2020.02.19.08.29.55--AR-Debug:: Cleanup completed for SFDX build
2020.02.19.08.29.59--<font color='red'>Cannot run program "sfdx" (in directory "C:\Users\RajashekarJadala"): CreateProcess error=2, The system cannot find the file specified</font>
2020.02.19.08.30.06--Packaging completed successfully.
2020.02.19.08.30.06--SCM URL : https://bitbucket.org/kareemuddin/new-ap3-repo.git
2020.02.19.08.30.06--Checkout completed.
2020.02.19.08.30.06--<font color='red'>Step5 : Package steps failed</font>
2020.02.19.08.30.06--AR-Debug:: orgname : autorabit.com-PmkSJi projectname : Test22627 buildnumber : 6 buildforced : true agentname : ArAgent status : Failed
2020-02-19 14:00:07 INFO  com-PmkSJi_Test22627_6:824 - autorabit.com-PmkSJi_Test22627 Post build steps started.
2020-02-19 14:00:07 INFO  com-PmkSJi_Test22627_6:83 - CIJob info saved successfully
2020-02-19 14:00:07 INFO  com-PmkSJi_Test22627_6:992 - <br />BUILD FAILED
2020-02-19 14:00:07 INFO  com-PmkSJi_Test22627_6:995 - Total time: 52 Seconds
2020-02-19 14:00:07 INFO  com-PmkSJi_Test22627_6:996 - Build Completed
2020.02.19.08.30.07--AR-Debug:: update build status : Success
2020.02.19.08.30.07--AR-Debug:: Agent Side : Total time taken to complete build process: 51 Seconds
