2020-05-04 23:49:25 INFO  userid_DL:188 - Fetching all dataloader processes of type = single.
2020-05-04 23:49:25 INFO  userid_DL:440 - getProcessFilters: Fetching dataloader process filters related to processId = delete_783705ad-f469-4068-9251-2816bd339feb.
2020-05-04 23:49:25 INFO  userid_DL:440 - getProcessFilters: Fetching dataloader process filters related to processId = extract_c1dd16c6-e001-42ce-a6ae-ba73b5c54b83.
2020-05-04 23:49:25 INFO  userid_DL:440 - getProcessFilters: Fetching dataloader process filters related to processId = delete_a4a05cab-1c77-445a-bf46-33d2e464c626.
2020-05-04 23:49:25 INFO  userid_DL:440 - getProcessFilters: Fetching dataloader process filters related to processId = extract_32947dd4-84c3-4649-8439-e14834fa1bde.
2020-05-04 23:49:25 INFO  userid_DL:440 - getProcessFilters: Fetching dataloader process filters related to processId = extract_89854290-f75a-46ac-d025-5c820d768470.
2020-05-04 23:49:25 INFO  userid_DL:440 - getProcessFilters: Fetching dataloader process filters related to processId = extract_5f65f88c-9a0f-42a1-9ad4-36524fbd7161.
2020-05-04 23:49:25 INFO  userid_DL:440 - getProcessFilters: Fetching dataloader process filters related to processId = delete_a01e722f-7bf3-45e1-86ee-8d78fec05a76.
2020-05-04 23:49:25 INFO  userid_DL:440 - getProcessFilters: Fetching dataloader process filters related to processId = extract_90347152-6192-46f6-e586-d97b39217de2.
2020-05-04 23:49:25 INFO  userid_DL:440 - getProcessFilters: Fetching dataloader process filters related to processId = delete_d2fa0614-93ac-4515-ecef-3a8ec7532afd.
2020-05-04 23:49:25 INFO  userid_DL:440 - getProcessFilters: Fetching dataloader process filters related to processId = extract_7e1a5719-11ec-4b50-eb9b-db0a4439c16a.
2020-05-04 23:49:25 INFO  userid_DL:440 - getProcessFilters: Fetching dataloader process filters related to processId = delete_f23a57e8-5ae7-41ef-dd48-fe7fc359a04c.
2020-05-04 23:49:25 INFO  userid_DL:440 - getProcessFilters: Fetching dataloader process filters related to processId = extract_8a965535-9979-447b-9fa3-41d2eccaa2d2.
2020-05-04 23:49:25 INFO  userid_DL:440 - getProcessFilters: Fetching dataloader process filters related to processId = delete_9c18bb6f-69cf-4b4f-84b0-db33952b098c.
2020-05-04 23:49:25 INFO  userid_DL:440 - getProcessFilters: Fetching dataloader process filters related to processId = extract_bb863973-42ad-4b84-cab9-019c83b36c7d.
2020-05-04 23:49:25 INFO  userid_DL:440 - getProcessFilters: Fetching dataloader process filters related to processId = delete_395752ea-e751-450a-dbe5-b67f710b1f27.
2020-05-04 23:49:25 INFO  userid_DL:440 - getProcessFilters: Fetching dataloader process filters related to processId = extract_d5442f9d-ee51-474b-ae5f-b6b747bef06a.
2020-05-04 23:49:25 INFO  userid_DL:440 - getProcessFilters: Fetching dataloader process filters related to processId = delete_7425127a-f833-450e-e99d-7e06cd17b91e.
2020-05-04 23:49:25 INFO  userid_DL:440 - getProcessFilters: Fetching dataloader process filters related to processId = extract_b29967ba-bb51-4c0b-b071-618a6673e789.
2020-05-04 23:49:25 INFO  userid_DL:440 - getProcessFilters: Fetching dataloader process filters related to processId = delete_a382eeff-24d1-4460-e5c2-b6d4ce6afc11.
2020-05-04 23:49:25 INFO  userid_DL:440 - getProcessFilters: Fetching dataloader process filters related to processId = extract_ee036d11-2a76-44f3-ce2b-05bfbbb5409c.
2020-05-04 23:49:25 INFO  userid_DL:440 - getProcessFilters: Fetching dataloader process filters related to processId = update_d9449f6e-babd-455f-8994-2e2068f3c895.
2020-05-04 23:49:26 INFO  userid_DL:440 - getProcessFilters: Fetching dataloader process filters related to processId = extract_242dff32-70a7-493c-a7b0-4a1c3cff1160.
2020-05-04 23:49:26 INFO  userid_DL:440 - getProcessFilters: Fetching dataloader process filters related to processId = upsert_290c1e39-ad60-4282-9897-90a00d0c9642.
2020-05-04 23:49:26 INFO  userid_DL:440 - getProcessFilters: Fetching dataloader process filters related to processId = extract_9c51807b-29ab-47a7-cd44-3fe1e4267e95.
2020-05-04 23:49:26 INFO  userid_DL:440 - getProcessFilters: Fetching dataloader process filters related to processId = extract_84a77d26-bb31-4933-8241-fbd0b9155cab.
2020-05-05 00:27:19 INFO  userid_DL:188 - Fetching all dataloader processes of type = single.
2020-05-05 00:27:19 INFO  userid_DL:440 - getProcessFilters: Fetching dataloader process filters related to processId = delete_783705ad-f469-4068-9251-2816bd339feb.
2020-05-05 00:27:19 INFO  userid_DL:440 - getProcessFilters: Fetching dataloader process filters related to processId = extract_c1dd16c6-e001-42ce-a6ae-ba73b5c54b83.
2020-05-05 00:27:19 INFO  userid_DL:440 - getProcessFilters: Fetching dataloader process filters related to processId = delete_a4a05cab-1c77-445a-bf46-33d2e464c626.
2020-05-05 00:27:19 INFO  userid_DL:440 - getProcessFilters: Fetching dataloader process filters related to processId = extract_32947dd4-84c3-4649-8439-e14834fa1bde.
2020-05-05 00:27:19 INFO  userid_DL:440 - getProcessFilters: Fetching dataloader process filters related to processId = extract_89854290-f75a-46ac-d025-5c820d768470.
2020-05-05 00:27:19 INFO  userid_DL:440 - getProcessFilters: Fetching dataloader process filters related to processId = extract_5f65f88c-9a0f-42a1-9ad4-36524fbd7161.
2020-05-05 00:27:19 INFO  userid_DL:440 - getProcessFilters: Fetching dataloader process filters related to processId = delete_a01e722f-7bf3-45e1-86ee-8d78fec05a76.
2020-05-05 00:27:19 INFO  userid_DL:440 - getProcessFilters: Fetching dataloader process filters related to processId = extract_90347152-6192-46f6-e586-d97b39217de2.
2020-05-05 00:27:19 INFO  userid_DL:440 - getProcessFilters: Fetching dataloader process filters related to processId = delete_d2fa0614-93ac-4515-ecef-3a8ec7532afd.
2020-05-05 00:27:19 INFO  userid_DL:440 - getProcessFilters: Fetching dataloader process filters related to processId = extract_7e1a5719-11ec-4b50-eb9b-db0a4439c16a.
2020-05-05 00:27:19 INFO  userid_DL:440 - getProcessFilters: Fetching dataloader process filters related to processId = delete_f23a57e8-5ae7-41ef-dd48-fe7fc359a04c.
2020-05-05 00:27:19 INFO  userid_DL:440 - getProcessFilters: Fetching dataloader process filters related to processId = extract_8a965535-9979-447b-9fa3-41d2eccaa2d2.
2020-05-05 00:27:19 INFO  userid_DL:440 - getProcessFilters: Fetching dataloader process filters related to processId = delete_9c18bb6f-69cf-4b4f-84b0-db33952b098c.
2020-05-05 00:27:19 INFO  userid_DL:440 - getProcessFilters: Fetching dataloader process filters related to processId = extract_bb863973-42ad-4b84-cab9-019c83b36c7d.
2020-05-05 00:27:19 INFO  userid_DL:440 - getProcessFilters: Fetching dataloader process filters related to processId = delete_395752ea-e751-450a-dbe5-b67f710b1f27.
2020-05-05 00:27:19 INFO  userid_DL:440 - getProcessFilters: Fetching dataloader process filters related to processId = extract_d5442f9d-ee51-474b-ae5f-b6b747bef06a.
2020-05-05 00:27:19 INFO  userid_DL:440 - getProcessFilters: Fetching dataloader process filters related to processId = delete_7425127a-f833-450e-e99d-7e06cd17b91e.
2020-05-05 00:27:19 INFO  userid_DL:440 - getProcessFilters: Fetching dataloader process filters related to processId = extract_b29967ba-bb51-4c0b-b071-618a6673e789.
2020-05-05 00:27:19 INFO  userid_DL:440 - getProcessFilters: Fetching dataloader process filters related to processId = delete_a382eeff-24d1-4460-e5c2-b6d4ce6afc11.
2020-05-05 00:27:20 INFO  userid_DL:440 - getProcessFilters: Fetching dataloader process filters related to processId = extract_ee036d11-2a76-44f3-ce2b-05bfbbb5409c.
2020-05-05 00:27:20 INFO  userid_DL:440 - getProcessFilters: Fetching dataloader process filters related to processId = update_d9449f6e-babd-455f-8994-2e2068f3c895.
2020-05-05 00:27:20 INFO  userid_DL:440 - getProcessFilters: Fetching dataloader process filters related to processId = extract_242dff32-70a7-493c-a7b0-4a1c3cff1160.
2020-05-05 00:27:20 INFO  userid_DL:440 - getProcessFilters: Fetching dataloader process filters related to processId = upsert_290c1e39-ad60-4282-9897-90a00d0c9642.
2020-05-05 00:27:20 INFO  userid_DL:440 - getProcessFilters: Fetching dataloader process filters related to processId = extract_9c51807b-29ab-47a7-cd44-3fe1e4267e95.
2020-05-05 00:27:20 INFO  userid_DL:440 - getProcessFilters: Fetching dataloader process filters related to processId = extract_84a77d26-bb31-4933-8241-fbd0b9155cab.
2020-05-05 00:28:16 INFO  userid_DL:1858 - oldFile file has been deleted
2020-05-05 00:28:45 INFO  userid_DL:94 - getDataloaderProcess: Fetching dataloader process with orgname = autorabit.com-PmkSJi and processId = insert_b6064f6b-054a-492b-8e64-068e6ebd89bf.
2020-05-05 00:28:45 INFO  userid_DL:291 - getProcessBasedOnPocessName: Fetching dataloader process with processname = vroneRecordInsert of type =single.
2020-05-05 00:28:45 INFO  userid_DL:275 - getProcessObjectsBasedOnName: Fetching dataloader process of processId = insert_b6064f6b-054a-492b-8e64-068e6ebd89bfobject with name = bDeal__c.
2020-05-05 00:28:45 INFO  userid_DL:123 - saveDataloaderProcessObjects: Saving dataloader process object name = bDeal__c.
2020-05-05 00:28:45 INFO  userid_DL:64 - saveDataloaderProcesses: Saving dataloader process with processId = insert_b6064f6b-054a-492b-8e64-068e6ebd89bf.
2020-05-05 00:28:50 INFO  userid_DL:94 - getDataloaderProcess: Fetching dataloader process with orgname = autorabit.com-PmkSJi and processId = insert_b6064f6b-054a-492b-8e64-068e6ebd89bf.
2020-05-05 00:28:50 INFO  userid_DL:188 - Fetching all dataloader processes of type = single.
2020-05-05 00:28:50 INFO  userid_DL:440 - getProcessFilters: Fetching dataloader process filters related to processId = insert_b6064f6b-054a-492b-8e64-068e6ebd89bf.
2020-05-05 00:28:50 INFO  userid_DL:440 - getProcessFilters: Fetching dataloader process filters related to processId = delete_783705ad-f469-4068-9251-2816bd339feb.
2020-05-05 00:28:50 INFO  userid_DL:440 - getProcessFilters: Fetching dataloader process filters related to processId = extract_c1dd16c6-e001-42ce-a6ae-ba73b5c54b83.
2020-05-05 00:28:50 INFO  userid_DL:440 - getProcessFilters: Fetching dataloader process filters related to processId = delete_a4a05cab-1c77-445a-bf46-33d2e464c626.
2020-05-05 00:28:50 INFO  userid_DL:440 - getProcessFilters: Fetching dataloader process filters related to processId = extract_32947dd4-84c3-4649-8439-e14834fa1bde.
2020-05-05 00:28:50 INFO  userid_DL:440 - getProcessFilters: Fetching dataloader process filters related to processId = extract_89854290-f75a-46ac-d025-5c820d768470.
2020-05-05 00:28:50 INFO  userid_DL:440 - getProcessFilters: Fetching dataloader process filters related to processId = extract_5f65f88c-9a0f-42a1-9ad4-36524fbd7161.
2020-05-05 00:28:50 INFO  userid_DL:440 - getProcessFilters: Fetching dataloader process filters related to processId = delete_a01e722f-7bf3-45e1-86ee-8d78fec05a76.
2020-05-05 00:28:50 INFO  userid_DL:440 - getProcessFilters: Fetching dataloader process filters related to processId = extract_90347152-6192-46f6-e586-d97b39217de2.
2020-05-05 00:28:50 INFO  userid_DL:440 - getProcessFilters: Fetching dataloader process filters related to processId = delete_d2fa0614-93ac-4515-ecef-3a8ec7532afd.
2020-05-05 00:28:50 INFO  userid_DL:440 - getProcessFilters: Fetching dataloader process filters related to processId = extract_7e1a5719-11ec-4b50-eb9b-db0a4439c16a.
2020-05-05 00:28:50 INFO  userid_DL:440 - getProcessFilters: Fetching dataloader process filters related to processId = delete_f23a57e8-5ae7-41ef-dd48-fe7fc359a04c.
2020-05-05 00:28:50 INFO  userid_DL:440 - getProcessFilters: Fetching dataloader process filters related to processId = extract_8a965535-9979-447b-9fa3-41d2eccaa2d2.
2020-05-05 00:28:50 INFO  userid_DL:440 - getProcessFilters: Fetching dataloader process filters related to processId = delete_9c18bb6f-69cf-4b4f-84b0-db33952b098c.
2020-05-05 00:28:50 INFO  userid_DL:440 - getProcessFilters: Fetching dataloader process filters related to processId = extract_bb863973-42ad-4b84-cab9-019c83b36c7d.
2020-05-05 00:28:50 INFO  userid_DL:440 - getProcessFilters: Fetching dataloader process filters related to processId = delete_395752ea-e751-450a-dbe5-b67f710b1f27.
2020-05-05 00:28:50 INFO  userid_DL:440 - getProcessFilters: Fetching dataloader process filters related to processId = extract_d5442f9d-ee51-474b-ae5f-b6b747bef06a.
2020-05-05 00:28:50 INFO  userid_DL:440 - getProcessFilters: Fetching dataloader process filters related to processId = delete_7425127a-f833-450e-e99d-7e06cd17b91e.
2020-05-05 00:28:50 INFO  userid_DL:440 - getProcessFilters: Fetching dataloader process filters related to processId = extract_b29967ba-bb51-4c0b-b071-618a6673e789.
2020-05-05 00:28:50 INFO  userid_DL:440 - getProcessFilters: Fetching dataloader process filters related to processId = delete_a382eeff-24d1-4460-e5c2-b6d4ce6afc11.
2020-05-05 00:28:50 INFO  userid_DL:440 - getProcessFilters: Fetching dataloader process filters related to processId = extract_ee036d11-2a76-44f3-ce2b-05bfbbb5409c.
2020-05-05 00:28:50 INFO  userid_DL:440 - getProcessFilters: Fetching dataloader process filters related to processId = update_d9449f6e-babd-455f-8994-2e2068f3c895.
2020-05-05 00:28:50 INFO  userid_DL:440 - getProcessFilters: Fetching dataloader process filters related to processId = extract_242dff32-70a7-493c-a7b0-4a1c3cff1160.
2020-05-05 00:28:50 INFO  userid_DL:440 - getProcessFilters: Fetching dataloader process filters related to processId = upsert_290c1e39-ad60-4282-9897-90a00d0c9642.
2020-05-05 00:28:50 INFO  userid_DL:440 - getProcessFilters: Fetching dataloader process filters related to processId = extract_9c51807b-29ab-47a7-cd44-3fe1e4267e95.
2020-05-05 00:28:50 INFO  userid_DL:440 - getProcessFilters: Fetching dataloader process filters related to processId = extract_84a77d26-bb31-4933-8241-fbd0b9155cab.
2020-05-05 00:29:10 INFO  userid_DL:1239 - process execution is started.
2020-05-05 00:29:10 INFO  userid_DL:94 - getDataloaderProcess: Fetching dataloader process with orgname = autorabit.com-PmkSJi and processId = insert_b6064f6b-054a-492b-8e64-068e6ebd89bf.
2020-05-05 00:29:12 INFO  userid_DL:275 - getProcessObjectsBasedOnName: Fetching dataloader process of processId = insert_b6064f6b-054a-492b-8e64-068e6ebd89bfobject with name = bDeal__c.
2020-05-05 00:29:12 INFO  userid_DL:123 - saveDataloaderProcessObjects: Saving dataloader process object name = bDeal__c.
2020-05-05 00:29:12 INFO  userid_DL:1338 -  Initializing process engine
2020-05-05 00:29:12 INFO  userid_DL:1339 -  Loading parameters
2020-05-05 00:29:12 INFO  userid_DL:1340 -  Logging in to: https://ap17.salesforce.com
2020-05-05 00:29:12 INFO  userid_DL:1341 -  processName : <font color='blue'>vroneRecordInsert </font>
2020-05-05 00:29:12 INFO  userid_DL:64 - saveDataloaderProcesses: Saving dataloader process with processId = insert_b6064f6b-054a-492b-8e64-068e6ebd89bf.
2020-05-05 00:29:14 INFO  userid_DL:275 - getProcessObjectsBasedOnName: Fetching dataloader process of processId = insert_b6064f6b-054a-492b-8e64-068e6ebd89bfobject with name = bDeal__c.
2020-05-05 00:29:14 INFO  userid_DL:275 - getProcessObjectsBasedOnName: Fetching dataloader process of processId = insert_b6064f6b-054a-492b-8e64-068e6ebd89bfobject with name = bDeal__c.
2020-05-05 00:29:15 INFO  userid_DL:188 - Fetching all dataloader processes of type = single.
2020-05-05 00:29:15 INFO  userid_DL:440 - getProcessFilters: Fetching dataloader process filters related to processId = insert_b6064f6b-054a-492b-8e64-068e6ebd89bf.
2020-05-05 00:29:15 INFO  userid_DL:440 - getProcessFilters: Fetching dataloader process filters related to processId = delete_783705ad-f469-4068-9251-2816bd339feb.
2020-05-05 00:29:15 INFO  userid_DL:440 - getProcessFilters: Fetching dataloader process filters related to processId = extract_c1dd16c6-e001-42ce-a6ae-ba73b5c54b83.
2020-05-05 00:29:15 INFO  userid_DL:440 - getProcessFilters: Fetching dataloader process filters related to processId = delete_a4a05cab-1c77-445a-bf46-33d2e464c626.
2020-05-05 00:29:15 INFO  userid_DL:440 - getProcessFilters: Fetching dataloader process filters related to processId = extract_32947dd4-84c3-4649-8439-e14834fa1bde.
2020-05-05 00:29:15 INFO  userid_DL:440 - getProcessFilters: Fetching dataloader process filters related to processId = extract_89854290-f75a-46ac-d025-5c820d768470.
2020-05-05 00:29:15 INFO  userid_DL:440 - getProcessFilters: Fetching dataloader process filters related to processId = extract_5f65f88c-9a0f-42a1-9ad4-36524fbd7161.
2020-05-05 00:29:15 INFO  userid_DL:440 - getProcessFilters: Fetching dataloader process filters related to processId = delete_a01e722f-7bf3-45e1-86ee-8d78fec05a76.
2020-05-05 00:29:15 INFO  userid_DL:440 - getProcessFilters: Fetching dataloader process filters related to processId = extract_90347152-6192-46f6-e586-d97b39217de2.
2020-05-05 00:29:15 INFO  userid_DL:440 - getProcessFilters: Fetching dataloader process filters related to processId = delete_d2fa0614-93ac-4515-ecef-3a8ec7532afd.
2020-05-05 00:29:15 INFO  userid_DL:440 - getProcessFilters: Fetching dataloader process filters related to processId = extract_7e1a5719-11ec-4b50-eb9b-db0a4439c16a.
2020-05-05 00:29:15 INFO  userid_DL:440 - getProcessFilters: Fetching dataloader process filters related to processId = delete_f23a57e8-5ae7-41ef-dd48-fe7fc359a04c.
2020-05-05 00:29:15 INFO  userid_DL:440 - getProcessFilters: Fetching dataloader process filters related to processId = extract_8a965535-9979-447b-9fa3-41d2eccaa2d2.
2020-05-05 00:29:15 INFO  userid_DL:440 - getProcessFilters: Fetching dataloader process filters related to processId = delete_9c18bb6f-69cf-4b4f-84b0-db33952b098c.
2020-05-05 00:29:15 INFO  userid_DL:440 - getProcessFilters: Fetching dataloader process filters related to processId = extract_bb863973-42ad-4b84-cab9-019c83b36c7d.
2020-05-05 00:29:15 INFO  userid_DL:440 - getProcessFilters: Fetching dataloader process filters related to processId = delete_395752ea-e751-450a-dbe5-b67f710b1f27.
2020-05-05 00:29:15 INFO  userid_DL:440 - getProcessFilters: Fetching dataloader process filters related to processId = extract_d5442f9d-ee51-474b-ae5f-b6b747bef06a.
2020-05-05 00:29:15 INFO  userid_DL:440 - getProcessFilters: Fetching dataloader process filters related to processId = delete_7425127a-f833-450e-e99d-7e06cd17b91e.
2020-05-05 00:29:15 INFO  userid_DL:440 - getProcessFilters: Fetching dataloader process filters related to processId = extract_b29967ba-bb51-4c0b-b071-618a6673e789.
2020-05-05 00:29:15 INFO  userid_DL:440 - getProcessFilters: Fetching dataloader process filters related to processId = delete_a382eeff-24d1-4460-e5c2-b6d4ce6afc11.
2020-05-05 00:29:15 INFO  userid_DL:440 - getProcessFilters: Fetching dataloader process filters related to processId = extract_ee036d11-2a76-44f3-ce2b-05bfbbb5409c.
2020-05-05 00:29:15 INFO  userid_DL:440 - getProcessFilters: Fetching dataloader process filters related to processId = update_d9449f6e-babd-455f-8994-2e2068f3c895.
2020-05-05 00:29:15 INFO  userid_DL:440 - getProcessFilters: Fetching dataloader process filters related to processId = extract_242dff32-70a7-493c-a7b0-4a1c3cff1160.
2020-05-05 00:29:15 INFO  userid_DL:440 - getProcessFilters: Fetching dataloader process filters related to processId = upsert_290c1e39-ad60-4282-9897-90a00d0c9642.
2020-05-05 00:29:15 INFO  userid_DL:440 - getProcessFilters: Fetching dataloader process filters related to processId = extract_9c51807b-29ab-47a7-cd44-3fe1e4267e95.
2020-05-05 00:29:15 INFO  userid_DL:440 - getProcessFilters: Fetching dataloader process filters related to processId = extract_84a77d26-bb31-4933-8241-fbd0b9155cab.
2020-05-05 00:29:46 INFO  userid_DL:123 - saveDataloaderProcessObjects: Saving dataloader process object name = bDeal__c.
2020-05-05 00:29:46 INFO  userid_DL:64 - saveDataloaderProcesses: Saving dataloader process with processId = insert_b6064f6b-054a-492b-8e64-068e6ebd89bf.
2020-05-05 00:29:46 INFO  userid_DL:94 - getDataloaderProcess: Fetching dataloader process with orgname = autorabit.com-PmkSJi and processId = insert_b6064f6b-054a-492b-8e64-068e6ebd89bf.
2020-05-05 00:29:46 INFO  userid_DL:64 - saveDataloaderProcesses: Saving dataloader process with processId = insert_b6064f6b-054a-492b-8e64-068e6ebd89bf.
2020-05-05 00:29:46 INFO  userid_DL:188 - Fetching all dataloader processes of type = single.
2020-05-05 00:29:46 INFO  userid_DL:440 - getProcessFilters: Fetching dataloader process filters related to processId = insert_b6064f6b-054a-492b-8e64-068e6ebd89bf.
2020-05-05 00:29:46 INFO  userid_DL:440 - getProcessFilters: Fetching dataloader process filters related to processId = delete_783705ad-f469-4068-9251-2816bd339feb.
2020-05-05 00:29:46 INFO  userid_DL:440 - getProcessFilters: Fetching dataloader process filters related to processId = extract_c1dd16c6-e001-42ce-a6ae-ba73b5c54b83.
2020-05-05 00:29:46 INFO  userid_DL:440 - getProcessFilters: Fetching dataloader process filters related to processId = delete_a4a05cab-1c77-445a-bf46-33d2e464c626.
2020-05-05 00:29:46 INFO  userid_DL:440 - getProcessFilters: Fetching dataloader process filters related to processId = extract_32947dd4-84c3-4649-8439-e14834fa1bde.
2020-05-05 00:29:46 INFO  userid_DL:440 - getProcessFilters: Fetching dataloader process filters related to processId = extract_89854290-f75a-46ac-d025-5c820d768470.
2020-05-05 00:29:46 INFO  userid_DL:440 - getProcessFilters: Fetching dataloader process filters related to processId = extract_5f65f88c-9a0f-42a1-9ad4-36524fbd7161.
2020-05-05 00:29:46 INFO  userid_DL:440 - getProcessFilters: Fetching dataloader process filters related to processId = delete_a01e722f-7bf3-45e1-86ee-8d78fec05a76.
2020-05-05 00:29:46 INFO  userid_DL:440 - getProcessFilters: Fetching dataloader process filters related to processId = extract_90347152-6192-46f6-e586-d97b39217de2.
2020-05-05 00:29:46 INFO  userid_DL:440 - getProcessFilters: Fetching dataloader process filters related to processId = delete_d2fa0614-93ac-4515-ecef-3a8ec7532afd.
2020-05-05 00:29:46 INFO  userid_DL:440 - getProcessFilters: Fetching dataloader process filters related to processId = extract_7e1a5719-11ec-4b50-eb9b-db0a4439c16a.
2020-05-05 00:29:46 INFO  userid_DL:440 - getProcessFilters: Fetching dataloader process filters related to processId = delete_f23a57e8-5ae7-41ef-dd48-fe7fc359a04c.
2020-05-05 00:29:46 INFO  userid_DL:440 - getProcessFilters: Fetching dataloader process filters related to processId = extract_8a965535-9979-447b-9fa3-41d2eccaa2d2.
2020-05-05 00:29:46 INFO  userid_DL:440 - getProcessFilters: Fetching dataloader process filters related to processId = delete_9c18bb6f-69cf-4b4f-84b0-db33952b098c.
2020-05-05 00:29:46 INFO  userid_DL:440 - getProcessFilters: Fetching dataloader process filters related to processId = extract_bb863973-42ad-4b84-cab9-019c83b36c7d.
2020-05-05 00:29:46 INFO  userid_DL:440 - getProcessFilters: Fetching dataloader process filters related to processId = delete_395752ea-e751-450a-dbe5-b67f710b1f27.
2020-05-05 00:29:46 INFO  userid_DL:440 - getProcessFilters: Fetching dataloader process filters related to processId = extract_d5442f9d-ee51-474b-ae5f-b6b747bef06a.
2020-05-05 00:29:46 INFO  userid_DL:440 - getProcessFilters: Fetching dataloader process filters related to processId = delete_7425127a-f833-450e-e99d-7e06cd17b91e.
2020-05-05 00:29:46 INFO  userid_DL:440 - getProcessFilters: Fetching dataloader process filters related to processId = extract_b29967ba-bb51-4c0b-b071-618a6673e789.
2020-05-05 00:29:46 INFO  userid_DL:440 - getProcessFilters: Fetching dataloader process filters related to processId = delete_a382eeff-24d1-4460-e5c2-b6d4ce6afc11.
2020-05-05 00:29:46 INFO  userid_DL:440 - getProcessFilters: Fetching dataloader process filters related to processId = extract_ee036d11-2a76-44f3-ce2b-05bfbbb5409c.
2020-05-05 00:29:46 INFO  userid_DL:440 - getProcessFilters: Fetching dataloader process filters related to processId = update_d9449f6e-babd-455f-8994-2e2068f3c895.
2020-05-05 00:29:46 INFO  userid_DL:440 - getProcessFilters: Fetching dataloader process filters related to processId = extract_242dff32-70a7-493c-a7b0-4a1c3cff1160.
2020-05-05 00:29:46 INFO  userid_DL:440 - getProcessFilters: Fetching dataloader process filters related to processId = upsert_290c1e39-ad60-4282-9897-90a00d0c9642.
2020-05-05 00:29:46 INFO  userid_DL:440 - getProcessFilters: Fetching dataloader process filters related to processId = extract_9c51807b-29ab-47a7-cd44-3fe1e4267e95.
2020-05-05 00:29:46 INFO  userid_DL:440 - getProcessFilters: Fetching dataloader process filters related to processId = extract_84a77d26-bb31-4933-8241-fbd0b9155cab.
2020-05-05 00:30:18 INFO  userid_DL:94 - getDataloaderProcess: Fetching dataloader process with orgname = autorabit.com-PmkSJi and processId = insert_b6064f6b-054a-492b-8e64-068e6ebd89bf.
2020-05-05 00:30:26 INFO  userid_DL:94 - getDataloaderProcess: Fetching dataloader process with orgname = autorabit.com-PmkSJi and processId = extract_84a77d26-bb31-4933-8241-fbd0b9155cab.
