2020-02-04 12:25:11 INFO  20200204122509817:33 - In AceelqTestDetailSchedulerJob executing Scheduled Job for updating details.
2020-02-04 12:35:09 INFO  20200204123509816:33 - In AceelqTestDetailSchedulerJob executing Scheduled Job for updating details.
2020-02-04 12:45:09 INFO  20200204124509816:33 - In AceelqTestDetailSchedulerJob executing Scheduled Job for updating details.
2020-02-04 12:55:09 INFO  20200204125509817:33 - In AceelqTestDetailSchedulerJob executing Scheduled Job for updating details.
2020-02-04 13:05:09 INFO  20200204130509818:33 - In AceelqTestDetailSchedulerJob executing Scheduled Job for updating details.
2020-02-04 13:15:09 INFO  20200204131509818:33 - In AceelqTestDetailSchedulerJob executing Scheduled Job for updating details.
2020-02-04 13:25:09 INFO  20200204132509817:33 - In AceelqTestDetailSchedulerJob executing Scheduled Job for updating details.
2020-02-04 14:05:09 INFO  20200204140509818:33 - In AceelqTestDetailSchedulerJob executing Scheduled Job for updating details.
2020-02-04 14:15:09 INFO  20200204141509816:33 - In AceelqTestDetailSchedulerJob executing Scheduled Job for updating details.
2020-02-04 14:26:22 INFO  20200204142622692:33 - In AceelqTestDetailSchedulerJob executing Scheduled Job for updating details.
2020-02-04 14:36:22 INFO  20200204143622644:33 - In AceelqTestDetailSchedulerJob executing Scheduled Job for updating details.
2020-02-04 14:46:22 INFO  20200204144622641:33 - In AceelqTestDetailSchedulerJob executing Scheduled Job for updating details.
2020-02-04 14:56:22 INFO  20200204145622641:33 - In AceelqTestDetailSchedulerJob executing Scheduled Job for updating details.
2020-02-04 15:06:22 INFO  20200204150622642:33 - In AceelqTestDetailSchedulerJob executing Scheduled Job for updating details.
2020-02-04 15:16:22 INFO  20200204151622641:33 - In AceelqTestDetailSchedulerJob executing Scheduled Job for updating details.
2020-02-04 15:26:22 INFO  20200204152622640:33 - In AceelqTestDetailSchedulerJob executing Scheduled Job for updating details.
2020-02-04 15:36:22 INFO  20200204153622641:33 - In AceelqTestDetailSchedulerJob executing Scheduled Job for updating details.
2020-02-04 15:46:22 INFO  20200204154622641:33 - In AceelqTestDetailSchedulerJob executing Scheduled Job for updating details.
2020-02-04 15:56:22 INFO  20200204155622640:33 - In AceelqTestDetailSchedulerJob executing Scheduled Job for updating details.
2020-02-04 16:06:22 INFO  20200204160622644:33 - In AceelqTestDetailSchedulerJob executing Scheduled Job for updating details.
2020-02-04 16:16:22 INFO  20200204161622641:33 - In AceelqTestDetailSchedulerJob executing Scheduled Job for updating details.
2020-02-04 16:26:22 INFO  20200204162622641:33 - In AceelqTestDetailSchedulerJob executing Scheduled Job for updating details.
2020-02-04 16:36:22 INFO  20200204163622641:33 - In AceelqTestDetailSchedulerJob executing Scheduled Job for updating details.
2020-02-04 16:46:22 INFO  20200204164622641:33 - In AceelqTestDetailSchedulerJob executing Scheduled Job for updating details.
2020-02-04 16:56:22 INFO  20200204165622987:33 - In AceelqTestDetailSchedulerJob executing Scheduled Job for updating details.
2020-02-04 17:06:22 INFO  20200204170622640:33 - In AceelqTestDetailSchedulerJob executing Scheduled Job for updating details.
2020-02-04 17:16:22 INFO  20200204171622647:33 - In AceelqTestDetailSchedulerJob executing Scheduled Job for updating details.
2020-02-04 17:26:22 INFO  20200204172622640:33 - In AceelqTestDetailSchedulerJob executing Scheduled Job for updating details.
2020-02-04 17:36:22 INFO  20200204173622641:33 - In AceelqTestDetailSchedulerJob executing Scheduled Job for updating details.
2020-02-04 17:46:22 INFO  20200204174622641:33 - In AceelqTestDetailSchedulerJob executing Scheduled Job for updating details.
2020-02-04 17:56:22 INFO  20200204175622642:33 - In AceelqTestDetailSchedulerJob executing Scheduled Job for updating details.
2020-02-04 18:06:22 INFO  20200204180622667:33 - In AceelqTestDetailSchedulerJob executing Scheduled Job for updating details.
2020-02-04 18:16:22 INFO  20200204181622640:33 - In AceelqTestDetailSchedulerJob executing Scheduled Job for updating details.
2020-02-04 18:26:22 INFO  20200204182622641:33 - In AceelqTestDetailSchedulerJob executing Scheduled Job for updating details.
2020-02-04 18:36:22 INFO  20200204183622640:33 - In AceelqTestDetailSchedulerJob executing Scheduled Job for updating details.
2020-02-04 18:46:22 INFO  20200204184622641:33 - In AceelqTestDetailSchedulerJob executing Scheduled Job for updating details.
2020-02-04 18:56:22 INFO  20200204185622643:33 - In AceelqTestDetailSchedulerJob executing Scheduled Job for updating details.
2020-02-04 19:06:22 INFO  20200204190622653:33 - In AceelqTestDetailSchedulerJob executing Scheduled Job for updating details.
2020-02-04 19:16:22 INFO  20200204191622641:33 - In AceelqTestDetailSchedulerJob executing Scheduled Job for updating details.
2020-02-04 19:26:22 INFO  20200204192622641:33 - In AceelqTestDetailSchedulerJob executing Scheduled Job for updating details.
2020-02-04 19:36:22 INFO  20200204193622643:33 - In AceelqTestDetailSchedulerJob executing Scheduled Job for updating details.
2020-02-04 19:46:22 INFO  20200204194622648:33 - In AceelqTestDetailSchedulerJob executing Scheduled Job for updating details.
2020-02-04 19:56:22 INFO  20200204195622642:33 - In AceelqTestDetailSchedulerJob executing Scheduled Job for updating details.
2020-02-04 20:06:22 INFO  20200204200622643:33 - In AceelqTestDetailSchedulerJob executing Scheduled Job for updating details.
2020-02-04 20:16:22 INFO  20200204201622641:33 - In AceelqTestDetailSchedulerJob executing Scheduled Job for updating details.
2020-02-04 20:26:22 INFO  20200204202622643:33 - In AceelqTestDetailSchedulerJob executing Scheduled Job for updating details.
2020-02-04 20:56:22 INFO  20200204205622641:33 - In AceelqTestDetailSchedulerJob executing Scheduled Job for updating details.
2020-02-04 21:06:22 INFO  20200204210622646:33 - In AceelqTestDetailSchedulerJob executing Scheduled Job for updating details.
2020-02-04 21:16:22 INFO  20200204211622658:33 - In AceelqTestDetailSchedulerJob executing Scheduled Job for updating details.
2020-02-04 21:26:22 INFO  20200204212622650:33 - In AceelqTestDetailSchedulerJob executing Scheduled Job for updating details.
2020-02-04 21:36:22 INFO  20200204213622650:33 - In AceelqTestDetailSchedulerJob executing Scheduled Job for updating details.
2020-02-04 21:46:22 INFO  20200204214622641:33 - In AceelqTestDetailSchedulerJob executing Scheduled Job for updating details.
2020-02-04 21:56:22 INFO  20200204215622643:33 - In AceelqTestDetailSchedulerJob executing Scheduled Job for updating details.
2020-02-04 22:06:22 INFO  20200204220622649:33 - In AceelqTestDetailSchedulerJob executing Scheduled Job for updating details.
2020-02-04 22:16:22 INFO  20200204221622655:33 - In AceelqTestDetailSchedulerJob executing Scheduled Job for updating details.
