2020-04-08 09:47:18 INFO  20200408094718480:33 - In AceelqTestDetailSchedulerJob executing Scheduled Job for updating details.
2020-04-08 09:57:18 INFO  20200408095718465:33 - In AceelqTestDetailSchedulerJob executing Scheduled Job for updating details.
2020-04-08 10:07:18 INFO  20200408100718554:33 - In AceelqTestDetailSchedulerJob executing Scheduled Job for updating details.
2020-04-08 10:17:18 INFO  20200408101718463:33 - In AceelqTestDetailSchedulerJob executing Scheduled Job for updating details.
2020-04-08 10:27:18 INFO  20200408102718464:33 - In AceelqTestDetailSchedulerJob executing Scheduled Job for updating details.
2020-04-08 10:37:18 INFO  20200408103718469:33 - In AceelqTestDetailSchedulerJob executing Scheduled Job for updating details.
2020-04-08 10:47:18 INFO  20200408104718460:33 - In AceelqTestDetailSchedulerJob executing Scheduled Job for updating details.
2020-04-08 10:57:18 INFO  20200408105718460:33 - In AceelqTestDetailSchedulerJob executing Scheduled Job for updating details.
2020-04-08 11:07:18 INFO  20200408110718461:33 - In AceelqTestDetailSchedulerJob executing Scheduled Job for updating details.
2020-04-08 11:17:18 INFO  20200408111718460:33 - In AceelqTestDetailSchedulerJob executing Scheduled Job for updating details.
2020-04-08 11:27:18 INFO  20200408112718460:33 - In AceelqTestDetailSchedulerJob executing Scheduled Job for updating details.
2020-04-08 11:37:18 INFO  20200408113718461:33 - In AceelqTestDetailSchedulerJob executing Scheduled Job for updating details.
2020-04-08 15:17:18 INFO  20200408151718483:33 - In AceelqTestDetailSchedulerJob executing Scheduled Job for updating details.
2020-04-08 15:27:18 INFO  20200408152718463:33 - In AceelqTestDetailSchedulerJob executing Scheduled Job for updating details.
2020-04-08 15:37:18 INFO  20200408153718462:33 - In AceelqTestDetailSchedulerJob executing Scheduled Job for updating details.
2020-04-08 15:47:18 INFO  20200408154718468:33 - In AceelqTestDetailSchedulerJob executing Scheduled Job for updating details.
2020-04-08 15:57:18 INFO  20200408155718468:33 - In AceelqTestDetailSchedulerJob executing Scheduled Job for updating details.
2020-04-08 16:07:18 INFO  20200408160718529:33 - In AceelqTestDetailSchedulerJob executing Scheduled Job for updating details.
2020-04-08 16:17:18 INFO  20200408161718460:33 - In AceelqTestDetailSchedulerJob executing Scheduled Job for updating details.
2020-04-08 16:27:18 INFO  20200408162718460:33 - In AceelqTestDetailSchedulerJob executing Scheduled Job for updating details.
2020-04-08 16:37:18 INFO  20200408163718462:33 - In AceelqTestDetailSchedulerJob executing Scheduled Job for updating details.
2020-04-08 16:47:18 INFO  20200408164718462:33 - In AceelqTestDetailSchedulerJob executing Scheduled Job for updating details.
2020-04-08 16:57:18 INFO  20200408165718463:33 - In AceelqTestDetailSchedulerJob executing Scheduled Job for updating details.
2020-04-08 17:07:18 INFO  20200408170718464:33 - In AceelqTestDetailSchedulerJob executing Scheduled Job for updating details.
2020-04-08 17:17:18 INFO  20200408171718461:33 - In AceelqTestDetailSchedulerJob executing Scheduled Job for updating details.
2020-04-08 17:27:18 INFO  20200408172718462:33 - In AceelqTestDetailSchedulerJob executing Scheduled Job for updating details.
2020-04-08 17:37:18 INFO  20200408173718464:33 - In AceelqTestDetailSchedulerJob executing Scheduled Job for updating details.
2020-04-08 17:47:18 INFO  20200408174718482:33 - In AceelqTestDetailSchedulerJob executing Scheduled Job for updating details.
2020-04-08 17:57:18 INFO  20200408175718460:33 - In AceelqTestDetailSchedulerJob executing Scheduled Job for updating details.
2020-04-08 18:07:18 INFO  20200408180718461:33 - In AceelqTestDetailSchedulerJob executing Scheduled Job for updating details.
2020-04-08 18:17:18 INFO  20200408181718461:33 - In AceelqTestDetailSchedulerJob executing Scheduled Job for updating details.
2020-04-08 18:27:18 INFO  20200408182718461:33 - In AceelqTestDetailSchedulerJob executing Scheduled Job for updating details.
2020-04-08 18:37:18 INFO  20200408183718461:33 - In AceelqTestDetailSchedulerJob executing Scheduled Job for updating details.
2020-04-08 18:47:18 INFO  20200408184718461:33 - In AceelqTestDetailSchedulerJob executing Scheduled Job for updating details.
2020-04-08 18:57:18 INFO  20200408185718461:33 - In AceelqTestDetailSchedulerJob executing Scheduled Job for updating details.
2020-04-08 19:07:18 INFO  20200408190718461:33 - In AceelqTestDetailSchedulerJob executing Scheduled Job for updating details.
2020-04-08 19:17:18 INFO  20200408191718466:33 - In AceelqTestDetailSchedulerJob executing Scheduled Job for updating details.
2020-04-08 20:07:18 INFO  20200408200718465:33 - In AceelqTestDetailSchedulerJob executing Scheduled Job for updating details.
2020-04-08 20:17:18 INFO  20200408201718462:33 - In AceelqTestDetailSchedulerJob executing Scheduled Job for updating details.
2020-04-08 20:27:18 INFO  20200408202718461:33 - In AceelqTestDetailSchedulerJob executing Scheduled Job for updating details.
2020-04-08 20:37:18 INFO  20200408203718461:33 - In AceelqTestDetailSchedulerJob executing Scheduled Job for updating details.
2020-04-08 20:47:18 INFO  20200408204718466:33 - In AceelqTestDetailSchedulerJob executing Scheduled Job for updating details.
2020-04-08 20:57:18 INFO  20200408205718464:33 - In AceelqTestDetailSchedulerJob executing Scheduled Job for updating details.
2020-04-08 21:07:18 INFO  20200408210718463:33 - In AceelqTestDetailSchedulerJob executing Scheduled Job for updating details.
2020-04-08 21:37:18 INFO  20200408213718464:33 - In AceelqTestDetailSchedulerJob executing Scheduled Job for updating details.
2020-04-08 21:47:18 INFO  20200408214718462:33 - In AceelqTestDetailSchedulerJob executing Scheduled Job for updating details.
2020-04-08 21:57:18 INFO  20200408215718462:33 - In AceelqTestDetailSchedulerJob executing Scheduled Job for updating details.
2020-04-08 22:07:18 INFO  20200408220718469:33 - In AceelqTestDetailSchedulerJob executing Scheduled Job for updating details.
2020-04-08 22:28:47 INFO  20200408222847216:33 - In AceelqTestDetailSchedulerJob executing Scheduled Job for updating details.
2020-04-08 22:30:45 INFO  20200408223045018:33 - In AceelqTestDetailSchedulerJob executing Scheduled Job for updating details.
2020-04-08 22:36:35 INFO  20200408223635256:33 - In AceelqTestDetailSchedulerJob executing Scheduled Job for updating details.
2020-04-08 22:38:02 INFO  20200408223802601:33 - In AceelqTestDetailSchedulerJob executing Scheduled Job for updating details.
2020-04-08 22:48:02 INFO  20200408224802609:33 - In AceelqTestDetailSchedulerJob executing Scheduled Job for updating details.
2020-04-08 22:55:46 INFO  20200408225546374:33 - In AceelqTestDetailSchedulerJob executing Scheduled Job for updating details.
2020-04-08 23:03:17 INFO  20200408230317196:33 - In AceelqTestDetailSchedulerJob executing Scheduled Job for updating details.
2020-04-08 23:08:09 INFO  20200408230809145:33 - In AceelqTestDetailSchedulerJob executing Scheduled Job for updating details.
2020-04-08 23:18:09 INFO  20200408231809118:33 - In AceelqTestDetailSchedulerJob executing Scheduled Job for updating details.
2020-04-08 23:28:09 INFO  20200408232809118:33 - In AceelqTestDetailSchedulerJob executing Scheduled Job for updating details.
2020-04-08 23:38:29 INFO  20200408233829769:33 - In AceelqTestDetailSchedulerJob executing Scheduled Job for updating details.
2020-04-08 23:53:48 INFO  20200408235348516:33 - In AceelqTestDetailSchedulerJob executing Scheduled Job for updating details.
2020-04-09 00:03:48 INFO  20200409000348490:33 - In AceelqTestDetailSchedulerJob executing Scheduled Job for updating details.
2020-04-09 00:13:48 INFO  20200409001348490:33 - In AceelqTestDetailSchedulerJob executing Scheduled Job for updating details.
2020-04-09 00:23:48 INFO  20200409002348489:33 - In AceelqTestDetailSchedulerJob executing Scheduled Job for updating details.
2020-04-09 00:33:48 INFO  20200409003348489:33 - In AceelqTestDetailSchedulerJob executing Scheduled Job for updating details.
2020-04-09 00:43:48 INFO  20200409004348489:33 - In AceelqTestDetailSchedulerJob executing Scheduled Job for updating details.
2020-04-09 00:45:40 INFO  20200409004540553:33 - In AceelqTestDetailSchedulerJob executing Scheduled Job for updating details.
2020-04-09 00:49:00 INFO  20200409004900672:33 - In AceelqTestDetailSchedulerJob executing Scheduled Job for updating details.
2020-04-09 00:50:17 INFO  20200409005017000:33 - In AceelqTestDetailSchedulerJob executing Scheduled Job for updating details.
2020-04-09 00:56:01 INFO  20200409005601523:33 - In AceelqTestDetailSchedulerJob executing Scheduled Job for updating details.
2020-04-09 00:59:15 INFO  20200409005915013:33 - In AceelqTestDetailSchedulerJob executing Scheduled Job for updating details.
2020-04-09 01:02:57 INFO  20200409010257927:33 - In AceelqTestDetailSchedulerJob executing Scheduled Job for updating details.
2020-04-09 01:12:57 INFO  20200409011257878:33 - In AceelqTestDetailSchedulerJob executing Scheduled Job for updating details.
2020-04-09 01:20:12 INFO  20200409012012832:33 - In AceelqTestDetailSchedulerJob executing Scheduled Job for updating details.
2020-04-09 01:46:04 INFO  20200409014604856:33 - In AceelqTestDetailSchedulerJob executing Scheduled Job for updating details.
2020-04-09 01:54:30 INFO  20200409015430915:33 - In AceelqTestDetailSchedulerJob executing Scheduled Job for updating details.
2020-04-09 01:58:26 INFO  20200409015826540:33 - In AceelqTestDetailSchedulerJob executing Scheduled Job for updating details.
2020-04-09 02:07:40 INFO  20200409020740318:33 - In AceelqTestDetailSchedulerJob executing Scheduled Job for updating details.
2020-04-09 02:10:38 INFO  20200409021038477:33 - In AceelqTestDetailSchedulerJob executing Scheduled Job for updating details.
2020-04-09 02:12:51 INFO  20200409021251365:33 - In AceelqTestDetailSchedulerJob executing Scheduled Job for updating details.
2020-04-09 02:17:49 INFO  20200409021749278:33 - In AceelqTestDetailSchedulerJob executing Scheduled Job for updating details.
2020-04-09 02:27:49 INFO  20200409022749245:33 - In AceelqTestDetailSchedulerJob executing Scheduled Job for updating details.
2020-04-09 02:37:49 INFO  20200409023749244:33 - In AceelqTestDetailSchedulerJob executing Scheduled Job for updating details.
2020-04-09 02:45:05 INFO  20200409024505337:33 - In AceelqTestDetailSchedulerJob executing Scheduled Job for updating details.
