2020-01-21 20:40:58 INFO  1579619458944_778:168 - Deploy request received
2020-01-21 20:40:59 INFO  1579619458944_778:389 - ===VALIDATE DEPLOYMENT===
2020-01-21 20:40:59 INFO  1579619458944_778:442 - Ignore missing visibility settings: false
2020-01-21 20:40:59 INFO  1579619458944_778:443 - Removing the userPermissions: false
2020-01-21 20:40:59 INFO  1579619458944_778:444 - Removing the IpRanegs: false
2020-01-21 20:40:59 INFO  1579619458944_778:445 - Removing the Skip Members: false
2020-01-21 20:40:59 INFO  1579619458944_778:446 - Is Search and Substitute configured: false
2020-01-21 20:40:59 INFO  1579619458944_778:488 - Search and Substitute is not configured.
2020-01-21 20:40:59 INFO  1579619458944_778:536 - Deployment files preparing started.
2020-01-21 20:41:02 INFO  1579619458944_778:654 - No changes are found in the package.
2020-01-21 20:41:02 INFO  1579619458944_778:656 - Deployment request processed successfully.
