2020-01-22 19:40:35 INFO  1579702235970_531:172 - Deploy request received
2020-01-22 19:40:36 INFO  1579702235970_531:437 - ===VALIDATE DEPLOYMENT===
2020-01-22 19:40:36 INFO  1579702235970_531:490 - Ignore missing visibility settings: false
2020-01-22 19:40:36 INFO  1579702235970_531:491 - Removing the userPermissions: false
2020-01-22 19:40:36 INFO  1579702235970_531:492 - Removing the IpRanegs: false
2020-01-22 19:40:36 INFO  1579702235970_531:493 - Removing the Skip Members: false
2020-01-22 19:40:36 INFO  1579702235970_531:494 - Is Search and Substitute configured: false
2020-01-22 19:40:36 INFO  1579702235970_531:536 - Search and Substitute is not configured.
2020-01-22 19:40:36 INFO  1579702235970_531:584 - Deployment files preparing started.
2020-01-22 19:40:36 INFO  1579702235970_531:732 - No changes are found in the package.
2020-01-22 19:40:36 INFO  1579702235970_531:734 - Deployment request processed successfully.
