2020-01-20 17:03:45 INFO  time out:770 - Updating envprovision job status started
2020-01-20 17:03:45 INFO  time out:772 - Updating envprovision job status completed
2020-01-20 17:03:45 INFO  time out:774 - Updating all external commits history status started
2020-01-20 17:03:45 INFO  time out:776 - Updating all external commits history status completed
2020-01-20 17:03:45 INFO  time out:778 - Updating DeploymentHistory
2020-01-20 17:03:45 INFO  time out:780 - Updating sforgssynchistory
2020-01-20 17:03:45 INFO  time out:782 - Updating BuildSummary
2020-01-20 17:03:45 INFO  time out:784 - Updating MergeHistory
2020-01-20 17:03:45 INFO  time out:786 - Updating RetriveAndCommit History
2020-01-20 17:03:45 INFO  time out:788 - Validate And Commit TempData Deletion Started
2020-01-20 17:03:45 INFO  time out:453 - ValidateAndCommitTempData Delted Successfully : false
2020-01-20 17:03:45 INFO  time out:791 - Updating UnlockedPackage started
2020-01-20 17:03:45 INFO  time out:793 - Updating UnlockedPackage completed
2020-01-20 17:03:45 INFO  time out:794 - Updating UnlockedPackageVersion started
2020-01-20 17:03:45 INFO  time out:796 - Updating UnlockedPackageVersion completed
2020-01-20 17:03:45 INFO  time out:797 - Updating SFDX Scratch org status started
2020-01-20 17:03:45 INFO  time out:799 - Updating SFDX Scratch org  status completed
2020-01-20 17:03:45 INFO  time out:800 - Updating Sfdx module status started
2020-01-20 17:03:45 INFO  time out:802 - Updating Sfdx module status completed
2020-01-20 17:03:45 INFO  time out:803 - Updating PostActResults  status started
2020-01-20 17:03:45 INFO  time out:805 - Updating PostActResults status completed
2020-01-20 17:03:45 INFO  time out:807 - Updating dataloader  status started
2020-01-20 17:03:45 INFO  time out:809 - Updating dataloader status completed
2020-01-20 17:03:45 INFO  time out:811 - Updating code coverage reports history  status started
2020-01-20 17:03:45 INFO  time out:813 - Updating code coverage reports history status completed
2020-01-20 17:03:45 INFO  time out:815 - Updating All tables Completed
