2020-02-25 19:30:46 INFO  time out:855 - Updating envprovision job status started
2020-02-25 19:30:46 INFO  time out:857 - Updating envprovision job status completed
2020-02-25 19:30:46 INFO  time out:859 - Updating all external commits history status started
2020-02-25 19:30:46 INFO  time out:861 - Updating all external commits history status completed
2020-02-25 19:30:46 INFO  time out:863 - Updating DeploymentHistory
2020-02-25 19:30:46 INFO  time out:865 - Updating sforgssynchistory
2020-02-25 19:30:46 INFO  time out:867 - Updating BuildSummary
2020-02-25 19:30:46 INFO  time out:869 - Updating MergeHistory
2020-02-25 19:30:46 INFO  time out:871 - Updating RetriveAndCommit History
2020-02-25 19:30:46 INFO  time out:873 - Validate And Commit TempData Deletion Started
2020-02-25 19:30:46 INFO  time out:513 - ValidateAndCommitTempData Deleted Successfully : false
2020-02-25 19:30:46 INFO  time out:876 - Updating UnlockedPackage started
2020-02-25 19:30:46 INFO  time out:878 - Updating UnlockedPackage completed
2020-02-25 19:30:46 INFO  time out:879 - Updating UnlockedPackageVersion started
2020-02-25 19:30:46 INFO  time out:881 - Updating UnlockedPackageVersion completed
2020-02-25 19:30:46 INFO  time out:882 - Updating SFDX Scratch org status started
2020-02-25 19:30:46 INFO  time out:884 - Updating SFDX Scratch org  status completed
2020-02-25 19:30:46 INFO  time out:885 - Updating Sfdx module status started
2020-02-25 19:30:46 INFO  time out:887 - Updating Sfdx module status completed
2020-02-25 19:30:46 INFO  time out:888 - Updating PostActResults  status started
2020-02-25 19:30:46 INFO  time out:890 - Updating PostActResults status completed
2020-02-25 19:30:46 INFO  time out:892 - Updating dataloader  status started
2020-02-25 19:30:46 INFO  time out:713 - Updating Dataloader name  : IN_AR_19896 with failed
2020-02-25 19:30:46 INFO  time out:894 - Updating dataloader status completed
2020-02-25 19:30:46 INFO  time out:896 - Updating code coverage reports history  status started
2020-02-25 19:30:46 INFO  time out:898 - Updating code coverage reports history status completed
2020-02-25 19:30:46 INFO  time out:900 - Updating tag creation package history status started
2020-02-25 19:30:46 INFO  time out:902 - Updating tag creation package history status completed
2020-02-25 19:30:46 INFO  time out:904 - Updating Feature Versions status started
2020-02-25 19:30:46 INFO  time out:906 - Updating Feature Versions status completed
2020-02-25 19:30:46 INFO  time out:908 - Updating All tables Completed
2020-02-25 19:30:46 INFO  time out:110 - Cleaning up VS code patch files on the server - START
2020-02-25 19:30:46 INFO  time out:117 - Cleaning up VS code patch files on the server - COMPLETE
