2020-04-08 01:23:41 INFO  time out:855 - Updating envprovision job status started
2020-04-08 01:23:41 INFO  time out:857 - Updating envprovision job status completed
2020-04-08 01:23:41 INFO  time out:859 - Updating all external commits history status started
2020-04-08 01:23:41 INFO  time out:861 - Updating all external commits history status completed
2020-04-08 01:23:41 INFO  time out:863 - Updating DeploymentHistory
2020-04-08 01:23:41 INFO  time out:865 - Updating sforgssynchistory
2020-04-08 01:23:41 INFO  time out:867 - Updating BuildSummary
2020-04-08 01:23:41 INFO  time out:869 - Updating MergeHistory
2020-04-08 01:23:41 INFO  time out:871 - Updating RetriveAndCommit History
2020-04-08 01:23:41 INFO  time out:873 - Validate And Commit TempData Deletion Started
2020-04-08 01:23:41 ERROR time out:515 - 
2020-04-08 01:23:41 INFO  time out:876 - Updating UnlockedPackage started
2020-04-08 01:23:41 INFO  time out:878 - Updating UnlockedPackage completed
2020-04-08 01:23:41 INFO  time out:879 - Updating UnlockedPackageVersion started
2020-04-08 01:23:41 INFO  time out:881 - Updating UnlockedPackageVersion completed
2020-04-08 01:23:41 INFO  time out:882 - Updating SFDX Scratch org status started
2020-04-08 01:23:41 INFO  time out:884 - Updating SFDX Scratch org  status completed
2020-04-08 01:23:41 INFO  time out:885 - Updating Sfdx module status started
2020-04-08 01:23:41 INFO  time out:887 - Updating Sfdx module status completed
2020-04-08 01:23:41 INFO  time out:888 - Updating PostActResults  status started
2020-04-08 01:23:41 INFO  time out:890 - Updating PostActResults status completed
2020-04-08 01:23:41 INFO  time out:892 - Updating dataloader  status started
2020-04-08 01:23:41 INFO  time out:894 - Updating dataloader status completed
2020-04-08 01:23:41 INFO  time out:896 - Updating code coverage reports history  status started
2020-04-08 01:23:41 INFO  time out:898 - Updating code coverage reports history status completed
2020-04-08 01:23:41 INFO  time out:900 - Updating tag creation package history status started
2020-04-08 01:23:41 INFO  time out:902 - Updating tag creation package history status completed
2020-04-08 01:23:41 INFO  time out:904 - Updating Feature Versions status started
2020-04-08 01:23:41 INFO  time out:906 - Updating Feature Versions status completed
2020-04-08 01:23:41 INFO  time out:908 - Updating All tables Completed
2020-04-08 01:23:41 INFO  time out:110 - Cleaning up VS code patch files on the server - START
2020-04-08 01:23:41 INFO  time out:117 - Cleaning up VS code patch files on the server - COMPLETE
2020-04-08 22:00:00 INFO  time out:855 - Updating envprovision job status started
2020-04-08 22:00:01 INFO  time out:857 - Updating envprovision job status completed
2020-04-08 22:00:01 INFO  time out:859 - Updating all external commits history status started
2020-04-08 22:00:01 INFO  time out:861 - Updating all external commits history status completed
2020-04-08 22:00:01 INFO  time out:863 - Updating DeploymentHistory
2020-04-08 22:00:01 INFO  time out:865 - Updating sforgssynchistory
2020-04-08 22:00:01 INFO  time out:867 - Updating BuildSummary
2020-04-08 22:00:01 INFO  time out:869 - Updating MergeHistory
2020-04-08 22:00:01 INFO  time out:871 - Updating RetriveAndCommit History
2020-04-08 22:00:01 INFO  time out:873 - Validate And Commit TempData Deletion Started
2020-04-08 22:00:01 ERROR time out:515 - 
2020-04-08 22:00:01 INFO  time out:876 - Updating UnlockedPackage started
2020-04-08 22:00:01 INFO  time out:878 - Updating UnlockedPackage completed
2020-04-08 22:00:01 INFO  time out:879 - Updating UnlockedPackageVersion started
2020-04-08 22:00:01 INFO  time out:881 - Updating UnlockedPackageVersion completed
2020-04-08 22:00:01 INFO  time out:882 - Updating SFDX Scratch org status started
2020-04-08 22:00:01 INFO  time out:884 - Updating SFDX Scratch org  status completed
2020-04-08 22:00:01 INFO  time out:885 - Updating Sfdx module status started
2020-04-08 22:00:01 INFO  time out:887 - Updating Sfdx module status completed
2020-04-08 22:00:01 INFO  time out:888 - Updating PostActResults  status started
2020-04-08 22:00:01 INFO  time out:890 - Updating PostActResults status completed
2020-04-08 22:00:01 INFO  time out:892 - Updating dataloader  status started
2020-04-08 22:00:02 INFO  time out:894 - Updating dataloader status completed
2020-04-08 22:00:02 INFO  time out:896 - Updating code coverage reports history  status started
2020-04-08 22:00:02 ERROR time out:910 - Illegal access: this web application instance has been stopped already. Could not load [META-INF/services/org.apache.xerces.xni.parser.XMLParserConfiguration]. The following stack trace is thrown for debugging purposes as well as to attempt to terminate the thread which caused the illegal access.
java.lang.IllegalStateException: Illegal access: this web application instance has been stopped already. Could not load [META-INF/services/org.apache.xerces.xni.parser.XMLParserConfiguration]. The following stack trace is thrown for debugging purposes as well as to attempt to terminate the thread which caused the illegal access.
	at org.apache.catalina.loader.WebappClassLoaderBase.checkStateForResourceLoading(WebappClassLoaderBase.java:1305)
	at org.apache.catalina.loader.WebappClassLoaderBase.getResourceAsStream(WebappClassLoaderBase.java:1045)
	at org.apache.xerces.parsers.SecuritySupport$6.run(Unknown Source)
	at java.security.AccessController.doPrivileged(Native Method)
	at org.apache.xerces.parsers.SecuritySupport.getResourceAsStream(Unknown Source)
	at org.apache.xerces.parsers.ObjectFactory.findJarServiceProvider(Unknown Source)
	at org.apache.xerces.parsers.ObjectFactory.createObject(Unknown Source)
	at org.apache.xerces.parsers.ObjectFactory.createObject(Unknown Source)
	at org.apache.xerces.parsers.DOMParser.<init>(Unknown Source)
	at org.apache.xerces.parsers.DOMParser.<init>(Unknown Source)
	at org.apache.xerces.jaxp.DocumentBuilderImpl.<init>(Unknown Source)
	at org.apache.xerces.jaxp.DocumentBuilderImpl.<init>(Unknown Source)
	at org.apache.xerces.jaxp.DocumentBuilderFactoryImpl.setFeature(Unknown Source)
	at com.rabit.util.xml.DOMUtil$1.initialValue(DOMUtil.java:137)
	at com.rabit.util.xml.DOMUtil$1.initialValue(DOMUtil.java:1)
	at java.lang.ThreadLocal.setInitialValue(ThreadLocal.java:180)
	at java.lang.ThreadLocal.get(ThreadLocal.java:170)
	at com.rabit.util.xml.DOMUtil.getBuilder(DOMUtil.java:152)
	at com.rabit.util.xml.DOMUtil.getDocument(DOMUtil.java:232)
	at com.rabit.util.UpdateProcessStatusUtil.checkAndUpdateStatusOfCodeCoverageReportsHistory(UpdateProcessStatusUtil.java:789)
	at com.rabit.util.UpdateProcessStatusUtil.updateAllOrgTables(UpdateProcessStatusUtil.java:897)
	at com.rabit.util.UpdateProcessStatusUtil.run(UpdateProcessStatusUtil.java:105)
	at java.util.TimerThread.mainLoop(Timer.java:555)
	at java.util.TimerThread.run(Timer.java:505)
2020-04-08 22:00:02 INFO  time out:110 - Cleaning up VS code patch files on the server - START
2020-04-08 22:00:02 INFO  time out:117 - Cleaning up VS code patch files on the server - COMPLETE
