2020-01-09 16:25:10 INFO  time out:835 - Updating envprovision job status started
2020-01-09 16:25:10 INFO  time out:837 - Updating envprovision job status completed
2020-01-09 16:25:10 INFO  time out:839 - Updating all external commits history status started
2020-01-09 16:25:10 INFO  time out:841 - Updating all external commits history status completed
2020-01-09 16:25:10 INFO  time out:843 - Updating DeploymentHistory
2020-01-09 16:25:10 INFO  time out:845 - Updating sforgssynchistory
2020-01-09 16:25:10 INFO  time out:847 - Updating BuildSummary
2020-01-09 16:25:10 INFO  time out:849 - Updating MergeHistory
2020-01-09 16:25:10 INFO  time out:851 - Updating RetriveAndCommit History
2020-01-09 16:25:10 INFO  time out:853 - Validate And Commit TempData Deletion Started
2020-01-09 16:25:10 INFO  time out:493 - ValidateAndCommitTempData Deleted Successfully : false
2020-01-09 16:25:10 INFO  time out:856 - Updating UnlockedPackage started
2020-01-09 16:25:10 INFO  time out:858 - Updating UnlockedPackage completed
2020-01-09 16:25:10 INFO  time out:859 - Updating UnlockedPackageVersion started
2020-01-09 16:25:10 INFO  time out:861 - Updating UnlockedPackageVersion completed
2020-01-09 16:25:10 INFO  time out:862 - Updating SFDX Scratch org status started
2020-01-09 16:25:10 INFO  time out:864 - Updating SFDX Scratch org  status completed
2020-01-09 16:25:10 INFO  time out:865 - Updating Sfdx module status started
2020-01-09 16:25:10 INFO  time out:867 - Updating Sfdx module status completed
2020-01-09 16:25:10 INFO  time out:868 - Updating PostActResults  status started
2020-01-09 16:25:10 INFO  time out:870 - Updating PostActResults status completed
2020-01-09 16:25:10 INFO  time out:872 - Updating dataloader  status started
2020-01-09 16:25:10 INFO  time out:874 - Updating dataloader status completed
2020-01-09 16:25:10 INFO  time out:876 - Updating code coverage reports history  status started
2020-01-09 16:25:10 INFO  time out:878 - Updating code coverage reports history status completed
2020-01-09 16:25:10 INFO  time out:880 - Updating tag creation package history status started
2020-01-09 16:25:10 INFO  time out:882 - Updating tag creation package history status completed
2020-01-09 16:25:10 INFO  time out:884 - Updating Feature Versions status started
2020-01-09 16:25:10 INFO  time out:886 - Updating Feature Versions status completed
2020-01-09 16:25:10 INFO  time out:888 - Updating All tables Completed
2020-01-09 16:25:10 INFO  time out:106 - Cleaning up VS code patch files on the server - START
2020-01-09 16:25:10 INFO  time out:113 - Cleaning up VS code patch files on the server - COMPLETE
