2020-01-22 18:44:44 INFO  time out:853 - Updating envprovision job status started
2020-01-22 18:44:44 INFO  time out:855 - Updating envprovision job status completed
2020-01-22 18:44:44 INFO  time out:857 - Updating all external commits history status started
2020-01-22 18:44:44 INFO  time out:859 - Updating all external commits history status completed
2020-01-22 18:44:44 INFO  time out:861 - Updating DeploymentHistory
2020-01-22 18:44:44 INFO  time out:863 - Updating sforgssynchistory
2020-01-22 18:44:44 INFO  time out:865 - Updating BuildSummary
2020-01-22 18:44:44 INFO  time out:867 - Updating MergeHistory
2020-01-22 18:44:44 INFO  time out:869 - Updating RetriveAndCommit History
2020-01-22 18:44:44 INFO  time out:871 - Validate And Commit TempData Deletion Started
2020-01-22 18:44:44 INFO  time out:511 - ValidateAndCommitTempData Deleted Successfully : false
2020-01-22 18:44:44 INFO  time out:874 - Updating UnlockedPackage started
2020-01-22 18:44:44 INFO  time out:876 - Updating UnlockedPackage completed
2020-01-22 18:44:44 INFO  time out:877 - Updating UnlockedPackageVersion started
2020-01-22 18:44:44 INFO  time out:879 - Updating UnlockedPackageVersion completed
2020-01-22 18:44:44 INFO  time out:880 - Updating SFDX Scratch org status started
2020-01-22 18:44:44 INFO  time out:882 - Updating SFDX Scratch org  status completed
2020-01-22 18:44:44 INFO  time out:883 - Updating Sfdx module status started
2020-01-22 18:44:44 INFO  time out:885 - Updating Sfdx module status completed
2020-01-22 18:44:44 INFO  time out:886 - Updating PostActResults  status started
2020-01-22 18:44:44 INFO  time out:888 - Updating PostActResults status completed
2020-01-22 18:44:44 INFO  time out:890 - Updating dataloader  status started
2020-01-22 18:44:44 INFO  time out:892 - Updating dataloader status completed
2020-01-22 18:44:44 INFO  time out:894 - Updating code coverage reports history  status started
2020-01-22 18:44:44 INFO  time out:896 - Updating code coverage reports history status completed
2020-01-22 18:44:44 INFO  time out:898 - Updating tag creation package history status started
2020-01-22 18:44:44 INFO  time out:900 - Updating tag creation package history status completed
2020-01-22 18:44:44 INFO  time out:902 - Updating Feature Versions status started
2020-01-22 18:44:44 INFO  time out:904 - Updating Feature Versions status completed
2020-01-22 18:44:44 INFO  time out:906 - Updating All tables Completed
2020-01-22 18:44:44 INFO  time out:109 - Cleaning up VS code patch files on the server - START
2020-01-22 18:44:44 INFO  time out:116 - Cleaning up VS code patch files on the server - COMPLETE
2020-01-23 12:52:11 INFO  time out:853 - Updating envprovision job status started
2020-01-23 12:52:11 INFO  time out:855 - Updating envprovision job status completed
2020-01-23 12:52:11 INFO  time out:857 - Updating all external commits history status started
2020-01-23 12:52:11 INFO  time out:859 - Updating all external commits history status completed
2020-01-23 12:52:11 INFO  time out:861 - Updating DeploymentHistory
2020-01-23 12:52:11 INFO  time out:863 - Updating sforgssynchistory
2020-01-23 12:52:11 INFO  time out:865 - Updating BuildSummary
2020-01-23 12:52:11 INFO  time out:867 - Updating MergeHistory
2020-01-23 12:52:11 INFO  time out:869 - Updating RetriveAndCommit History
2020-01-23 12:52:11 INFO  time out:871 - Validate And Commit TempData Deletion Started
2020-01-23 12:52:11 INFO  time out:511 - ValidateAndCommitTempData Deleted Successfully : false
2020-01-23 12:52:11 INFO  time out:874 - Updating UnlockedPackage started
2020-01-23 12:52:11 INFO  time out:876 - Updating UnlockedPackage completed
2020-01-23 12:52:11 INFO  time out:877 - Updating UnlockedPackageVersion started
2020-01-23 12:52:11 INFO  time out:879 - Updating UnlockedPackageVersion completed
2020-01-23 12:52:11 INFO  time out:880 - Updating SFDX Scratch org status started
2020-01-23 12:52:11 INFO  time out:882 - Updating SFDX Scratch org  status completed
2020-01-23 12:52:11 INFO  time out:883 - Updating Sfdx module status started
2020-01-23 12:52:11 INFO  time out:885 - Updating Sfdx module status completed
2020-01-23 12:52:11 INFO  time out:886 - Updating PostActResults  status started
2020-01-23 12:52:11 INFO  time out:888 - Updating PostActResults status completed
2020-01-23 12:52:11 INFO  time out:890 - Updating dataloader  status started
2020-01-23 12:52:11 INFO  time out:892 - Updating dataloader status completed
2020-01-23 12:52:11 INFO  time out:894 - Updating code coverage reports history  status started
2020-01-23 12:52:12 ERROR time out:908 - Illegal access: this web application instance has been stopped already. Could not load [META-INF/services/org.apache.xerces.xni.parser.XMLParserConfiguration]. The following stack trace is thrown for debugging purposes as well as to attempt to terminate the thread which caused the illegal access.
java.lang.IllegalStateException: Illegal access: this web application instance has been stopped already. Could not load [META-INF/services/org.apache.xerces.xni.parser.XMLParserConfiguration]. The following stack trace is thrown for debugging purposes as well as to attempt to terminate the thread which caused the illegal access.
	at org.apache.catalina.loader.WebappClassLoaderBase.checkStateForResourceLoading(WebappClassLoaderBase.java:1305)
	at org.apache.catalina.loader.WebappClassLoaderBase.getResourceAsStream(WebappClassLoaderBase.java:1045)
	at org.apache.xerces.parsers.SecuritySupport$6.run(Unknown Source)
	at java.base/java.security.AccessController.doPrivileged(Native Method)
	at org.apache.xerces.parsers.SecuritySupport.getResourceAsStream(Unknown Source)
	at org.apache.xerces.parsers.ObjectFactory.findJarServiceProvider(Unknown Source)
	at org.apache.xerces.parsers.ObjectFactory.createObject(Unknown Source)
	at org.apache.xerces.parsers.ObjectFactory.createObject(Unknown Source)
	at org.apache.xerces.parsers.DOMParser.<init>(Unknown Source)
	at org.apache.xerces.parsers.DOMParser.<init>(Unknown Source)
	at org.apache.xerces.jaxp.DocumentBuilderImpl.<init>(Unknown Source)
	at org.apache.xerces.jaxp.DocumentBuilderImpl.<init>(Unknown Source)
	at org.apache.xerces.jaxp.DocumentBuilderFactoryImpl.setFeature(Unknown Source)
	at com.rabit.util.xml.DOMUtil$1.initialValue(DOMUtil.java:134)
	at com.rabit.util.xml.DOMUtil$1.initialValue(DOMUtil.java:1)
	at java.base/java.lang.ThreadLocal.setInitialValue(ThreadLocal.java:195)
	at java.base/java.lang.ThreadLocal.get(ThreadLocal.java:172)
	at com.rabit.util.xml.DOMUtil.getBuilder(DOMUtil.java:149)
	at com.rabit.util.xml.DOMUtil.getDocument(DOMUtil.java:229)
	at com.rabit.util.UpdateProcessStatusUtil.checkAndUpdateStatusOfCodeCoverageReportsHistory(UpdateProcessStatusUtil.java:787)
	at com.rabit.util.UpdateProcessStatusUtil.updateAllOrgTables(UpdateProcessStatusUtil.java:895)
	at com.rabit.util.UpdateProcessStatusUtil.run(UpdateProcessStatusUtil.java:104)
	at java.base/java.util.TimerThread.mainLoop(Timer.java:556)
	at java.base/java.util.TimerThread.run(Timer.java:506)
2020-01-23 12:52:12 INFO  time out:109 - Cleaning up VS code patch files on the server - START
2020-01-23 12:52:12 INFO  time out:116 - Cleaning up VS code patch files on the server - COMPLETE
