2020-01-30 14:50:47 INFO  userid_DLPro:188 - Fetching all dataloader processes of type = pro.
2020-01-30 14:50:48 INFO  userid_DLPro:94 - getDataloaderProcess: Fetching dataloader process with orgname = autorabit.com-PmkSJi and processId = 598c4bac-821a-42e9-f957-b5afdaaaaabd.
2020-01-30 14:50:48 INFO  userid_DLPro:204 - getProcessObjects: Fetching dataloader process objects related to processId = 598c4bac-821a-42e9-f957-b5afdaaaaabd.
2020-01-30 14:50:48 INFO  userid_DLPro:94 - getDataloaderProcess: Fetching dataloader process with orgname = autorabit.com-PmkSJi and processId = 598c4bac-821a-42e9-f957-b5afdaaaaabd.
2020-01-30 14:50:48 INFO  userid_DLPro:204 - getProcessObjects: Fetching dataloader process objects related to processId = 598c4bac-821a-42e9-f957-b5afdaaaaabd.
2020-01-30 15:12:14 INFO  userid_DLPro:188 - Fetching all dataloader processes of type = pro.
2020-01-30 15:12:15 INFO  userid_DLPro:94 - getDataloaderProcess: Fetching dataloader process with orgname = autorabit.com-PmkSJi and processId = 598c4bac-821a-42e9-f957-b5afdaaaaabd.
2020-01-30 15:12:15 INFO  userid_DLPro:204 - getProcessObjects: Fetching dataloader process objects related to processId = 598c4bac-821a-42e9-f957-b5afdaaaaabd.
2020-01-30 15:12:15 INFO  userid_DLPro:94 - getDataloaderProcess: Fetching dataloader process with orgname = autorabit.com-PmkSJi and processId = 598c4bac-821a-42e9-f957-b5afdaaaaabd.
2020-01-30 15:12:15 INFO  userid_DLPro:204 - getProcessObjects: Fetching dataloader process objects related to processId = 598c4bac-821a-42e9-f957-b5afdaaaaabd.
2020-01-30 16:01:33 INFO  userid_DLPro:188 - Fetching all dataloader processes of type = pro.
2020-01-30 16:01:35 INFO  userid_DLPro:94 - getDataloaderProcess: Fetching dataloader process with orgname = autorabit.com-PmkSJi and processId = 598c4bac-821a-42e9-f957-b5afdaaaaabd.
2020-01-30 16:01:35 INFO  userid_DLPro:204 - getProcessObjects: Fetching dataloader process objects related to processId = 598c4bac-821a-42e9-f957-b5afdaaaaabd.
2020-01-30 16:01:35 INFO  userid_DLPro:94 - getDataloaderProcess: Fetching dataloader process with orgname = autorabit.com-PmkSJi and processId = 598c4bac-821a-42e9-f957-b5afdaaaaabd.
2020-01-30 16:01:35 INFO  userid_DLPro:204 - getProcessObjects: Fetching dataloader process objects related to processId = 598c4bac-821a-42e9-f957-b5afdaaaaabd.
2020-01-30 16:33:56 INFO  userid_DLPro:188 - Fetching all dataloader processes of type = pro.
2020-01-30 16:33:57 INFO  userid_DLPro:94 - getDataloaderProcess: Fetching dataloader process with orgname = autorabit.com-PmkSJi and processId = 598c4bac-821a-42e9-f957-b5afdaaaaabd.
2020-01-30 16:33:57 INFO  userid_DLPro:204 - getProcessObjects: Fetching dataloader process objects related to processId = 598c4bac-821a-42e9-f957-b5afdaaaaabd.
2020-01-30 16:33:57 INFO  userid_DLPro:94 - getDataloaderProcess: Fetching dataloader process with orgname = autorabit.com-PmkSJi and processId = 598c4bac-821a-42e9-f957-b5afdaaaaabd.
2020-01-30 16:33:57 INFO  userid_DLPro:204 - getProcessObjects: Fetching dataloader process objects related to processId = 598c4bac-821a-42e9-f957-b5afdaaaaabd.
2020-01-30 16:37:40 INFO  userid_DLPro:188 - Fetching all dataloader processes of type = pro.
2020-01-30 16:37:40 INFO  userid_DLPro:94 - getDataloaderProcess: Fetching dataloader process with orgname = autorabit.com-PmkSJi and processId = 598c4bac-821a-42e9-f957-b5afdaaaaabd.
2020-01-30 16:37:40 INFO  userid_DLPro:204 - getProcessObjects: Fetching dataloader process objects related to processId = 598c4bac-821a-42e9-f957-b5afdaaaaabd.
2020-01-30 16:37:40 INFO  userid_DLPro:94 - getDataloaderProcess: Fetching dataloader process with orgname = autorabit.com-PmkSJi and processId = 598c4bac-821a-42e9-f957-b5afdaaaaabd.
2020-01-30 16:37:40 INFO  userid_DLPro:204 - getProcessObjects: Fetching dataloader process objects related to processId = 598c4bac-821a-42e9-f957-b5afdaaaaabd.
2020-01-31 12:39:16 INFO  userid_DLPro:188 - Fetching all dataloader processes of type = pro.
2020-01-31 12:39:16 INFO  userid_DLPro:94 - getDataloaderProcess: Fetching dataloader process with orgname = autorabit.com-PmkSJi and processId = 598c4bac-821a-42e9-f957-b5afdaaaaabd.
2020-01-31 12:39:16 INFO  userid_DLPro:204 - getProcessObjects: Fetching dataloader process objects related to processId = 598c4bac-821a-42e9-f957-b5afdaaaaabd.
2020-01-31 12:39:17 INFO  userid_DLPro:94 - getDataloaderProcess: Fetching dataloader process with orgname = autorabit.com-PmkSJi and processId = 598c4bac-821a-42e9-f957-b5afdaaaaabd.
2020-01-31 12:39:17 INFO  userid_DLPro:204 - getProcessObjects: Fetching dataloader process objects related to processId = 598c4bac-821a-42e9-f957-b5afdaaaaabd.
2020-01-31 15:08:43 INFO  userid_DLPro:188 - Fetching all dataloader processes of type = pro.
2020-01-31 15:08:43 INFO  userid_DLPro:94 - getDataloaderProcess: Fetching dataloader process with orgname = autorabit.com-PmkSJi and processId = 598c4bac-821a-42e9-f957-b5afdaaaaabd.
2020-01-31 15:08:43 INFO  userid_DLPro:204 - getProcessObjects: Fetching dataloader process objects related to processId = 598c4bac-821a-42e9-f957-b5afdaaaaabd.
2020-01-31 15:08:43 INFO  userid_DLPro:94 - getDataloaderProcess: Fetching dataloader process with orgname = autorabit.com-PmkSJi and processId = 598c4bac-821a-42e9-f957-b5afdaaaaabd.
2020-01-31 15:08:43 INFO  userid_DLPro:204 - getProcessObjects: Fetching dataloader process objects related to processId = 598c4bac-821a-42e9-f957-b5afdaaaaabd.
2020-01-31 15:10:04 INFO  userid_DLPro:188 - Fetching all dataloader processes of type = pro.
2020-01-31 15:10:04 INFO  userid_DLPro:94 - getDataloaderProcess: Fetching dataloader process with orgname = autorabit.com-PmkSJi and processId = 598c4bac-821a-42e9-f957-b5afdaaaaabd.
2020-01-31 15:10:04 INFO  userid_DLPro:204 - getProcessObjects: Fetching dataloader process objects related to processId = 598c4bac-821a-42e9-f957-b5afdaaaaabd.
2020-01-31 15:10:04 INFO  userid_DLPro:94 - getDataloaderProcess: Fetching dataloader process with orgname = autorabit.com-PmkSJi and processId = 598c4bac-821a-42e9-f957-b5afdaaaaabd.
2020-01-31 15:10:04 INFO  userid_DLPro:204 - getProcessObjects: Fetching dataloader process objects related to processId = 598c4bac-821a-42e9-f957-b5afdaaaaabd.
2020-01-31 16:21:42 INFO  userid_DLPro:188 - Fetching all dataloader processes of type = pro.
2020-01-31 16:21:43 INFO  userid_DLPro:94 - getDataloaderProcess: Fetching dataloader process with orgname = autorabit.com-PmkSJi and processId = 598c4bac-821a-42e9-f957-b5afdaaaaabd.
2020-01-31 16:21:43 INFO  userid_DLPro:204 - getProcessObjects: Fetching dataloader process objects related to processId = 598c4bac-821a-42e9-f957-b5afdaaaaabd.
2020-01-31 16:21:44 INFO  userid_DLPro:94 - getDataloaderProcess: Fetching dataloader process with orgname = autorabit.com-PmkSJi and processId = 598c4bac-821a-42e9-f957-b5afdaaaaabd.
2020-01-31 16:21:44 INFO  userid_DLPro:204 - getProcessObjects: Fetching dataloader process objects related to processId = 598c4bac-821a-42e9-f957-b5afdaaaaabd.
2020-01-31 16:57:59 INFO  userid_DLPro:188 - Fetching all dataloader processes of type = pro.
2020-01-31 16:57:59 INFO  userid_DLPro:94 - getDataloaderProcess: Fetching dataloader process with orgname = autorabit.com-PmkSJi and processId = 598c4bac-821a-42e9-f957-b5afdaaaaabd.
2020-01-31 16:57:59 INFO  userid_DLPro:204 - getProcessObjects: Fetching dataloader process objects related to processId = 598c4bac-821a-42e9-f957-b5afdaaaaabd.
2020-01-31 16:57:59 INFO  userid_DLPro:94 - getDataloaderProcess: Fetching dataloader process with orgname = autorabit.com-PmkSJi and processId = 598c4bac-821a-42e9-f957-b5afdaaaaabd.
2020-01-31 16:57:59 INFO  userid_DLPro:204 - getProcessObjects: Fetching dataloader process objects related to processId = 598c4bac-821a-42e9-f957-b5afdaaaaabd.
2020-01-31 17:19:22 INFO  userid_DLPro:188 - Fetching all dataloader processes of type = pro.
2020-01-31 17:19:22 INFO  userid_DLPro:94 - getDataloaderProcess: Fetching dataloader process with orgname = autorabit.com-PmkSJi and processId = 598c4bac-821a-42e9-f957-b5afdaaaaabd.
2020-01-31 17:19:22 INFO  userid_DLPro:204 - getProcessObjects: Fetching dataloader process objects related to processId = 598c4bac-821a-42e9-f957-b5afdaaaaabd.
2020-01-31 17:19:22 INFO  userid_DLPro:94 - getDataloaderProcess: Fetching dataloader process with orgname = autorabit.com-PmkSJi and processId = 598c4bac-821a-42e9-f957-b5afdaaaaabd.
2020-01-31 17:19:22 INFO  userid_DLPro:204 - getProcessObjects: Fetching dataloader process objects related to processId = 598c4bac-821a-42e9-f957-b5afdaaaaabd.
2020-01-31 17:27:12 INFO  userid_DLPro:188 - Fetching all dataloader processes of type = pro.
2020-01-31 17:27:12 INFO  userid_DLPro:94 - getDataloaderProcess: Fetching dataloader process with orgname = autorabit.com-PmkSJi and processId = 598c4bac-821a-42e9-f957-b5afdaaaaabd.
2020-01-31 17:27:12 INFO  userid_DLPro:204 - getProcessObjects: Fetching dataloader process objects related to processId = 598c4bac-821a-42e9-f957-b5afdaaaaabd.
2020-01-31 17:27:12 INFO  userid_DLPro:94 - getDataloaderProcess: Fetching dataloader process with orgname = autorabit.com-PmkSJi and processId = 598c4bac-821a-42e9-f957-b5afdaaaaabd.
2020-01-31 17:27:12 INFO  userid_DLPro:204 - getProcessObjects: Fetching dataloader process objects related to processId = 598c4bac-821a-42e9-f957-b5afdaaaaabd.
2020-01-31 17:40:51 INFO  userid_DLPro:188 - Fetching all dataloader processes of type = pro.
2020-01-31 17:40:51 INFO  userid_DLPro:94 - getDataloaderProcess: Fetching dataloader process with orgname = autorabit.com-PmkSJi and processId = 598c4bac-821a-42e9-f957-b5afdaaaaabd.
2020-01-31 17:40:51 INFO  userid_DLPro:204 - getProcessObjects: Fetching dataloader process objects related to processId = 598c4bac-821a-42e9-f957-b5afdaaaaabd.
2020-01-31 17:40:51 INFO  userid_DLPro:94 - getDataloaderProcess: Fetching dataloader process with orgname = autorabit.com-PmkSJi and processId = 598c4bac-821a-42e9-f957-b5afdaaaaabd.
2020-01-31 17:40:51 INFO  userid_DLPro:204 - getProcessObjects: Fetching dataloader process objects related to processId = 598c4bac-821a-42e9-f957-b5afdaaaaabd.
