2020.04.07.07.11.54--Updated build properties.
2020.04.07.07.11.54--Starting the Build Process
2020.04.07.07.11.54--AR-Debug:: orgname : autorabit.com-PmkSJi projectname : SFDXDashboard buildnumber : 8 buildforced : true agentname : ArAgent status : Inprogress
2020.04.07.07.11.54--AR-Debug:: update build status : Success
2020.04.07.07.11.54--Step1 : Checking for modifications to continue the build.
2020.04.07.07.11.54--::::::In getUserCredential ::
2020.04.07.07.11.54--Org Name: autorabit.com-PmkSJi, Project Name: SFDXDashboard,getUserCredentials initated to AgentService.
2020.04.07.07.11.54--Org Name: autorabit.com-PmkSJi, Project Name: SFDXDashboard, getUserCredentials completed.
2020.04.07.07.11.54--SCM URL : https://bitbucket.org/rajashekarj/myrepo4sfdx.git
2020.04.07.07.11.54--Updating working copy.
2020.04.07.07.11.54--Same remote url found. Updating working copy.
2020.04.07.07.11.55--AR-Debug:: OrgName : autorabit.com-PmkSJi Executing custom API
2020.04.07.07.11.55--Executing custom API
2020.04.07.07.11.57--orgName : autorabit.com-PmkSJi Executing custom API
2020.04.07.07.12.00--Checkout completed.
2020.04.07.07.12.00--Step1 : Modifications exist, Proceeding for next steps...
2020.04.07.07.12.00--Step2 : Cleaning the directories and creating.
2020.04.07.07.12.00--Step2 : Directories creation completed proceeding for next steps...
2020.04.07.07.12.00--Step3 : Checkout / Data retrieval process started.
2020.04.07.07.12.23--Project checkout path : D:\filesystem\193\agent\projects\autorabit.com-PmkSJi_SFDXDashboard
2020.04.07.07.12.23--Fetching all changed files.
2020.04.07.07.12.23--SCM URL : https://bitbucket.org/rajashekarj/myrepo4sfdx.git
2020.04.07.07.12.23--::generateChangeList - scm.getLog:: StartTimeTue Apr 07 12:42:23 IST 2020
2020.04.07.07.12.23--Same remote url found. Updating working copy.
2020.04.07.07.12.23--AR-Debug:: OrgName : autorabit.com-PmkSJi Executing custom API
2020.04.07.07.12.23--Executing custom API
2020.04.07.07.12.26--From Revision : ab4879f To Revision : b5be38b
2020.04.07.07.12.26--Validating revision : ab4879f in the branch  : master
2020.04.07.07.12.26--From Revision : ab4879f found in the branch  : master
2020.04.07.07.12.26--AR-Debug:: Total time taken for revision validate in sec: 0
2020.04.07.07.12.26--From Revision :ab4879f validated and proceeding to get logs
2020.04.07.07.12.26--AR-Debug::  isSame: false
2020.04.07.07.12.26--AR-Debug::  fromRev: ab4879f
2020.04.07.07.12.26--AR-Debug::  gitshaLength: 7
2020.04.07.07.12.26--
 Generated log entries and finished all threads - 
2020.04.07.07.12.26--AR-Debug::  allRevisions: [b5be38b, 581b02b, c7dc35d, a914f1c, f4e47fe, ab4879f]
2020.04.07.07.12.26--AR-Debug::  allRevisions size: 6
2020.04.07.07.12.26--AR-Debug::  logsMap size: 6
2020.04.07.07.12.26--AR-Debug::  logsMap revisions: [b5be38b, ab4879f, a914f1c, 581b02b, f4e47fe, c7dc35d]
2020.04.07.07.12.26--generateChangeList - scm.getLog:: EndTime : Tue Apr 07 12:42:26 IST 2020
2020.04.07.07.12.26--Total scm.getLog time in sec: 2
2020.04.07.07.12.26--logEntries size is 6
2020.04.07.07.12.26--logEntries size is 5
2020.04.07.07.12.26--SCM log generated for processing changes.
2020.04.07.07.12.26--Writing scmlog to file.
2020.04.07.07.12.26--Changelist generated.
2020.04.07.07.21.00--prepareDestructive is : false
2020.04.07.07.21.00--AR-Debug:: revisionb5be38b
2020.04.07.07.21.00--AR-Debug:: FileName: force-app/main/default/email/CoronaEmail.emailFolder-meta.xml Action: A
2020.04.07.07.21.00--AR-Debug:: revision581b02b
2020.04.07.07.21.00--AR-Debug:: FileName: manifest/package.xml Action: M
2020.04.07.07.21.00--AR-Debug:: FileName: force-app/main/default/email/CoronaEmail/corona_email_template.email-meta.xml Action: A
2020.04.07.07.21.00--AR-Debug:: FileName: force-app/main/default/email/CoronaEmail/corona_email_template.email Action: A
2020.04.07.07.21.00--AR-Debug:: revisionc7dc35d
2020.04.07.07.21.00--AR-Debug:: FileName: force-app/main/default/dashboards/ONDashboard/PoliceDB.dashboard-meta.xml Action: A
2020.04.07.07.21.00--AR-Debug:: revisiona914f1c
2020.04.07.07.21.00--AR-Debug:: FileName: force-app/main/default/dashboards/ONDashboard.dashboardFolder-meta.xml Action: A
2020.04.07.07.21.00--AR-Debug:: revisionf4e47fe
2020.04.07.07.21.00--AR-Debug:: FileName: force-app/main/default/dashboards/ONDashboard/RecordsFlow.dashboard-meta.xml Action: A
2020.04.07.07.21.01--Process Start Time : Tue Apr 07 12:51:01 IST 2020
2020.04.07.07.21.01--Copying files to custom deploy
2020.04.07.07.21.01--AR-Debug:: package filename: force-app/main/default/dashboards/ONDashboard/PoliceDB.dashboard-meta.xml
2020.04.07.07.21.01--AR-Debug:: package cpFile: D:\filesystem\193\agent\projects\autorabit.com-PmkSJi_SFDXDashboard\force-app\main\default\dashboards\ONDashboard\PoliceDB.dashboard-meta.xml
2020.04.07.07.21.01--AR-Debug:: package filename: force-app/main/default/dashboards/ONDashboard.dashboardFolder-meta.xml
2020.04.07.07.21.01--AR-Debug:: package cpFile: D:\filesystem\193\agent\projects\autorabit.com-PmkSJi_SFDXDashboard\force-app\main\default\dashboards\ONDashboard.dashboardFolder-meta.xml
2020.04.07.07.21.01--AR-Debug:: package filename: manifest/package.xml
2020.04.07.07.21.01--AR-Debug:: package cpFile: D:\filesystem\193\agent\projects\autorabit.com-PmkSJi_SFDXDashboard\manifest\package.xml
2020.04.07.07.21.01--AR-Debug:: package filename: force-app/main/default/email/CoronaEmail.emailFolder-meta.xml
2020.04.07.07.21.01--AR-Debug:: package cpFile: D:\filesystem\193\agent\projects\autorabit.com-PmkSJi_SFDXDashboard\force-app\main\default\email\CoronaEmail.emailFolder-meta.xml
2020.04.07.07.21.01--AR-Debug:: package filename: force-app/main/default/email/CoronaEmail/corona_email_template.email-meta.xml
2020.04.07.07.21.01--AR-Debug:: package cpFile: D:\filesystem\193\agent\projects\autorabit.com-PmkSJi_SFDXDashboard\force-app\main\default\email\CoronaEmail\corona_email_template.email-meta.xml
2020.04.07.07.21.01--AR-Debug:: package filename: force-app/main/default/dashboards/ONDashboard/RecordsFlow.dashboard-meta.xml
2020.04.07.07.21.01--AR-Debug:: package cpFile: D:\filesystem\193\agent\projects\autorabit.com-PmkSJi_SFDXDashboard\force-app\main\default\dashboards\ONDashboard\RecordsFlow.dashboard-meta.xml
2020.04.07.07.21.01--AR-Debug:: package filename: force-app/main/default/email/CoronaEmail/corona_email_template.email
2020.04.07.07.21.01--AR-Debug:: package cpFile: D:\filesystem\193\agent\projects\autorabit.com-PmkSJi_SFDXDashboard\force-app\main\default\email\CoronaEmail\corona_email_template.email
2020.04.07.07.21.01--Changed files count : 7
2020.04.07.07.21.01--::::::::ValidateDeployablemetadataSchemaCalled::::::::::-With REVISION
2020.04.07.07.21.01--In validateDeployableMetaDataSchema:::::::startTime::Tue Apr 07 12:51:01 IST 2020 directoryPath::D:\filesystem\193\agent\projects\autorabit.com-PmkSJi_SFDXDashboard lastCall::false
2020.04.07.07.21.01--In validateDeployableMetaDataSchema:::::::startTime::Tue Apr 07 12:51:01 IST 2020 directoryPath::D:\filesystem\193\agent\projects\autorabit.com-PmkSJi_SFDXDashboard\customDeploy lastCall::true
2020.04.07.07.21.01--Diff found between package.xml and package.xml at line number : 5
2020.04.07.07.21.01--AR-Debug:: Source line is :         <members>INReport/INReport2</members>
2020.04.07.07.21.01--AR-Debug:: Target line is :         <members>ONDashboard/PoliceDB</members>
2020.04.07.07.21.01--
Finished all threads
2020.04.07.07.21.01--Total Build Time : 130
2020.04.07.07.21.03--Prepared package manifest.
2020.04.07.07.21.04--Step3 : Checkout / Data retrieval completed proceeding for next steps...
2020.04.07.07.21.04--Building source from a SFDX branch
2020.04.07.07.21.04--Step4 : Package steps started
2020.04.07.07.21.04--Checking for modifications on source folder: force-app
2020.04.07.07.21.09--Modifications exist
2020.04.07.07.21.09--Processing changes from source folder: force-app
2020.04.07.07.41.21--Profiles refactoring started.
2020.04.07.07.41.21--AR-Debug:: Parsing package file. Package file path : D:\filesystem\193\agent\projects\autorabit.com-PmkSJi_SFDXDashboard\customDeploy\force-app\main\default\package.xml
2020.04.07.07.41.21--Preparing Metadata members map.
2020.04.07.07.41.21--Prepared Metadata members map.
2020.04.07.07.41.21--Profiles refactoring completed.
2020.04.07.07.41.21--AR-Debug:: <font color='orange'>request parameters received as empty/null for update namespace</font>
2020.04.07.07.41.21--RSS fields update started.
2020.04.07.07.41.21--RSS fields update completed.
2020.04.07.07.41.21--AR-Debug:: no configuration to empty -meta files.
2020.04.07.07.41.22--Validating the empty metadata files exist or not.
2020.04.07.07.41.22--AR-Debug:: Parsing package file. Package file path : D:\filesystem\193\agent\projects\autorabit.com-PmkSJi_SFDXDashboard\customDeploy\force-app\main\default\package.xml
2020.04.07.07.41.22--Preparing Metadata members map.
2020.04.07.07.41.22--Prepared Metadata members map.
2020.04.07.07.41.22--Preparing the dynamic package.xml file.
2020.04.07.07.41.22--Validated the empty metadata files exist or not.
2020.04.07.07.41.22--D:\filesystem\193\agent\projects\autorabit.com-PmkSJi_SFDXDashboard\customDeploy\force-app\main\default\applications deleted
2020.04.07.07.41.22--D:\filesystem\193\agent\projects\autorabit.com-PmkSJi_SFDXDashboard\customDeploy\force-app\main\default\aura deleted
2020.04.07.07.41.22--D:\filesystem\193\agent\projects\autorabit.com-PmkSJi_SFDXDashboard\customDeploy\force-app\main\default\classes deleted
2020.04.07.07.41.22--D:\filesystem\193\agent\projects\autorabit.com-PmkSJi_SFDXDashboard\customDeploy\force-app\main\default\contentassets deleted
2020.04.07.07.41.22--D:\filesystem\193\agent\projects\autorabit.com-PmkSJi_SFDXDashboard\customDeploy\force-app\main\default\flexipages deleted
2020.04.07.07.41.22--D:\filesystem\193\agent\projects\autorabit.com-PmkSJi_SFDXDashboard\customDeploy\force-app\main\default\layouts deleted
2020.04.07.07.41.22--D:\filesystem\193\agent\projects\autorabit.com-PmkSJi_SFDXDashboard\customDeploy\force-app\main\default\objects deleted
2020.04.07.07.41.22--D:\filesystem\193\agent\projects\autorabit.com-PmkSJi_SFDXDashboard\customDeploy\force-app\main\default\permissionsets deleted
2020.04.07.07.41.22--D:\filesystem\193\agent\projects\autorabit.com-PmkSJi_SFDXDashboard\customDeploy\force-app\main\default\staticresources deleted
2020.04.07.07.41.22--D:\filesystem\193\agent\projects\autorabit.com-PmkSJi_SFDXDashboard\customDeploy\force-app\main\default\tabs deleted
2020.04.07.07.41.22--D:\filesystem\193\agent\projects\autorabit.com-PmkSJi_SFDXDashboard\customDeploy\force-app\main\default\triggers deleted
2020.04.07.07.41.22--Packaging completed successfully.
2020.04.07.07.41.22--SCM URL : https://bitbucket.org/rajashekarj/myrepo4sfdx.git
2020.04.07.07.41.23--Checkout completed.
2020.04.07.07.41.23--Step4 : Package steps completed
2020.04.07.07.41.23--Step5 : Post package steps started.
2020.04.07.07.41.23--AR-Debug::  Static code analysis was not chosen
2020.04.07.07.41.23--Step5 : Post package steps completed
2020.04.07.07.41.23--AR-Debug:: orgname : autorabit.com-PmkSJi projectname : SFDXDashboard buildnumber : 8 buildforced : true agentname : ArAgent status : Completed
2020-04-07 13:11:24 INFO  com-PmkSJi_SFDXDashboard_8:838 - autorabit.com-PmkSJi_SFDXDashboard Post build steps started.
2020-04-07 13:11:24 INFO  com-PmkSJi_SFDXDashboard_8:1409 - Metadata changes present for project :autorabit.com-PmkSJi_SFDXDashboard_8
2020-04-07 13:11:24 INFO  com-PmkSJi_SFDXDashboard_8:1018 - <br /> BUILD SUCCESSFUL
2020-04-07 13:11:24 INFO  com-PmkSJi_SFDXDashboard_8:1019 - Total time: 29 Minutes 31 Seconds
2020-04-07 13:11:24 INFO  com-PmkSJi_SFDXDashboard_8:1020 - Build Completed
2020-04-07 13:11:24 INFO  com-PmkSJi_SFDXDashboard_8:884 - AR-Debug::  Changes are available
2020-04-07 13:11:24 INFO  com-PmkSJi_SFDXDashboard_8:894 - Triggering Deployment Agent from force build with org nameautorabit.com-PmkSJiBuildProject name :SFDXDashboardcurrent Build number :8
2020-04-07 13:11:24 INFO  com-PmkSJi_SFDXDashboard_8:216 - AR-Debug::  Build process completed. Preparing deployment properties.
2020-04-07 13:11:24 INFO  com-PmkSJi_SFDXDashboard_8:348 - AR-Debug::  sfpackage : null
2020-04-07 13:11:24 INFO  com-PmkSJi_SFDXDashboard_8:349 - AR-Debug::  servertype : Dev
2020-04-07 13:11:24 INFO  com-PmkSJi_SFDXDashboard_8:350 - AR-Debug::  label : RJ_MS
2020-04-07 13:11:24 INFO  com-PmkSJi_SFDXDashboard_8:391 - AR-Debug::  Invoking deployment service for autorabit.com-PmkSJi_SFDXDashboard_8
2020-04-07 13:11:24 INFO  com-PmkSJi_SFDXDashboard_8:392 - AR-Debug::  Invoking deployment with CIJobInfo CIJobInfo [orgName=autorabit.com-PmkSJi, projectName=SFDXDashboard, deployRevision=null, lastsuccessfulbuild=8, lastsuccessfuldeployment=null, buildNumber=8, fromRevision=ab4879f, toRevision=b5be38b, triggeredBy=rajashekar.j1@autorabit.com, title=ytytjtt, isBuildForced=true, isDeploy=true, isTest=false, isBackUp=false, isPMD=false, pmdType=null, comment=null, timeOfBuild=2020-04-07 07:11:54, projectType=SalesForce, buildAgentName=ArAgent, buildLogId=null, buildStatus=Completed, deployAgentName=null, isValidate=true, sourceSFOrg=null, repoName=BB_SFDX, branchName=master, sourceFolder=force-app, deployedSFOrg=RJ_MS, deployedTime=null, deployStatus=null, deployID=null, runCodeCoverage=D, sourceCodeCoverage=0.0, destCodeCoverage=0.0, testStatus=null, totalTests=null, totalFailures=null, totalSuccess=null, totalNotRun=null, backupStatus=null, backupTime=null, revertStatus=null, buildID=null, almCommitLabels=null, almType=null, status=Completed, testTypes=null, browsers=null, from=versioncontrol, autoCommit=false, dateTimeId=20200407071154, vlocity=false, cancelDeploy=null, quickdeployStatus=null, quickDeployId=null, destructiveType=null, validateRollBack=false, testlevel=null, postAct=null, overAllStatus=Inprogress, isEnableSearchSubstitute=false, searchSubstituteRules=null, accelqProjectCode=null, accelqProjectName=null, accelqJobId=null, accelqJobName=null, accelqProcessId=null, accelqProcessstatus=null, preventDeployment=null]
2020-04-07 13:11:25 ERROR com-PmkSJi_SFDXDashboard_8:402 - AR-Debug:: sending request to poolName : Default agentName : ArAgent and agentURL : http://localhost:5000/
2020-04-07 13:11:25 INFO  com-PmkSJi_SFDXDashboard_8:143 - AR-Debug::  agent url is http://localhost:5000/
2020.04.07.07.41.25--BUILD_DEPLOY_SEPERATOR
2020.04.07.07.41.25--AR-Debug:: Deployment request for  DestSfId::00D2w000002AZlOEAW initiating deployment
2020.04.07.07.41.25--Trigger Deployment service invoked!!! for project: SFDXDashboard and buildNumber: 8
2020.04.07.07.41.25--Rabit regression properties file updated successfully
2020.04.07.07.41.25--isTest::false::isInstall::true::isValidateDeployment::true
2020.04.07.07.41.25--AR-Debug:: Project Type is: SalesForce
2020.04.07.07.41.25--AR-Debug:: Saved SuccessFully: cijobsettings.properties
2020.04.07.07.41.25--AR-Debug:: SFDXDashboard : 8
2020-04-07 13:11:25 INFO  com-PmkSJi_SFDXDashboard_8:147 - Deployment Status::Deployment invoked successfully
2020-04-07 13:11:25 INFO  com-PmkSJi_SFDXDashboard_8:917 - AR-Debug::  Invoking Metadata updater ..
2020-04-07 13:11:25 INFO  com-PmkSJi_SFDXDashboard_8:86 - AR-Debug:: Submitting key is 20200407131125780_autorabit.com-PmkSJi_SFDXDashboard_8_metadataupdate
2020-04-07 13:11:25 INFO  com-PmkSJi_SFDXDashboard_8:89 - AR-Debug:: Task does not exist in the queue. Putting new task into queue.20200407131125780_autorabit.com-PmkSJi_SFDXDashboard_8_metadataupdate
2020-04-07 13:11:25 INFO  com-PmkSJi_SFDXDashboard_8:90 - Task does not exist in the queue. Putting new task into queue.
2020-04-07 13:11:25 INFO  com-PmkSJi_SFDXDashboard_8:119 - Submitting new task to execute method.
2020.04.07.07.41.25--AR-Debug:: deployment status is inprogressInprogress
2020.04.07.07.41.25--AR-Debug:: processDeployAgentActiveJob : Inprogress
2020.04.07.07.41.26--AR-Debug:: update build status : Success
2020.04.07.07.41.26--AR-Debug:: Agent Side : Total time taken to complete build process: 29 Minutes 32 Seconds
2020.04.07.07.41.27--AR-Debug:: update deploy status : Success
2020.04.07.07.41.27--================Deployment process started.=========================
2020.04.07.07.41.27--Preparing source with SFDX supported format start.
2020.04.07.07.41.27--Processing predeploy steps on all the SFDX modules start
