2020-02-27 19:54:52 INFO  1582813478146_45:339 - Package manifest on scm preparation started
2020-02-27 19:54:52 INFO  1582813478146_45:404 - Retrieving data from scm was started.
2020-02-27 19:54:52 INFO  1582813478146_45:196 - SCM URL : https://bitbucket.org/rajashekarj/myrepo1.git
2020-02-27 19:54:52 INFO  1582813478146_45:727 - OrgName : autorabit.com-PmkSJi Executing custom API
2020-02-27 19:54:54 INFO  1582813478146_45:60 - 5bbd341f17914357122830ab13c2541902dea6ba	HEAD
2020-02-27 19:54:54 INFO  1582813478146_45:60 - b32487907fe1846d95491f48a1476673a587277f	refs/heads/BBRepo1Branch1
2020-02-27 19:54:54 INFO  1582813478146_45:60 - 68e1a44a3b0c7fc2062d1a5599a5d159c5a0d0d3	refs/heads/branch1
2020-02-27 19:54:54 INFO  1582813478146_45:60 - 38401e07bc369a9de5fba18d1c4df6c13dc2c857	refs/heads/branch2
2020-02-27 19:54:54 INFO  1582813478146_45:60 - 57bf88b39d5a959b5a972fc536f057b05140d2df	refs/heads/branch3
2020-02-27 19:54:54 INFO  1582813478146_45:60 - 5bbd341f17914357122830ab13c2541902dea6ba	refs/heads/master
2020-02-27 19:54:54 INFO  1582813478146_45:60 - ffc0137f88940932bb25244c25006d9e71427454	refs/remotes/origin/branch1
2020-02-27 19:54:54 INFO  1582813478146_45:60 - a8c238061620555a18c0160acb39795982422620	refs/remotes/origin/branch2
2020-02-27 19:54:54 INFO  1582813478146_45:60 - cb23789f3627f5ced288952cda3b52f2e63743a5	refs/remotes/origin/branch3
2020-02-27 19:54:54 INFO  1582813478146_45:60 - aadbf6ad6c22eeeb5ba7043b32283d6359b67edc	refs/remotes/origin/master
2020-02-27 19:54:54 INFO  1582813478146_45:1358 - OrgName : autorabit.com-PmkSJi Executing custom API
2020-02-27 19:54:54 INFO  1582813478146_45:592 - AR-Debug:: Executing the following command : [Ljava.lang.String;@6b2128aa
2020-02-27 19:54:56 INFO  1582813478146_45:508 - Started the checkout.
2020-02-27 19:54:56 INFO  1582813478146_45:510 - AR-Debug::  Checkout start time: Thu Feb 27 19:54:56 IST 2020
2020-02-27 19:54:56 INFO  1582813478146_45:196 - SCM URL : https://bitbucket.org/rajashekarj/myrepo1.git
2020-02-27 19:54:56 INFO  1582813478146_45:727 - OrgName : autorabit.com-PmkSJi Executing custom API
2020-02-27 19:54:59 INFO  1582813478146_45:60 - 5bbd341f17914357122830ab13c2541902dea6ba	HEAD
2020-02-27 19:54:59 INFO  1582813478146_45:60 - b32487907fe1846d95491f48a1476673a587277f	refs/heads/BBRepo1Branch1
2020-02-27 19:54:59 INFO  1582813478146_45:60 - 68e1a44a3b0c7fc2062d1a5599a5d159c5a0d0d3	refs/heads/branch1
2020-02-27 19:54:59 INFO  1582813478146_45:60 - 38401e07bc369a9de5fba18d1c4df6c13dc2c857	refs/heads/branch2
2020-02-27 19:54:59 INFO  1582813478146_45:60 - 57bf88b39d5a959b5a972fc536f057b05140d2df	refs/heads/branch3
2020-02-27 19:54:59 INFO  1582813478146_45:60 - 5bbd341f17914357122830ab13c2541902dea6ba	refs/heads/master
2020-02-27 19:54:59 INFO  1582813478146_45:60 - ffc0137f88940932bb25244c25006d9e71427454	refs/remotes/origin/branch1
2020-02-27 19:54:59 INFO  1582813478146_45:60 - a8c238061620555a18c0160acb39795982422620	refs/remotes/origin/branch2
2020-02-27 19:54:59 INFO  1582813478146_45:60 - cb23789f3627f5ced288952cda3b52f2e63743a5	refs/remotes/origin/branch3
2020-02-27 19:54:59 INFO  1582813478146_45:60 - aadbf6ad6c22eeeb5ba7043b32283d6359b67edc	refs/remotes/origin/master
2020-02-27 19:54:59 INFO  1582813478146_45:1358 - OrgName : autorabit.com-PmkSJi Executing custom API
2020-02-27 19:54:59 INFO  1582813478146_45:592 - AR-Debug:: Executing the following command : [Ljava.lang.String;@e879f68
2020-02-27 19:55:01 INFO  1582813478146_45:1407 - Executing custom API
2020-02-27 19:55:01 INFO  1582813478146_45:1002 - AR-Debug::  Checkout dir deletion started.
2020-02-27 19:55:01 INFO  1582813478146_45:1004 - AR-Debug::  Checkout dir deletion completed.
2020-02-27 19:55:01 INFO  1582813478146_45:1006 - AR-Debug::  Master checkout started copying.
2020-02-27 19:55:01 INFO  1582813478146_45:1008 - AR-Debug::  Master checkout successfully completed.
2020-02-27 19:55:01 INFO  1582813478146_45:1407 - Executing custom API
2020-02-27 19:55:01 INFO  1582813478146_45:1241 - Executing custom API
2020-02-27 19:55:01 INFO  1582813478146_45:1246 - OrgName : autorabit.com-PmkSJiSame remote url found. Updating working copy.
2020-02-27 19:55:01 INFO  1582813478146_45:1315 - Fetching remote branches.
2020-02-27 19:55:01 INFO  1582813478146_45:1317 - Executing custom API
2020-02-27 19:55:01 INFO  1582813478146_45:60 - Fetching origin
2020-02-27 19:55:11 WARN  1582813478146_45:60 - From https://bitbucket.org/rajashekarj/myrepo1
2020-02-27 19:55:11 WARN  1582813478146_45:60 -    27125bd..5bbd341  master     -> origin/master
2020-02-27 19:55:11 WARN  1582813478146_45:60 -    f66e496..68e1a44  branch1    -> origin/branch1
2020-02-27 19:55:11 INFO  1582813478146_45:180 - Fetch result : 0
2020-02-27 19:55:11 INFO  1582813478146_45:1269 - OrgName : autorabit.com-PmkSJiUpdating head refs
2020-02-27 19:55:12 INFO  1582813478146_45:1274 - OrgName : autorabit.com-PmkSJi Executing custom API
2020-02-27 19:55:16 WARN  1582813478146_45:60 - From https://bitbucket.org/rajashekarj/myrepo1
2020-02-27 19:55:16 WARN  1582813478146_45:60 -  * branch            master     -> FETCH_HEAD
2020-02-27 19:55:16 INFO  1582813478146_45:60 - Already up to date.
2020-02-27 19:55:16 INFO  1582813478146_45:152 - pull result : 0
2020-02-27 19:55:16 INFO  1582813478146_45:1015 - AR-Debug::  Checkout to specific revision started.
2020-02-27 19:55:16 INFO  1582813478146_45:312 - Switching the revision: branch1
2020-02-27 19:55:16 INFO  1582813478146_45:324 - Orgname : autorabit.com-PmkSJiCheckout Revision is : AbbreviatedObjectId[5bbd341]
2020-02-27 19:55:16 INFO  1582813478146_45:1019 - AR-Debug::  Checkout to specific revision completed.
2020-02-27 19:55:16 INFO  1582813478146_45:1407 - Executing custom API
2020-02-27 19:55:16 INFO  1582813478146_45:1038 - Working copy already exists. Updating the working copy
2020-02-27 19:55:16 INFO  1582813478146_45:1241 - Executing custom API
2020-02-27 19:55:16 INFO  1582813478146_45:1246 - OrgName : autorabit.com-PmkSJiSame remote url found. Updating working copy.
2020-02-27 19:55:16 INFO  1582813478146_45:1315 - Fetching remote branches.
2020-02-27 19:55:16 INFO  1582813478146_45:1317 - Executing custom API
2020-02-27 19:55:16 INFO  1582813478146_45:60 - Fetching origin
2020-02-27 19:55:21 INFO  1582813478146_45:180 - Fetch result : 0
2020-02-27 19:55:21 INFO  1582813478146_45:1269 - OrgName : autorabit.com-PmkSJiUpdating head refs
2020-02-27 19:55:26 INFO  1582813478146_45:1274 - OrgName : autorabit.com-PmkSJi Executing custom API
2020-02-27 19:55:31 WARN  1582813478146_45:60 - From https://bitbucket.org/rajashekarj/myrepo1
2020-02-27 19:55:31 WARN  1582813478146_45:60 -  * branch            branch1    -> FETCH_HEAD
2020-02-27 19:55:31 INFO  1582813478146_45:60 - Already up to date.
2020-02-27 19:55:31 INFO  1582813478146_45:152 - pull result : 0
2020-02-27 19:55:31 INFO  1582813478146_45:514 - AR-Debug::  Checkout end time: Thu Feb 27 19:55:31 IST 2020
2020-02-27 19:55:31 INFO  1582813478146_45:515 - Total checkout time in sec: 34
2020-02-27 19:55:31 INFO  1582813478146_45:520 - Checkout process has been completed.
2020-02-27 19:55:31 INFO  1582813478146_45:533 - Generating the change list.
2020-02-27 19:55:31 INFO  1582813478146_45:510 - OrgName : autorabit.com-PmkSJiFrom Revision : 68e1a44 To Revision : 68e1a44
2020-02-27 19:55:31 INFO  1582813478146_45:517 - OrgName : autorabit.com-PmkSJiRevision numbers are same so getting complete log and filtering.
2020-02-27 19:55:31 INFO  1582813478146_45:1358 - OrgName : autorabit.com-PmkSJi Executing custom API
2020-02-27 19:55:31 INFO  1582813478146_45:592 - AR-Debug:: Executing the following command : [Ljava.lang.String;@2cc394a0
2020-02-27 19:55:33 INFO  1582813478146_45:2377 - SCM log generated for processing changes.
2020-02-27 19:55:33 INFO  1582813478146_45:535 - Generated the change list.
2020-02-27 19:55:33 INFO  1582813478146_45:537 - AR-Debug::  Total change list preparation time: 2
2020-02-27 19:55:33 INFO  1582813478146_45:538 - Switching to revision 68e1a44
2020-02-27 19:55:33 INFO  1582813478146_45:312 - Switching the revision: 68e1a44
2020-02-27 19:55:33 INFO  1582813478146_45:318 - Resetting the repository to head and switching it to specific revision.
2020-02-27 19:55:33 INFO  1582813478146_45:540 - Switched to revision 68e1a44
2020-02-27 19:55:33 INFO  1582813478146_45:1859 - Copying files to custom deploy
2020-02-27 19:55:33 INFO  1582813478146_45:1867 - AR-Debug::  package filename: customMetadata/CustomMetadata1.Rec11.md
2020-02-27 19:55:33 INFO  1582813478146_45:1869 - AR-Debug::  package cpFile: D:\filesystem\193\rabit\.rabit\org\autorabit.com-PmkSJi\metadatatemp\rajashekar.j1@autorabit.com\singelrcustmetadata\source\checkout\customMetadata\CustomMetadata1.Rec11.md
2020-02-27 19:55:33 INFO  1582813478146_45:1867 - AR-Debug::  package filename: customMetadata/CustomMetadata1.Rec1135.md
2020-02-27 19:55:33 INFO  1582813478146_45:1869 - AR-Debug::  package cpFile: D:\filesystem\193\rabit\.rabit\org\autorabit.com-PmkSJi\metadatatemp\rajashekar.j1@autorabit.com\singelrcustmetadata\source\checkout\customMetadata\CustomMetadata1.Rec1135.md
2020-02-27 19:55:33 INFO  1582813478146_45:1867 - AR-Debug::  package filename: customMetadata/CustomMetadata1.Rec12.md
2020-02-27 19:55:33 INFO  1582813478146_45:1869 - AR-Debug::  package cpFile: D:\filesystem\193\rabit\.rabit\org\autorabit.com-PmkSJi\metadatatemp\rajashekar.j1@autorabit.com\singelrcustmetadata\source\checkout\customMetadata\CustomMetadata1.Rec12.md
2020-02-27 19:55:33 INFO  1582813478146_45:1867 - AR-Debug::  package filename: customMetadata/CustomMetadata1.Rec11354.md
2020-02-27 19:55:33 INFO  1582813478146_45:1869 - AR-Debug::  package cpFile: D:\filesystem\193\rabit\.rabit\org\autorabit.com-PmkSJi\metadatatemp\rajashekar.j1@autorabit.com\singelrcustmetadata\source\checkout\customMetadata\CustomMetadata1.Rec11354.md
2020-02-27 19:55:33 INFO  1582813478146_45:1867 - AR-Debug::  package filename: customMetadata/Deploy_Cus_metadata.wewe.md
2020-02-27 19:55:33 INFO  1582813478146_45:1869 - AR-Debug::  package cpFile: D:\filesystem\193\rabit\.rabit\org\autorabit.com-PmkSJi\metadatatemp\rajashekar.j1@autorabit.com\singelrcustmetadata\source\checkout\customMetadata\Deploy_Cus_metadata.wewe.md
2020-02-27 19:55:33 INFO  1582813478146_45:1867 - AR-Debug::  package filename: customMetadata/CustomMetadata4.arras.md
2020-02-27 19:55:33 INFO  1582813478146_45:1869 - AR-Debug::  package cpFile: D:\filesystem\193\rabit\.rabit\org\autorabit.com-PmkSJi\metadatatemp\rajashekar.j1@autorabit.com\singelrcustmetadata\source\checkout\customMetadata\CustomMetadata4.arras.md
2020-02-27 19:55:33 INFO  1582813478146_45:1867 - AR-Debug::  package filename: customMetadata/CustomMetadata1.Rec1.md
2020-02-27 19:55:33 INFO  1582813478146_45:1869 - AR-Debug::  package cpFile: D:\filesystem\193\rabit\.rabit\org\autorabit.com-PmkSJi\metadatatemp\rajashekar.j1@autorabit.com\singelrcustmetadata\source\checkout\customMetadata\CustomMetadata1.Rec1.md
2020-02-27 19:55:33 INFO  1582813478146_45:1867 - AR-Debug::  package filename: customMetadata/CustomMetadata2.X123.md
2020-02-27 19:55:33 INFO  1582813478146_45:1869 - AR-Debug::  package cpFile: D:\filesystem\193\rabit\.rabit\org\autorabit.com-PmkSJi\metadatatemp\rajashekar.j1@autorabit.com\singelrcustmetadata\source\checkout\customMetadata\CustomMetadata2.X123.md
2020-02-27 19:55:33 INFO  1582813478146_45:1867 - AR-Debug::  package filename: customMetadata/CustomMetadata3.ewe.md
2020-02-27 19:55:33 INFO  1582813478146_45:1869 - AR-Debug::  package cpFile: D:\filesystem\193\rabit\.rabit\org\autorabit.com-PmkSJi\metadatatemp\rajashekar.j1@autorabit.com\singelrcustmetadata\source\checkout\customMetadata\CustomMetadata3.ewe.md
2020-02-27 19:55:33 INFO  1582813478146_45:1867 - AR-Debug::  package filename: customMetadata/CustomMetadata1.Rec115.md
2020-02-27 19:55:33 INFO  1582813478146_45:1869 - AR-Debug::  package cpFile: D:\filesystem\193\rabit\.rabit\org\autorabit.com-PmkSJi\metadatatemp\rajashekar.j1@autorabit.com\singelrcustmetadata\source\checkout\customMetadata\CustomMetadata1.Rec115.md
2020-02-27 19:55:33 INFO  1582813478146_45:1867 - AR-Debug::  package filename: customMetadata/CustomMetadata1.Rec165.md
2020-02-27 19:55:33 INFO  1582813478146_45:1869 - AR-Debug::  package cpFile: D:\filesystem\193\rabit\.rabit\org\autorabit.com-PmkSJi\metadatatemp\rajashekar.j1@autorabit.com\singelrcustmetadata\source\checkout\customMetadata\CustomMetadata1.Rec165.md
2020-02-27 19:55:33 INFO  1582813478146_45:1867 - AR-Debug::  package filename: customMetadata/CustomMetadata1.Rec112.md
2020-02-27 19:55:33 INFO  1582813478146_45:1869 - AR-Debug::  package cpFile: D:\filesystem\193\rabit\.rabit\org\autorabit.com-PmkSJi\metadatatemp\rajashekar.j1@autorabit.com\singelrcustmetadata\source\checkout\customMetadata\CustomMetadata1.Rec112.md
2020-02-27 19:55:33 INFO  1582813478146_45:1867 - AR-Debug::  package filename: customMetadata/CustomMetadata1.Rec113.md
2020-02-27 19:55:33 INFO  1582813478146_45:1869 - AR-Debug::  package cpFile: D:\filesystem\193\rabit\.rabit\org\autorabit.com-PmkSJi\metadatatemp\rajashekar.j1@autorabit.com\singelrcustmetadata\source\checkout\customMetadata\CustomMetadata1.Rec113.md
2020-02-27 19:55:33 INFO  1582813478146_45:1867 - AR-Debug::  package filename: customMetadata/CustomMetadata2.dd.md
2020-02-27 19:55:33 INFO  1582813478146_45:1869 - AR-Debug::  package cpFile: D:\filesystem\193\rabit\.rabit\org\autorabit.com-PmkSJi\metadatatemp\rajashekar.j1@autorabit.com\singelrcustmetadata\source\checkout\customMetadata\CustomMetadata2.dd.md
2020-02-27 19:55:33 INFO  1582813478146_45:1867 - AR-Debug::  package filename: customMetadata/CustomMetadata1.Rec1131.md
2020-02-27 19:55:33 INFO  1582813478146_45:1869 - AR-Debug::  package cpFile: D:\filesystem\193\rabit\.rabit\org\autorabit.com-PmkSJi\metadatatemp\rajashekar.j1@autorabit.com\singelrcustmetadata\source\checkout\customMetadata\CustomMetadata1.Rec1131.md
2020-02-27 19:55:33 INFO  1582813478146_45:1867 - AR-Debug::  package filename: customMetadata/CustomMetadata2.ds.md
2020-02-27 19:55:33 INFO  1582813478146_45:1869 - AR-Debug::  package cpFile: D:\filesystem\193\rabit\.rabit\org\autorabit.com-PmkSJi\metadatatemp\rajashekar.j1@autorabit.com\singelrcustmetadata\source\checkout\customMetadata\CustomMetadata2.ds.md
2020-02-27 19:55:33 INFO  1582813478146_45:1867 - AR-Debug::  package filename: customMetadata/CustomMetadata1.Rec111.md
2020-02-27 19:55:33 INFO  1582813478146_45:1869 - AR-Debug::  package cpFile: D:\filesystem\193\rabit\.rabit\org\autorabit.com-PmkSJi\metadatatemp\rajashekar.j1@autorabit.com\singelrcustmetadata\source\checkout\customMetadata\CustomMetadata1.Rec111.md
2020-02-27 19:55:33 INFO  1582813478146_45:1867 - AR-Debug::  package filename: customMetadata/CustomMetadata2.abc.md
2020-02-27 19:55:33 INFO  1582813478146_45:1869 - AR-Debug::  package cpFile: D:\filesystem\193\rabit\.rabit\org\autorabit.com-PmkSJi\metadatatemp\rajashekar.j1@autorabit.com\singelrcustmetadata\source\checkout\customMetadata\CustomMetadata2.abc.md
2020-02-27 19:55:33 INFO  1582813478146_45:312 - Switching the revision: f66e496c02deabafa6012c2067792dba29e9b4eb
2020-02-27 19:55:33 INFO  1582813478146_45:318 - Resetting the repository to head and switching it to specific revision.
2020-02-27 19:55:34 INFO  1582813478146_45:687 - Changed files count : 18
2020-02-27 19:55:34 INFO  1582813478146_45:569 - Destructive members : 0
2020-02-27 19:55:34 INFO  1582813478146_45:547 - Package manifest prepared successfully.
2020-02-27 19:55:38 INFO  1582813478146_45:414 - Retrieving data from scm completed.
2020-02-27 19:57:44 INFO  1582813664117_587:172 - Deploy request received
2020-02-27 19:57:44 INFO  1582813664117_587:250 - Preparing source org package manifest was started
2020-02-27 19:57:44 INFO  1582813664117_587:352 - Preparing source org package manifest was completed
2020-02-27 19:57:44 INFO  1582813664117_587:364 - Retrieving user selected metadata was started.
2020-02-27 19:57:44 INFO  1582813664117_587:226 - Metadata retrieve request received for user name : rajashekar.j1@autorabit.com, destination org : RJ_SF_AR_BB, label name :SingelRCustMetadata
2020-02-27 19:57:44 INFO  1582813664117_587:234 - Source org package manifest has been prepared.
2020-02-27 19:57:44 INFO  1582813664117_587:420 - Preparing metada retrieve request for user name : rajashekar.j1@autorabit.com, destination org : RJ_SF_AR_BB,label name :SingelRCustMetadata
2020-02-27 19:57:44 INFO  1582813664117_587:371 - Retrieving user selected metadata was completed.
2020-02-27 19:57:44 INFO  1582813664117_587:401 - Un-selected metadata from source deletion started.
2020-02-27 19:57:44 INFO  1582813664117_587:442 - Deployment  profile refactor : false, permissions refactor : false
2020-02-27 19:57:44 INFO  1582813664117_587:446 - Only Members are available
2020-02-27 19:57:44 INFO  1582813664117_587:419 - Un-selected metadata from source successfully deleted.
2020-02-27 19:57:44 INFO  1582813664117_587:490 - Ignore missing visibility settings: true
2020-02-27 19:57:44 INFO  1582813664117_587:491 - Removing the userPermissions: true
2020-02-27 19:57:44 INFO  1582813664117_587:492 - Removing the IpRanegs: true
2020-02-27 19:57:44 INFO  1582813664117_587:493 - Removing the Skip Members: false
2020-02-27 19:57:44 INFO  1582813664117_587:494 - Is Search and Substitute configured: false
2020-02-27 19:57:44 INFO  1582813664117_587:536 - Search and Substitute is not configured.
2020-02-27 19:57:44 INFO  1582813664117_587:584 - Deployment files preparing started.
2020-02-27 19:57:44 INFO  1582813664117_587:655 - Deployment issues not configured.
2020-02-27 19:57:44 INFO  1582813664117_587:724 - SCA not configured.
2020-02-27 19:57:44 INFO  1582813664117_587:147 - Depolyment process started
2020-02-27 19:57:45 INFO  1582813664117_587:203 - Deployment request has been invoked.
2020-02-27 19:57:49 INFO  1582813664117_587:208 - Deployment request sent with Async Request Id: 0Af2v00000nuJ8XCAU
2020-02-27 19:57:49 INFO  1582813664117_587:240 - Deployment request invoked, Kindly wait for completion.
2020-02-27 19:57:55 INFO  1582813664117_587:476 -  Request Status: Failed (0 / 1) -- Processing Type:Processing Type: CustomMetadata
2020-02-27 19:57:56 INFO  1582813664117_587:763 - Component successes count : 0
2020-02-27 19:57:56 INFO  1582813664117_587:855 - *********** DEPLOYMENT FAILED ***********
2020-02-27 19:57:56 INFO  1582813664117_587:856 - Request ID:0Af2v00000nuJ8XCAU
2020-02-27 19:57:56 INFO  1582813664117_587:857 - 
2020-02-27 19:57:56 INFO  1582813664117_587:784 - All Component Failures:
2020-02-27 19:57:56 ERROR 1582813664117_587:828 - 
1.unpackaged/customMetadata/CustomMetadata1.Rec1.md -- Error: Custom metadata type CustomMetadata1__mdt is not available in this organization. (line 0, column 0)

2020-02-27 19:57:56 INFO  1582813664117_587:829 - 
2020-02-27 19:57:56 INFO  1582813664117_587:830 - Component failures count : 1
2020-02-27 19:57:56 INFO  1582813664117_587:865 - *********** DEPLOYMENT FAILED ***********
2020-02-27 19:57:56 INFO  1582813664117_587:734 - Deployment request processed successfully.
