2020.02.20.14.09.12--Updated build properties.
2020.02.20.14.09.12--Starting the Build Process
2020.02.20.14.09.12--AR-Debug:: orgname : autorabit.com-PmkSJi projectname : TestNMenu buildnumber : 2 buildforced : true agentname : ArAgent status : Inprogress
2020.02.20.14.09.12--AR-Debug:: update build status : Success
2020.02.20.14.09.12--Step1 : Checking for modifications to continue the build.
2020.02.20.14.09.12--::::::In getUserCredential ::
2020.02.20.14.09.12--Org Name: autorabit.com-PmkSJi, Project Name: TestNMenu,getUserCredentials initated to AgentService.
2020.02.20.14.09.12--Org Name: autorabit.com-PmkSJi, Project Name: TestNMenu, getUserCredentials completed.
2020.02.20.14.09.12--SCM URL : https://bitbucket.org/kareemuddin/new-ap3-repo.git
2020.02.20.14.09.12--Updating working copy.
2020.02.20.14.09.12--Same remote url found. Updating working copy.
2020.02.20.14.09.12--AR-Debug:: OrgName : autorabit.com-PmkSJi Executing custom API
2020.02.20.14.09.12--Executing custom API
2020.02.20.14.09.15--orgName : autorabit.com-PmkSJi Executing custom API
2020.02.20.14.09.17--Same remote url found. Updating working copy.
2020.02.20.14.09.17--AR-Debug:: OrgName : autorabit.com-PmkSJi Executing custom API
2020.02.20.14.09.17--Executing custom API
2020.02.20.14.09.19--Checkout completed.
2020.02.20.14.09.19--Step1 : Modifications exist, Proceeding for next steps...
2020.02.20.14.09.19--Step2 : Cleaning the directories and creating.
2020.02.20.14.09.19--Step2 : Directories creation completed proceeding for next steps...
2020.02.20.14.09.19--Step3 : Checkout / Data retrieval process started.
2020.02.20.14.09.19--Project checkout path : D:\filesystem\193\agent\projects\autorabit.com-PmkSJi_TestNMenu
2020.02.20.14.09.19--Fetching all changed files.
2020.02.20.14.09.19--SCM URL : https://bitbucket.org/kareemuddin/new-ap3-repo.git
2020.02.20.14.09.19--::generateChangeList - scm.getLog:: StartTimeThu Feb 20 19:39:19 IST 2020
2020.02.20.14.09.19--Same remote url found. Updating working copy.
2020.02.20.14.09.19--AR-Debug:: OrgName : autorabit.com-PmkSJi Executing custom API
2020.02.20.14.09.19--Executing custom API
2020.02.20.14.09.22--From Revision : Not Specified To Revision : 3d87d21
2020.02.20.14.09.22--Revision numbers are same so getting complete log and filtering.
2020.02.20.14.09.22--AR-Debug:: OrgName : autorabit.com-PmkSJi Executing custom API
2020.02.20.14.09.22--Executing custom API
2020.02.20.14.09.25--AR-Debug::  isSame: true
2020.02.20.14.09.25--AR-Debug::  fromRev: null
2020.02.20.14.09.25--AR-Debug::  gitshaLength: 7
2020.02.20.14.09.25--
 Generated log entries and finished all threads - 
2020.02.20.14.09.25--AR-Debug::  allRevisions: [3d87d21]
2020.02.20.14.09.25--AR-Debug::  allRevisions size: 1
2020.02.20.14.09.25--AR-Debug::  logsMap size: 1
2020.02.20.14.09.25--AR-Debug::  logsMap revisions: [3d87d21]
2020.02.20.14.09.25--generateChangeList - scm.getLog:: EndTime : Thu Feb 20 19:39:25 IST 2020
2020.02.20.14.09.25--Total scm.getLog time in sec: 5
2020.02.20.14.09.25--SCM log generated for processing changes.
2020.02.20.14.09.25--Writing scmlog to file.
2020.02.20.14.09.25--Changelist generated.
2020.02.20.14.09.25--In validateDeployableMetaDataSchema:::::::startTime::Thu Feb 20 19:39:25 IST 2020 directoryPath::D:\filesystem\193\agent\projects\autorabit.com-PmkSJi_TestNMenu\customDeploy lastCall::true
2020.02.20.14.09.25--Package xml file path : D:\filesystem\193\agent\projects\autorabit.com-PmkSJi_TestNMenu\customDeploy\package.xml
2020.02.20.14.09.25--Preparing the dynamic package.xml file.
2020.02.20.14.09.25--Saved package manifest.
2020.02.20.14.09.25--D:\filesystem\193\agent\projects\autorabit.com-PmkSJi_TestNMenu\customDeploy\sfdxbuild\TestNMenu deleted
2020.02.20.14.09.25--D:\filesystem\193\agent\projects\autorabit.com-PmkSJi_TestNMenu\customDeploy\sfdxbuild deleted
2020.02.20.14.09.25--Step3 : Checkout / Data retrieval completed proceeding for next steps...
2020.02.20.14.09.25--Building source from a SFDX branch
2020.02.20.14.09.25--Step4 : Package steps started
2020.02.20.14.09.25--Checking for modifications on source folder: force-app
2020.02.20.14.09.25--Modifications exist with source folder: force-app
2020.02.20.14.09.30--AR-Debug:: Succesfully created sfdx project for the module
2020.02.20.14.09.30--AR-Debug:: rootDir: D:\filesystem\193\agent\projects\autorabit.com-PmkSJi_TestNMenu\sfdxbuild\TestNMenu outputDir: D:\filesystem\193\agent\projects\autorabit.com-PmkSJi_TestNMenu\customDeploy packageName: force-app
2020.02.20.14.09.35--MetaData conversion from SFDX source to API source format has been completed
2020.02.20.14.09.35--Profiles refactoring started.
2020.02.20.14.09.35--AR-Debug:: Parsing package file. Package file path : D:\filesystem\193\agent\projects\autorabit.com-PmkSJi_TestNMenu\customDeploy\package.xml
2020.02.20.14.09.35--Preparing Metadata members map.
2020.02.20.14.09.35--Prepared Metadata members map.
2020.02.20.14.09.35--Profiles refactoring completed.
2020.02.20.14.09.35--AR-Debug:: <font color='orange'>request parameters received as empty/null for update namespace</font>
2020.02.20.14.09.35--RSS fields update started.
2020.02.20.14.09.35--RSS fields update completed.
2020.02.20.14.09.35--AR-Debug:: no configuration to empty -meta files.
2020.02.20.14.09.35--Validating the empty metadata files exist or not.
2020.02.20.14.09.35--AR-Debug:: Parsing package file. Package file path : D:\filesystem\193\agent\projects\autorabit.com-PmkSJi_TestNMenu\customDeploy\package.xml
2020.02.20.14.09.35--Preparing Metadata members map.
2020.02.20.14.09.35--Prepared Metadata members map.
2020.02.20.14.09.35--Preparing the dynamic package.xml file.
2020.02.20.14.09.36--Validated the empty metadata files exist or not.
2020.02.20.14.09.36--Packaging completed successfully.
2020.02.20.14.09.36--SCM URL : https://bitbucket.org/kareemuddin/new-ap3-repo.git
2020.02.20.14.09.36--Checkout completed.
2020.02.20.14.09.36--Step4 : Package steps completed
2020.02.20.14.09.36--Step5 : Post package steps started.
2020.02.20.14.09.36--AR-Debug::  Static code analysis was not chosen
2020.02.20.14.09.36--Step5 : Post package steps completed
2020.02.20.14.09.36--AR-Debug:: orgname : autorabit.com-PmkSJi projectname : TestNMenu buildnumber : 2 buildforced : true agentname : ArAgent status : Completed
2020-02-20 19:39:36 INFO  com-PmkSJi_TestNMenu_2:824 - autorabit.com-PmkSJi_TestNMenu Post build steps started.
2020-02-20 19:39:37 INFO  com-PmkSJi_TestNMenu_2:1385 - Metadata changes present for project :autorabit.com-PmkSJi_TestNMenu_2
2020-02-20 19:39:37 INFO  com-PmkSJi_TestNMenu_2:994 - <br /> BUILD SUCCESSFUL
2020-02-20 19:39:37 INFO  com-PmkSJi_TestNMenu_2:995 - Total time: 26 Seconds
2020-02-20 19:39:37 INFO  com-PmkSJi_TestNMenu_2:996 - Build Completed
2020-02-20 19:39:37 INFO  com-PmkSJi_TestNMenu_2:869 - AR-Debug::  Changes are available
2020-02-20 19:39:37 INFO  com-PmkSJi_TestNMenu_2:879 - Triggering Deployment Agent from force build with org nameautorabit.com-PmkSJiBuildProject name :TestNMenucurrent Build number :2
2020-02-20 19:39:37 INFO  com-PmkSJi_TestNMenu_2:216 - AR-Debug::  Build process completed. Preparing deployment properties.
2020-02-20 19:39:37 INFO  com-PmkSJi_TestNMenu_2:340 - AR-Debug::  sfpackage : null
2020-02-20 19:39:37 INFO  com-PmkSJi_TestNMenu_2:341 - AR-Debug::  servertype : Dev
2020-02-20 19:39:37 INFO  com-PmkSJi_TestNMenu_2:342 - AR-Debug::  label : RJ_SF_IN_BB_Repo1
2020-02-20 19:39:37 INFO  com-PmkSJi_TestNMenu_2:383 - AR-Debug::  Invoking deployment service for autorabit.com-PmkSJi_TestNMenu_2
2020-02-20 19:39:37 INFO  com-PmkSJi_TestNMenu_2:384 - AR-Debug::  Invoking deployment with CIJobInfo CIJobInfo [orgName=autorabit.com-PmkSJi, projectName=TestNMenu, deployRevision=null, lastsuccessfulbuild=2, lastsuccessfuldeployment=null, buildNumber=2, fromRevision=3d87d21, toRevision=3d87d21, triggeredBy=rajashekar.j1@autorabit.com, title=rerer, isBuildForced=true, isDeploy=true, isTest=false, isBackUp=false, isPMD=false, pmdType=null, comment=null, timeOfBuild=2020-02-20 14:09:12, projectType=SalesForce, buildAgentName=ArAgent, buildLogId=null, buildStatus=Completed, deployAgentName=null, isValidate=true, sourceSFOrg=null, repoName=KareemSFDX, branchName=Alt, sourceFolder=force-app, deployedSFOrg=RJ_SF_IN_BB_Repo1, deployedTime=null, deployStatus=null, deployID=null, runCodeCoverage=D, sourceCodeCoverage=0.0, destCodeCoverage=0.0, testStatus=null, totalTests=null, totalFailures=null, totalSuccess=null, totalNotRun=null, backupStatus=null, backupTime=null, revertStatus=null, buildID=null, almCommitLabels=null, almType=null, status=Completed, testTypes=null, browsers=null, from=versioncontrol, autoCommit=false, dateTimeId=20200220140912, vlocity=false, cancelDeploy=null, quickdeployStatus=null, quickDeployId=null, destructiveType=null, validateRollBack=false, testlevel=null, postAct=null, overAllStatus=Inprogress, isEnableSearchSubstitute=false, searchSubstituteRules=null, accelqProjectCode=null, accelqProjectName=null, accelqJobId=null, accelqJobName=null, accelqProcessId=null, accelqProcessstatus=null]
2020-02-20 19:39:37 ERROR com-PmkSJi_TestNMenu_2:394 - AR-Debug:: sending request to poolName : Default agentName : ArAgent and agentURL : http://localhost:5000/
2020-02-20 19:39:37 INFO  com-PmkSJi_TestNMenu_2:104 - AR-Debug::  agent url is http://localhost:5000/
2020.02.20.14.09.37--BUILD_DEPLOY_SEPERATOR
2020.02.20.14.09.37--AR-Debug:: Deployment request for  DestSfId::00D2v000001ghJLEAY initiating deployment
2020.02.20.14.09.37--Trigger Deployment service invoked!!! for project: TestNMenu and buildNumber: 2
2020.02.20.14.09.38--Rabit regression properties file updated successfully
2020.02.20.14.09.38--isTest::false::isInstall::true::isValidateDeployment::true
2020.02.20.14.09.38--AR-Debug:: Project Type is: SalesForce
2020.02.20.14.09.38--AR-Debug:: Saved SuccessFully: RJ_SF_IN_BB_Repo1.properties
2020.02.20.14.09.38--AR-Debug:: TestNMenu : 2
2020-02-20 19:39:38 INFO  com-PmkSJi_TestNMenu_2:108 - Deployment Status::Deployment invoked successfully
2020-02-20 19:39:38 INFO  com-PmkSJi_TestNMenu_2:902 - AR-Debug::  Invoking Metadata updater ..
2020-02-20 19:39:38 INFO  com-PmkSJi_TestNMenu_2:86 - AR-Debug:: Submitting key is 20200220193938088_autorabit.com-PmkSJi_TestNMenu_2_metadataupdate
2020-02-20 19:39:38 INFO  com-PmkSJi_TestNMenu_2:89 - AR-Debug:: Task does not exist in the queue. Putting new task into queue.20200220193938088_autorabit.com-PmkSJi_TestNMenu_2_metadataupdate
2020-02-20 19:39:38 INFO  com-PmkSJi_TestNMenu_2:90 - Task does not exist in the queue. Putting new task into queue.
2020-02-20 19:39:38 INFO  com-PmkSJi_TestNMenu_2:119 - Submitting new task to execute method.
2020.02.20.14.09.38--AR-Debug:: update build status : Success
2020.02.20.14.09.38--AR-Debug:: Agent Side : Total time taken to complete build process: 26 Seconds
2020.02.20.14.09.38--AR-Debug:: update deploy status : Success
2020.02.20.14.09.38--AR-Debug:: deployment status is inprogressInprogress
2020.02.20.14.09.38--AR-Debug:: processDeployAgentActiveJob : Inprogress
2020.02.20.14.09.39--================Deployment process started.=========================
2020.02.20.14.09.39--Preparing zip File with metadata API supported format start.
2020.02.20.14.09.39--profRefact configured. starting the process.
2020.02.20.14.09.39--AR-Debug:: Parsing package file. Package file path : D:\filesystem\193\agent\sfoper\autorabit.com-PmkSJi_TestNMenu\unpackaged\package.xml
2020.02.20.14.09.39--Preparing Metadata members map.
2020.02.20.14.09.39--Prepared Metadata members map.
2020.02.20.14.09.39--profRefact process completed.
2020.02.20.14.09.39--AR-Debug:: Parsing package file. Package file path : D:\filesystem\193\agent\sfoper\autorabit.com-PmkSJi_TestNMenu\unpackaged\package.xml
2020.02.20.14.09.39--Preparing Metadata members map.
2020.02.20.14.09.39--Prepared Metadata members map.
2020.02.20.14.09.39--Preparing zip File with Metadata API supported format completed successfully.
2020.02.20.14.09.39--Deployment process started using Metadata API.TestNMenu
2020.02.20.14.09.39--Preparing the deployment options stated.
2020.02.20.14.09.39--deployment options preparation completed.
2020.02.20.14.09.39--AR-Debug:: Generating access token from refresh token for salesforce org...
2020.02.20.14.09.40--Response Statusline:HTTP/1.1 200 OK
2020.02.20.14.09.41--AR-Debug:: AsyncResultID::0Af2v00000nZUC5CAO
2020.02.20.14.09.41--AR-Debug:: AsyncResultState::Queued
2020.02.20.14.09.41--<font color='blue'>Deployment has been initiated with Async Id::0Af2v00000nZUC5CAO</font>
2020.02.20.14.09.41--AR-Debug:: DeployID : 0Af2v00000nZUC5CAO
2020.02.20.14.09.42--AR-Debug:: update deploy status : Success
2020.02.20.14.09.42--AR-Debug:: deployment status is inprogressInprogress
2020.02.20.14.09.42--AR-Debug:: processDeployAgentActiveJob : Inprogress
2020.02.20.14.09.50--<font color='green'>Component successes count : 0</font>
2020.02.20.14.09.50--<font color='red'>Component failures count : 1</font>
2020.02.20.14.09.50--<font color='red'>All Component Failures:</font>
2020.02.20.14.09.50--1.unpackaged/navigationMenus/Default_Navigation.navigationMenu -- Error: In field: Network - no Network named simplyenergypartners found (line 0, column 0)

2020.02.20.14.09.50--<font color='red'>*********** DEPLOYMENT FAILED ***********</font>
2020.02.20.14.09.50--AR-Debug:: DeployID : 0Af2v00000nZUC5CAO
2020.02.20.14.09.51--AR-Debug:: update deploy status : Success
2020.02.20.14.09.51--AR-Debug:: Removing from Serialization file for deploy status : Failed
2020.02.20.14.09.51--AR-Debug:: processDeployAgentActiveJob : Failed
2020.02.20.14.09.52--AR-Debug:: processDeployAgentActiveJob : false
2020.02.20.14.09.52--AR-Debug:: Issue Sandbox Properties, seems tests/forcetests were not configured
2020.02.20.14.09.52--AR-Debug:: processDeployAgentActiveJob : Failed
2020.02.20.14.09.52--AR-Debug:: Removing from Serialization file for deploy status : Failed
2020.02.20.14.09.52--AR-Debug:: Deployment Completed With status: Failed
2020.02.20.14.09.52--AR-Debug:: Deployement process completed for Project TestNMenu with deploymentId: 0Af2v00000nZUC5CAO===============
2020.02.20.14.09.52--Total time :14 Seconds
