2020.02.19.17.07.14--Updated build properties.
2020.02.19.17.07.14--Starting the Build Process
2020.02.19.17.07.14--AR-Debug:: orgname : autorabit.com-PmkSJi projectname : FinalTest buildnumber : 1 buildforced : true agentname : ArAgent status : Inprogress
2020.02.19.17.07.15--AR-Debug:: update build status : Success
2020.02.19.17.07.15--Step1 : Checking for modifications to continue the build.
2020.02.19.17.07.15--::::::In getUserCredential ::
2020.02.19.17.07.15--Org Name: autorabit.com-PmkSJi, Project Name: FinalTest,getUserCredentials initated to AgentService.
2020.02.19.17.07.15--Org Name: autorabit.com-PmkSJi, Project Name: FinalTest, getUserCredentials completed.
2020.02.19.17.07.15--Checking modifications for sandbox build.
2020.02.19.17.07.15--Updating the access token for OAuth authentication
2020.02.19.17.07.15--AR-Debug:: Generating access token from refresh token for salesforce org...
2020.02.19.17.07.15--Response Statusline:HTTP/1.1 200 OK
2020.02.19.17.07.15--Started fetching members to identify modifications.
2020.02.19.17.07.15--IN fetching metadata members of sandbox.
2020.02.19.17.07.15--Old Json File not exist in FTP so property updated as Yes.
2020.02.19.17.07.15--default scheduledsanboxbuildcontinue::Yes
2020.02.19.17.07.15--Build Continue flag : true
2020.02.19.17.07.15--Modifications exist. Triggering new build
2020.02.19.17.07.15--Completed fetch members to identify modifications.
2020.02.19.17.07.15--Step1 : Modifications exist, Proceeding for next steps...
2020.02.19.17.07.15--Step2 : Cleaning the directories and creating.
2020.02.19.17.07.15--Step2 : Directories creation completed proceeding for next steps...
2020.02.19.17.07.15--Step3 : Checkout / Data retrieval process started.
2020.02.19.17.07.16--SCM URL : https://bitbucket.org/rajashekarj/myrepo3.git
2020.02.19.17.07.16--Taking new checkout.
2020.02.19.17.07.16--Cloning the target branch.
2020.02.19.17.07.16--AR-Debug:: OrgName : autorabit.com-PmkSJi Executing custom API
2020.02.19.17.07.16--Executing custom API
2020.02.19.17.07.22--orgName : autorabit.com-PmkSJi Executing custom API
2020.02.19.17.07.24--Same remote url found. Updating working copy.
2020.02.19.17.07.24--AR-Debug:: OrgName : autorabit.com-PmkSJi Executing custom API
2020.02.19.17.07.24--Executing custom API
2020.02.19.17.07.26--Checkout completed.
2020.02.19.17.07.26--Package preparation started.
2020.02.19.17.07.26--AR-Debug:: issession:: false
2020.02.19.17.07.26--AR-Debug:: Generating access token from refresh token for salesforce org...
2020.02.19.17.07.26--Response Statusline:HTTP/1.1 200 OK
2020.02.19.17.07.29--Fetching ApexClass metadata members.
2020.02.19.17.07.30--Fetching ApexComponent metadata members.
2020.02.19.17.07.31--Fetching ApexPage metadata members.
2020.02.19.17.07.32--Fetching ApexTrigger metadata members.
2020.02.19.17.07.33--Fetching AppMenu metadata members.
2020.02.19.17.07.34--Fetching AssignmentRule metadata members.
2020.02.19.17.07.34--Fetching AssignmentRules metadata members.
2020.02.19.17.07.35--Fetching AuraDefinitionBundle metadata members.
2020.02.19.17.07.37--Fetching AutoResponseRules metadata members.
2020.02.19.17.07.42--Fetching CleanDataService metadata members.
2020.02.19.17.07.42--Fetching Community metadata members.
2020.02.19.17.07.44--Fetching ContentAsset metadata members.
2020.02.19.17.07.49--Fetching CustomApplication metadata members.
2020.02.19.17.07.51--Fetching CustomField metadata members.
2020.02.19.17.07.52--Fetching CustomLabel metadata members.
2020.02.19.17.07.53--Fetching CustomLabels metadata members.
2020.02.19.17.07.54--Fetching CustomMetadata metadata members.
2020.02.19.17.07.54--Fetching CustomObject metadata members.
2020.02.19.17.07.55--Fetching CustomObjectTranslation metadata members.
2020.02.19.17.07.58--Fetching CustomTab metadata members.
2020.02.19.17.08.01--Fetching Document metadata members.
2020.02.19.17.08.02--Fetching DuplicateRule metadata members.
2020.02.19.17.08.06--Fetching EmailTemplate metadata members.
2020.02.19.17.08.09--Fetching EscalationRule metadata members.
2020.02.19.17.08.09--Fetching EscalationRules metadata members.
2020.02.19.17.08.13--Fetching FlexiPage metadata members.
2020.02.19.17.08.13--Fetching Flow metadata members.
2020.02.19.17.08.16--Fetching HomePageLayout metadata members.
2020.02.19.17.08.17--Fetching Layout metadata members.
2020.02.19.17.08.21--Fetching ListView metadata members.
2020.02.19.17.08.23--Fetching MatchingRule metadata members.
2020.02.19.17.08.23--Fetching MatchingRules metadata members.
2020.02.19.17.08.26--Fetching PermissionSet metadata members.
2020.02.19.17.08.28--Fetching Profile metadata members.
2020.02.19.17.08.30--Fetching QuickAction metadata members.
2020.02.19.17.08.32--Fetching RecordType metadata members.
2020.02.19.17.08.32--Fetching RemoteSiteSetting metadata members.
2020.02.19.17.08.36--Fetching ReportType metadata members.
2020.02.19.17.08.36--Fetching Role metadata members.
2020.02.19.17.08.37--Fetching Settings metadata members.
2020.02.19.17.08.40--Fetching SharingRules metadata members.
2020.02.19.17.08.44--Fetching StaticResource metadata members.
2020.02.19.17.08.45--Fetching TopicsForObjects metadata members.
2020.02.19.17.08.47--Fetching WebLink metadata members.
2020.02.19.17.08.48--Fetching WorkflowAlert metadata members.
2020.02.19.17.08.50--Fetching WorkflowRule metadata members.
2020.02.19.17.08.51--Preparing package.xml file from map
2020.02.19.17.08.51--Done - package.xml updated successfully......
2020.02.19.17.08.51--Package preparation completed.
2020.02.19.17.08.51--No changes and deleted existing static analysis json file.
2020.02.19.17.08.51--No changes and deleted existing lint analysis json file.
2020.02.19.17.08.51--Retrieving the metadata.
2020.02.19.17.08.51-- Preparing metadata retrieval request with selected metadata members.
2020.02.19.17.08.51--AR-Debug:: Generating access token from refresh token for salesforce org...
2020.02.19.17.08.52--Response Statusline:HTTP/1.1 200 OK
2020.02.19.17.08.53--Metadata retrieval request sent with selected metadata members. Request Id : 09S2v000007DS3FEAW
2020.02.19.17.08.57--Status is: Succeeded
2020.02.19.17.08.57--Succeeded
2020.02.19.17.08.57--AR-Debug:: Parsing package file. Package file path : D:\filesystem\193\agent\build\autorabit.com-PmkSJi_FinalTest\source\unpackaged\package.xml
2020.02.19.17.08.58--Preparing Metadata members map.
2020.02.19.17.08.58--Prepared Metadata members map.
2020.02.19.17.08.58--Preparing the dynamic package.xml file.
2020.02.19.17.08.58--Preparing the dynamic package.xml file.
2020.02.19.17.08.58--Preparing the dynamic package.xml file.
2020.02.19.17.08.58--Metadata retrieval is completed.
2020.02.19.17.08.58--::::::In getUserCredential ::
2020.02.19.17.08.58--Org Name: autorabit.com-PmkSJi, Project Name: FinalTest,getUserCredentials initated to AgentService.
2020.02.19.17.08.58--Org Name: autorabit.com-PmkSJi, Project Name: FinalTest, getUserCredentials completed.
2020.02.19.17.08.58--AR-Debug:: Parsing package file. Package file path : D:\filesystem\193\agent\build\autorabit.com-PmkSJi_FinalTest\source\unpackaged\package.xml
2020.02.19.17.08.58--Preparing Metadata members map.
2020.02.19.17.08.58--Prepared Metadata members map.
2020.02.19.17.08.58--AR-Debug:: Parsing package file. Package file path : D:\filesystem\193\agent\projects\autorabit.com-PmkSJi_FinalTest\package.xml
2020.02.19.17.08.58--<font color='red'>D:\filesystem\193\agent\projects\autorabit.com-PmkSJi_FinalTest\package.xml (The system cannot find the file specified)</font>
2020.02.19.17.08.58--Appending started for Metadata member :customMetadata\CustomMetadata1.Rec1.md
2020.02.19.17.08.58--Appending started for Metadata member :customMetadata\CustomMetadata1.Rec11.md
2020.02.19.17.08.58--Appending started for Metadata member :customMetadata\CustomMetadata1.Rec111.md
2020.02.19.17.08.58--Appending started for Metadata member :customMetadata\CustomMetadata1.Rec112.md
2020.02.19.17.08.58--Appending started for Metadata member :customMetadata\CustomMetadata1.Rec113.md
2020.02.19.17.08.58--Appending started for Metadata member :customMetadata\CustomMetadata1.Rec1131.md
2020.02.19.17.08.58--Appending started for Metadata member :customMetadata\CustomMetadata1.Rec1135.md
2020.02.19.17.08.58--Appending started for Metadata member :customMetadata\CustomMetadata1.Rec11354.md
2020.02.19.17.08.58--Appending started for Metadata member :customMetadata\CustomMetadata1.Rec115.md
2020.02.19.17.08.58--Appending started for Metadata member :customMetadata\CustomMetadata1.Rec12.md
2020.02.19.17.08.58--Appending started for Metadata member :customMetadata\CustomMetadata1.Rec165.md
2020.02.19.17.08.58--Appending started for Metadata member :customMetadata\CustomMetadata2.X123.md
2020.02.19.17.08.58--Appending started for Metadata member :customMetadata\CustomMetadata2.abc.md
2020.02.19.17.08.58--Appending started for Metadata member :customMetadata\CustomMetadata2.dd.md
2020.02.19.17.08.58--Appending started for Metadata member :customMetadata\CustomMetadata2.ds.md
2020.02.19.17.08.58--Appending started for Metadata member :customMetadata\CustomMetadata3.ewe.md
2020.02.19.17.08.58--Appending started for Metadata member :customMetadata\CustomMetadata4.arra.md
2020.02.19.17.08.58--Appending started for Metadata member :customMetadata\Deploy_Cus_metadata.wewe.md
2020.02.19.17.08.58--
Finished all threads
2020.02.19.17.08.58--Total Time SCM : 58
2020.02.19.17.08.58--Preparing the dynamic package.xml file.
2020.02.19.17.08.58--SCM URL : https://bitbucket.org/rajashekarj/myrepo3.git
2020.02.19.17.08.58--Source path Before commit:: D:\filesystem\193\agent\projects\autorabit.com-PmkSJi_FinalTest
2020.02.19.17.08.58--Source path files count before commit:: 4
2020.02.19.17.08.58--new revision number is : e7c058a
2020.02.19.17.08.58--orgName : autorabit.com-PmkSJi Executing custom API
2020.02.19.17.09.01--Revision is : e7c058a
2020.02.19.17.09.01--verifying obtained revision number pattern 
2020.02.19.17.09.01--Same remote url found. Updating working copy.
2020.02.19.17.09.01--AR-Debug:: OrgName : autorabit.com-PmkSJi Executing custom API
2020.02.19.17.09.01--Executing custom API
2020.02.19.17.09.03--From Revision : e7c058a To Revision : e7c058a
2020.02.19.17.09.03--Revision numbers are same so getting complete log and filtering.
2020.02.19.17.09.03--AR-Debug:: OrgName : autorabit.com-PmkSJi Executing custom API
2020.02.19.17.09.03--Executing custom API
2020.02.19.17.09.04--AR-Debug::  isSame: true
2020.02.19.17.09.04--AR-Debug::  fromRev: e7c058a
2020.02.19.17.09.04--AR-Debug::  gitshaLength: 7
2020.02.19.17.09.05--
 Generated log entries and finished all threads - 
2020.02.19.17.09.05--AR-Debug::  allRevisions: [e7c058a]
2020.02.19.17.09.05--AR-Debug::  allRevisions size: 1
2020.02.19.17.09.05--AR-Debug::  logsMap size: 1
2020.02.19.17.09.05--AR-Debug::  logsMap revisions: [e7c058a]
2020.02.19.17.09.05--Writing scmlog to file.
2020.02.19.17.09.05--process to update revisions in Commithistory start.
2020.02.19.17.09.05--Org Name: autorabit.com-PmkSJi,  Project Name: FinalTest, Build Number: 1, invoking updateRevisionInCommitHistory process. revisions::[e7c058a]
2020.02.19.17.09.29--update revisions in Commithistory end. with status:Success
2020.02.19.17.09.29--Step3 : Checkout / Data retrieval completed proceeding for next steps...
2020.02.19.17.09.29--Step4 : Pre-Package steps started.
2020.02.19.17.09.29--Profiles refactoring started.
2020.02.19.17.09.29--AR-Debug:: Parsing package file. Package file path : D:\filesystem\193\agent\build\autorabit.com-PmkSJi_FinalTest\source\unpackaged\package.xml
2020.02.19.17.09.29--Preparing Metadata members map.
2020.02.19.17.09.29--Prepared Metadata members map.
2020.02.19.17.09.29--Profiles refactoring completed.
2020.02.19.17.09.29--AR-Debug:: <font color='orange'>request parameters received as empty/null for update namespace</font>
2020.02.19.17.09.29--RSS fields update started.
2020.02.19.17.09.29--RSS fields update completed.
2020.02.19.17.09.29--AR-Debug:: no configuration to empty -meta files.
2020.02.19.17.09.29--Step4 : Pre-Package steps completed proceeding for next steps...
2020.02.19.17.09.29--Step5 : Package steps started
2020.02.19.17.09.29--Packaging completed successfully.
2020.02.19.17.09.29--Step5 : Package steps completed proceeding for next steps...
2020.02.19.17.09.29--Step6 : Post package steps started.
2020.02.19.17.09.29--AR-Debug::  Static code analysis was not chosen
2020.02.19.17.09.29--Step6 : Post package steps completed
2020.02.19.17.09.29--AR-Debug:: orgname : autorabit.com-PmkSJi projectname : FinalTest buildnumber : 1 buildforced : true agentname : ArAgent status : Completed
2020-02-19 22:39:30 INFO  com-PmkSJi_FinalTest_1:824 - autorabit.com-PmkSJi_FinalTest Post build steps started.
2020-02-19 22:39:30 INFO  com-PmkSJi_FinalTest_1:1385 - Metadata changes present for project :autorabit.com-PmkSJi_FinalTest_1
2020-02-19 22:39:30 INFO  com-PmkSJi_FinalTest_1:994 - <br /> BUILD SUCCESSFUL
2020-02-19 22:39:30 INFO  com-PmkSJi_FinalTest_1:995 - Total time: 2 Minutes 17 Seconds
2020-02-19 22:39:30 INFO  com-PmkSJi_FinalTest_1:996 - Build Completed
2020-02-19 22:39:30 INFO  com-PmkSJi_FinalTest_1:894 - No deployments :
2020-02-19 22:39:30 INFO  com-PmkSJi_FinalTest_1:83 - CIJob info saved successfully
2020-02-19 22:39:30 INFO  com-PmkSJi_FinalTest_1:902 - AR-Debug::  Invoking Metadata updater ..
2020-02-19 22:39:30 INFO  com-PmkSJi_FinalTest_1:86 - AR-Debug:: Submitting key is 20200219223930372_autorabit.com-PmkSJi_FinalTest_1_metadataupdate
2020-02-19 22:39:30 INFO  com-PmkSJi_FinalTest_1:89 - AR-Debug:: Task does not exist in the queue. Putting new task into queue.20200219223930372_autorabit.com-PmkSJi_FinalTest_1_metadataupdate
2020-02-19 22:39:30 INFO  com-PmkSJi_FinalTest_1:90 - Task does not exist in the queue. Putting new task into queue.
2020-02-19 22:39:30 INFO  com-PmkSJi_FinalTest_1:119 - Submitting new task to execute method.
2020-02-19 22:39:30 INFO  com-PmkSJi_FinalTest_1:83 - CIJob info saved successfully
2020-02-19 22:39:30 INFO  com-PmkSJi_FinalTest_1:944 - updating the DeployRevision in incremental build
2020.02.19.17.09.30--AR-Debug:: update build status : Success
2020.02.19.17.09.30--AR-Debug:: Agent Side : Total time taken to complete build process: 2 Minutes 16 Seconds
