2020-01-28 21:03:23 INFO  1580225603857_992:172 - Deploy request received
2020-01-28 21:03:24 INFO  1580225603857_992:220 - Preparing package manifest on source org for deployment Type: FULL
2020-01-28 21:03:24 INFO  1580225603857_992:1174 - User Name: rajashekar.j1@autorabit.com, label name: Backup11, source Org metadata retrival started for full promotion, sourcetype: SANDBOX
2020-01-28 21:04:38 INFO  1580225603857_992:1197 - Retrieving metadata mebers from source sf org is started.
2020-01-28 21:07:02 INFO  1580225603857_992:1200 - Retrieving metadata mebers from source sf org is completed.
2020-01-28 21:07:03 INFO  1580225603857_992:1204 - Updating 'Profile' and 'PermissionSets' is started.
2020-01-28 21:07:03 INFO  1580225603857_992:442 - Deployment  profile refactor : false, permissions refactor : false
2020-01-28 21:07:03 INFO  1580225603857_992:449 - Members and Profile and PermissionSet are available
2020-01-28 21:07:03 INFO  1580225603857_992:1207 - Updating 'Profile' and 'PermissionSets' is completed.
2020-01-28 21:07:03 INFO  1580225603857_992:1270 - Retrieving metadata mebers from source sf org is completed.
2020-01-28 21:09:22 INFO  1580225603857_992:6092 - Preparing for backup process.
2020-01-28 21:09:26 INFO  1580225603857_992:6399 - Source org package manifest preparation started
2020-01-28 21:09:27 INFO  1580225603857_992:1061 - Generating backup file.
2020-01-28 21:09:33 INFO  1580225603857_992:855 - Request has been sent for metadata retrieval with request Id : 09S7F000004EtEdUAK
2020-01-28 21:09:43 INFO  1580225603857_992:920 - Metadata retrieval status is: Succeeded
2020-01-28 21:09:43 INFO  1580225603857_992:863 - Metadata has been retrieved successfully.
2020-01-28 21:09:43 INFO  1580225603857_992:442 - Deployment  profile refactor : true, permissions refactor : true
2020-01-28 21:09:43 INFO  1580225603857_992:1132 - Backup process is successful.
2020-01-28 21:09:43 INFO  1580225603857_992:351 - Prepared package manifest on source org for deployment Type: FULL
2020-01-28 21:09:43 INFO  1580225603857_992:490 - Ignore missing visibility settings: false
2020-01-28 21:09:43 INFO  1580225603857_992:491 - Removing the userPermissions: false
2020-01-28 21:09:43 INFO  1580225603857_992:492 - Removing the IpRanegs: false
2020-01-28 21:09:43 INFO  1580225603857_992:493 - Removing the Skip Members: false
2020-01-28 21:09:43 INFO  1580225603857_992:494 - Is Search and Substitute configured: false
2020-01-28 21:09:43 INFO  1580225603857_992:536 - Search and Substitute is not configured.
2020-01-28 21:09:43 INFO  1580225603857_992:584 - Deployment files preparing started.
2020-01-28 21:09:44 INFO  1580225603857_992:655 - Deployment issues not configured.
2020-01-28 21:09:44 INFO  1580225603857_992:724 - SCA not configured.
2020-01-28 21:09:44 INFO  1580225603857_992:147 - Depolyment process started
2020-01-28 21:09:45 INFO  1580225603857_992:203 - Deployment request has been invoked.
2020-01-28 21:09:51 INFO  1580225603857_992:208 - Deployment request sent with Async Request Id: 0Af7F00001GFzh8SAD
2020-01-28 21:09:51 INFO  1580225603857_992:240 - Deployment request invoked, Kindly wait for completion.
2020-01-28 21:10:08 INFO  1580225603857_992:476 -  Request Status: InProgress (63 / 1265) -- Processing Type:Processing Type: CustomObject
2020-01-28 21:10:13 INFO  1580225603857_992:476 -  Request Status: InProgress (63 / 1265) -- Processing Type:Processing Type: CustomObject
2020-01-28 21:10:33 INFO  1580225603857_992:476 -  Request Status: InProgress (837 / 1265) -- Processing Type:Processing Type: Layout
2020-01-28 21:10:39 INFO  1580225603857_992:476 -  Request Status: InProgress (837 / 1265) -- Processing Type:Processing Type: Layout
2020-01-28 21:10:50 INFO  1580225603857_992:476 -  Request Status: InProgress (900 / 1265) -- Processing Type:Processing Type: EmailTemplate
2020-01-28 21:10:55 INFO  1580225603857_992:476 -  Request Status: InProgress (944 / 1265) -- Processing Type:Processing Type: CustomApplication
2020-01-28 21:11:01 INFO  1580225603857_992:476 -  Request Status: InProgress (958 / 1265) -- Processing Type:Processing Type: Workflow
2020-01-28 21:11:07 INFO  1580225603857_992:476 -  Request Status: InProgress (978 / 1265) -- Processing Type:Processing Type: Profile
2020-01-28 21:11:12 INFO  1580225603857_992:476 -  Request Status: InProgress (978 / 1265) -- Processing Type:Processing Type: Profile
2020-01-28 21:11:18 INFO  1580225603857_992:476 -  Request Status: InProgress (978 / 1265) -- Processing Type:Processing Type: Profile
2020-01-28 21:11:38 INFO  1580225603857_992:476 -  Request Status: InProgress (984 / 1265) -- Processing Type:Processing Type: RemoteSiteSetting
2020-01-28 21:11:43 INFO  1580225603857_992:476 -  Request Status: InProgress (989 / 1265) -- Processing Type:Processing Type: CleanDataService
2020-01-28 21:11:49 INFO  1580225603857_992:476 -  Request Status: InProgress (991 / 1265) -- Processing Type:Processing Type: ForecastingSettings
2020-01-28 21:11:54 INFO  1580225603857_992:476 -  Request Status: InProgress (1011 / 1265) -- Processing Type:Processing Type: TopicsForObjects
2020-01-28 21:12:01 INFO  1580225603857_992:763 - Component successes count : 1010
2020-01-28 21:12:01 INFO  1580225603857_992:855 - *********** DEPLOYMENT FAILED ***********
2020-01-28 21:12:01 INFO  1580225603857_992:856 - Request ID:0Af7F00001GFzh8SAD
2020-01-28 21:12:01 INFO  1580225603857_992:857 - 
2020-01-28 21:12:01 INFO  1580225603857_992:784 - All Component Failures:
2020-01-28 21:12:01 ERROR 1580225603857_992:828 - 
1.unpackaged/settings/LiveMessage.settings -- Error: Not available for deploy for this organization (line 0, column 0)
2.unpackaged/installedPackages/sf_com_apps.installedPackage -- Error: Required field is missing: activateRSS (line 0, column 0)
3.unpackaged/settings/OrgPreference.settings -- Error: An unexpected error occurred. Please include this ErrorId if you contact support: 142859508-1162 (-847983587) (line 0, column 0)
4.unpackaged/settings/Account.settings -- Error: You cannot disable account teams using the Metadata API.  Your system administrator can disable account teams from the Account Team Setup page. (line 0, column 0)
5.unpackaged/standardValueSets/FiscalYearPeriodName.standardValueSet -- Error: Required field is missing: standardValue (line 0, column 0)
6.unpackaged/standardValueSets/IdeaMultiCategory.standardValueSet -- Error: Required field is missing: standardValue (line 0, column 0)
7.unpackaged/standardValueSets/IdeaStatus.standardValueSet -- Error: Required field is missing: standardValue (line 0, column 0)
8.unpackaged/standardValueSets/OpportunityCompetitor.standardValueSet -- Error: Required field is missing: standardValue (line 0, column 0)
9.unpackaged/standardValueSets/OrderType.standardValueSet -- Error: Required field is missing: standardValue (line 0, column 0)
10.unpackaged/objects/DandBCompany.object -- Error: invalid cross reference id (line 0, column 0)
11.unpackaged/objects/DuplicateRecordSet.object -- Error: invalid cross reference id (line 0, column 0)
12.unpackaged/objects/ForecastingCategoryMapping.object -- Error: invalid cross reference id (line 0, column 0)
13.unpackaged/objects/LeadCleanInfo.object -- Error: invalid cross reference id (line 0, column 0)
14.unpackaged/objects/MessagingEndUser.object -- Error: Invalid fullName, must end in a custom suffix ( for ex. __c ) (line 0, column 0)
15.unpackaged/objects/MessagingSession.object -- Error: Invalid fullName, must end in a custom suffix ( for ex. __c ) (line 0, column 0)
16.unpackaged/objects/ProductConsumptionSchedule.object -- Error: invalid cross reference id (line 0, column 0)
17.unpackaged/objects/Recommendation.object -- Error: invalid cross reference id (line 0, column 0)
18.unpackaged/objects/RecordAction.object -- Error: invalid cross reference id (line 0, column 0)
19.unpackaged/objects/RequestsForAccessSIQ.object -- Error: Invalid fullName, must end in a custom suffix ( for ex. __c ) (line 0, column 0)
20.unpackaged/objects/StreamActivityAccess.object -- Error: Invalid fullName, must end in a custom suffix ( for ex. __c ) (line 0, column 0)
21.unpackaged/objects/Task.object (Task.CompletedTasks) -- Error: Value too long for field: Name maximum length is:40 (line 104, column 16)
22.unpackaged/objects/Task.object (Task.DelegatedTasks) -- Error: Value too long for field: Name maximum length is:40 (line 133, column 16)
23.unpackaged/objects/Task.object (Task.RecurringTasks) -- Error: Value too long for field: Name maximum length is:40 (line 205, column 16)
24.unpackaged/objects/Task.object (Task.UnscheduledTasks) -- Error: Value too long for field: Name maximum length is:40 (line 253, column 16)
25.unpackaged/settings/Address.settings -- Error: Invalid iso code TG for state Telangana in country India (line 0, column 0)
26.unpackaged/applications/standard__Insights.app -- Error: Cannot create a new component with the namespace: standard.  Only components in the same namespace as the organization can be created through the API (line 0, column 0)
27.unpackaged/applications/standard__LightningSalesConsole.app -- Error: FormFactors must be Large for Lightning console apps. (line 0, column 0)
28.unpackaged/applications/standard__LightningBolt.app -- Error: Cannot create a new component with the namespace: standard.  Only components in the same namespace as the organization can be created through the API (line 0, column 0)
29.unpackaged/applications/standard__LightningService.app -- Error: FormFactors must be Large for Lightning console apps. (line 0, column 0)
30.unpackaged/assignmentRules/Lead.assignmentRules (Lead.Standard) -- Error: In field: AssignedTo - no User named rajashekar.j@autorabit.com found (line 3, column 21)
31.unpackaged/assignmentRules/Case.assignmentRules (Case.Standard) -- Error: In field: AssignedTo - no User named rajashekar.j@autorabit.com found (line 3, column 21)
32.unpackaged/escalationRules/Case.escalationRules (Case.Standard) -- Error: In field: AssignedTo - no User named rajashekar.j@autorabit.com found (line 3, column 21)
33.unpackaged/profiles/Custom%3A Support Profile.profile -- Error: In field: field - no CustomObject named MessagingEndUser found (line 0, column 0)
34.unpackaged/profiles/Customer Community Login User.profile -- Error: In field: field - no CustomObject named MessagingEndUser found (line 0, column 0)
35.unpackaged/profiles/Customer Community Plus Login User.profile -- Error: You may not modify the permission API Enabled while editing a Standard Profile (line 0, column 0)
36.unpackaged/profiles/Cross Org Data Proxy User.profile -- Error: In field: field - no CustomObject named MessagingEndUser found (line 0, column 0)
37.unpackaged/profiles/ContractManager.profile -- Error: In field: field - no CustomObject named MessagingEndUser found (line 0, column 0)
38.unpackaged/profiles/Chatter Moderator User.profile -- Error: In field: field - no CustomObject named MessagingEndUser found (line 0, column 0)
39.unpackaged/profiles/Custom%3A Sales Profile.profile -- Error: In field: field - no CustomObject named MessagingEndUser found (line 0, column 0)
40.unpackaged/profiles/Analytics Cloud Integration User.profile -- Error: Unknown user permission: InsightsAppAdmin (line 0, column 0)
41.unpackaged/profiles/Chatter External User.profile -- Error: In field: field - no CustomObject named MessagingEndUser found (line 0, column 0)
42.unpackaged/profiles/Authenticated Website.profile -- Error: In field: field - no CustomObject named MessagingEndUser found (line 0, column 0)
43.unpackaged/profiles/Analytics Cloud Security User.profile -- Error: Unknown user permission: InsightsAppAdmin (line 0, column 0)
44.unpackaged/profiles/Admin.profile -- Error: You may not modify the permission View Flow Usage and Flow Event Data while editing a Standard Profile (line 0, column 0)
45.unpackaged/profiles/Chatter Free User.profile -- Error: You may not modify the permission Add People to Direct Messages while editing a Standard Profile (line 0, column 0)
46.unpackaged/profiles/Custom%3A Marketing Profile.profile -- Error: In field: field - no CustomObject named MessagingEndUser found (line 0, column 0)
47.unpackaged/profiles/Force%2Ecom - Free User.profile -- Error: You may not modify the permission Subscribe to Dashboards while editing a Standard Profile (line 0, column 0)
48.unpackaged/profiles/Force%2Ecom - App Subscription User.profile -- Error: You may not modify the permission Subscribe to Dashboards while editing a Standard Profile (line 0, column 0)
49.unpackaged/profiles/External Identity User.profile -- Error: In field: field - no CustomObject named MessagingEndUser found (line 0, column 0)
50.unpackaged/profiles/Customer Portal Manager Standard.profile -- Error: You may not modify the permission API Enabled while editing a Standard Profile (line 0, column 0)
51.unpackaged/profiles/Customer Portal Manager Custom.profile -- Error: You may not modify the permission API Enabled while editing a Standard Profile (line 0, column 0)
52.unpackaged/profiles/Customer Community User.profile -- Error: In field: field - no CustomObject named MessagingEndUser found (line 0, column 0)
53.unpackaged/profiles/Customer Community Plus User.profile -- Error: You may not modify the permission API Enabled while editing a Standard Profile (line 0, column 0)
54.unpackaged/profiles/HighVolumePortal.profile -- Error: In field: field - no CustomObject named MessagingEndUser found (line 0, column 0)
55.unpackaged/profiles/High Volume Customer Portal User.profile -- Error: In field: field - no CustomObject named MessagingEndUser found (line 0, column 0)
56.unpackaged/profiles/Partner App Subscription User.profile -- Error: You may not modify the permission Subscribe to Dashboards while editing a Standard Profile (line 0, column 0)
57.unpackaged/profiles/MarketingProfile.profile -- Error: In field: field - no CustomObject named MessagingEndUser found (line 0, column 0)
58.unpackaged/profiles/Identity User.profile -- Error: In field: field - no CustomObject named MessagingEndUser found (line 0, column 0)
59.unpackaged/profiles/Gold Partner User.profile -- Error: In field: field - no CustomObject named MessagingEndUser found (line 0, column 0)
60.unpackaged/profiles/Work%2Ecom Only User.profile -- Error: In field: field - no CustomObject named MessagingEndUser found (line 0, column 0)
61.unpackaged/profiles/SolutionManager.profile -- Error: In field: field - no CustomObject named MessagingEndUser found (line 0, column 0)
62.unpackaged/profiles/Partner Community Login User.profile -- Error: In field: field - no CustomObject named MessagingEndUser found (line 0, column 0)
63.unpackaged/profiles/Partner Community User.profile -- Error: In field: field - no CustomObject named MessagingEndUser found (line 0, column 0)
64.unpackaged/profiles/PlatformPortal.profile -- Error: In field: field - no CustomObject named MessagingEndUser found (line 0, column 0)
65.unpackaged/profiles/ReadOnly.profile -- Error: In field: field - no CustomObject named MessagingEndUser found (line 0, column 0)
66.unpackaged/profiles/RecruitingIdentityUser.profile -- Error: In field: field - no CustomObject named MessagingEndUser found (line 0, column 0)
67.unpackaged/profiles/Silver Partner User.profile -- Error: In field: field - no CustomObject named MessagingEndUser found (line 0, column 0)
68.unpackaged/profiles/StandardUserRecruiting.profile -- Error: In field: field - no CustomObject named MessagingEndUser found (line 0, column 0)
69.unpackaged/profiles/Standard.profile -- Error: In field: field - no CustomObject named MessagingEndUser found (line 0, column 0)
70.unpackaged/profiles/StandardAul.profile -- Error: You may not modify the permission Subscribe to Dashboards while editing a Standard Profile (line 0, column 0)
71.unpackaged/profileSessionSettings/null_profileSessionSetting1564049684605.profileSessionSetting -- Error: Required field is missing: profile (line 0, column 0)
72.unpackaged/profilePasswordPolicies/sdsd_profilePasswordPolicy1564049684587.profilePasswordPolicy -- Error: Required field is missing: Profile (line 0, column 0)
73.unpackaged/permissionsets/FieldLevelAccess.permissionset -- Error: In field: field - no CustomObject named MessagingEndUser found (line 0, column 0)
74.unpackaged/profileSessionSettings/null_profileSessionSetting1564049466603.profileSessionSetting -- Error: Required field is missing: profile (line 0, column 0)
75.unpackaged/permissionsets/ARPermissionSet.permissionset -- Error: In field: field - no CustomObject named MessagingEndUser found (line 0, column 0)
76.unpackaged/profilePasswordPolicies/StandardUserRecruiting1_profilePasswordPolicy1564049466582.profilePasswordPolicy -- Error: Required field is missing: Profile (line 0, column 0)
77.unpackaged/duplicateRules/Account.Standard_Account_Duplicate_Rule.duplicateRule -- Error: SortOrder must be in sequential order from 1. (line 0, column 0)
78.unpackaged/duplicateRules/Account.Standard_Account_Duplicate_Rule.duplicateRule -- Error: Before you can activate this duplicate rule, all associated matching rules must be active and have their fields mapped. (line 0, column 0)
79.unpackaged/duplicateRules/Contact.Standard_Contact_Duplicate_Rule.duplicateRule -- Error: Before you can activate this duplicate rule, all associated matching rules must be active and have their fields mapped. (line 0, column 0)
80.unpackaged/duplicateRules/Lead.Standard_Lead_Duplicate_Rule.duplicateRule -- Error: Before you can activate this duplicate rule, all associated matching rules must be active and have their fields mapped. (line 0, column 0)
81.unpackaged/settings/Case.settings -- Error: In field: defaultCaseOwner - no User named rajashekar.j@autorabit.com found (line 0, column 0)
82.unpackaged/settings/Search.settings -- Error: Entity is null or entity element's name is null (line 0, column 0)
83.unpackaged/appMenus/AppSwitcher.appMenu -- Error: In field: AppMenuItem.Name - no CustomApplication named standard__Insights found (line 0, column 0)
84.unpackaged/communities/Internal Zone.community -- Error: You must set a value for showInPortal when there isn't a value set for portal. (line 0, column 0)
85.unpackaged/objects/MacroUsage.object -- Error: Custom Object Definition ID: bad value for restricted picklist field: MacroUsage (line 0, column 0)
86.unpackaged/objects/MacroInstruction.object -- Error: Custom Object Definition ID: bad value for restricted picklist field: MacroInstruction (line 0, column 0)
87.unpackaged/objects/OrgDeleteRequest.object -- Error: Custom Object Definition ID: bad value for restricted picklist field: OrgDeleteRequest (line 0, column 0)
88.unpackaged/objects/OrgMetricScanResult.object -- Error: Custom Object Definition ID: bad value for restricted picklist field: OrgMetricScanResult (line 0, column 0)
89.unpackaged/objects/OrgMetricScanSummary.object -- Error: Custom Object Definition ID: bad value for restricted picklist field: OrgMetricScanSummary (line 0, column 0)
90.unpackaged/objects/PromptAction.object -- Error: Custom Object Definition ID: bad value for restricted picklist field: PromptAction (line 0, column 0)
91.unpackaged/objects/QuickTextUsage.object -- Error: Custom Object Definition ID: bad value for restricted picklist field: QuickTextUsage (line 0, column 0)
92.unpackaged/objects/RecordMergeHistory.object -- Error: Custom Object Definition ID: bad value for restricted picklist field: RecordMergeHistory (line 0, column 0)
93.unpackaged/objects/StreamingChannel.object -- Error: Custom Object Definition ID: bad value for restricted picklist field: StreamingChannel (line 0, column 0)
94.unpackaged/objects/AccountCleanInfo.object -- Error: Custom Object Definition ID: bad value for restricted picklist field: AccountCleanInfo (line 0, column 0)
95.unpackaged/objects/AccountContactRole.object -- Error: Custom Object Definition ID: bad value for restricted picklist field: AccountContactRole (line 0, column 0)
96.unpackaged/objects/AssistantProgress.object -- Error: Custom Object Definition ID: bad value for restricted picklist field: AssistantProgress (line 0, column 0)
97.unpackaged/objects/ContactCleanInfo.object -- Error: Custom Object Definition ID: bad value for restricted picklist field: ContactCleanInfo (line 0, column 0)
98.unpackaged/objects/ExchangeUserMapping.object -- Error: Custom Object Definition ID: bad value for restricted picklist field: ExchangeUserMapping (line 0, column 0)
99.unpackaged/objects/ExpressionFilter.object -- Error: Custom Object Definition ID: bad value for restricted picklist field: ExpressionFilter (line 0, column 0)
100.unpackaged/objects/ExpressionFilterCriteria.object -- Error: Custom Object Definition ID: bad value for restricted picklist field: ExpressionFilterCriteria (line 0, column 0)
101.unpackaged/objects/MacroAction.object -- Error: Custom Object Definition ID: bad value for restricted picklist field: MacroAction (line 0, column 0)

2020-01-28 21:12:01 INFO  1580225603857_992:829 - 
2020-01-28 21:12:01 INFO  1580225603857_992:830 - Component failures count : 101
2020-01-28 21:12:01 INFO  1580225603857_992:865 - *********** DEPLOYMENT FAILED ***********
2020-01-28 21:12:01 INFO  1580225603857_992:734 - Deployment request processed successfully.
2020-03-04 15:57:28 INFO  1583317648545_334:172 - Deploy request received
2020-03-04 15:57:33 INFO  1583317648545_334:220 - Preparing package manifest on source org for deployment Type: FULL
2020-03-04 15:57:40 INFO  1583317648545_334:1174 - User Name: rajashekar.j1@autorabit.com, label name: backup11, source Org metadata retrival started for full promotion, sourcetype: SANDBOX
