2020-04-15 14:52:29 INFO  1586942549079_customsettingsobject:2381 - Migrate Custom Setting Data process started.
2020-04-15 14:52:29 INFO  1586942549079_customsettingsobject:2397 - Fetching Custom Setting Objects from : RJ_SF_AR_BB
2020-04-15 14:52:29 INFO  1586942549079_customsettingsobject:2399 - Fetched Custom Setting Objects from : RJ_SF_AR_BBsuccessfully.
2020-04-15 14:52:31 INFO  1586942549079_customsettingsobject:860 - Records updation started for object: Aetna_custom_settings__c
2020-04-15 14:52:33 INFO  1586942549079_customsettingsobject:870 - In Custom Object: Aetna_custom_settings__cField: 'SetupOwnerId' does not exist in the destination.
2020-04-15 14:52:33 INFO  1586942549079_customsettingsobject:895 - Total records count: 1
2020-04-15 14:52:33 INFO  1586942549079_customsettingsobject:897 - Records batch count: 1
2020-04-15 14:52:37 INFO  1586942549079_customsettingsobject:922 - Fetched field with name: Name
2020-04-15 14:52:37 INFO  1586942549079_customsettingsobject:935 - Field with name: a0f2v00000oaFPy has been set with value: a0f2v00000oaFPy
2020-04-15 14:52:37 INFO  1586942549079_customsettingsobject:922 - Fetched field with name: AccessToken__c
2020-04-15 14:52:37 INFO  1586942549079_customsettingsobject:935 - Field with name: a0f2v00000oaFPy has been set with value: abc&def
2020-04-15 14:52:37 INFO  1586942549079_customsettingsobject:418 - Total number of records are processing: 1
2020-04-15 14:52:37 INFO  1586942549079_customsettingsobject:421 - Total number of batches are processing: 1
2020-04-15 14:52:40 INFO  1586942549079_customsettingsobject:430 - updated record with id a0D2v00001DtBJ5EAN successfully
2020-04-15 14:52:40 INFO  1586942549079_customsettingsobject:1013 - Records updation completed for object: Aetna_custom_settings__c
2020-04-15 14:52:40 INFO  1586942549079_customsettingsobject:2432 - Fetching Custom Setting History Object.
2020-04-15 14:52:40 INFO  1586942549079_customsettingsobject:2436 - Adding Custom Setting History Object to the list successfully : Aetna_custom_settings__c
2020-04-15 14:52:41 INFO  1586942549079_customsettingsobject:2464 - Migrate Custom Setting Data process completed.
