2020-02-05 15:23:24 INFO  20200205152323144:35 - Loading CIJob schedules for orgnamenisum.com
2020-02-05 15:23:24 INFO  20200205152323144:35 - Loading CIJob schedules for orgnameautorabit.com-PmkSJi
2020-02-05 17:23:48 INFO  20200205172347357:35 - Loading CIJob schedules for orgnamenisum.com
2020-02-05 17:23:48 INFO  20200205172347357:35 - Loading CIJob schedules for orgnameautorabit.com-PmkSJi
2020-02-05 17:31:39 INFO  20200205173135114:35 - Loading CIJob schedules for orgnamenisum.com
2020-02-05 17:31:39 INFO  20200205173135114:35 - Loading CIJob schedules for orgnameautorabit.com-PmkSJi
2020-02-05 17:35:39 INFO  20200205173537887:35 - Loading CIJob schedules for orgnamenisum.com
2020-02-05 17:35:39 INFO  20200205173537887:35 - Loading CIJob schedules for orgnameautorabit.com-PmkSJi
