2020-02-19 14:39:27 INFO  20200219143926463:35 - Loading CIJob schedules for orgnamenisum.com
2020-02-19 14:39:27 INFO  20200219143926463:35 - Loading CIJob schedules for orgnameautorabit.com-PmkSJi
2020-02-19 19:03:22 INFO  20200219190322513:35 - Loading CIJob schedules for orgnamenisum.com
2020-02-19 19:03:22 INFO  20200219190322513:35 - Loading CIJob schedules for orgnameautorabit.com-PmkSJi
2020-02-20 00:41:06 INFO  20200220004106170:35 - Loading CIJob schedules for orgnamenisum.com
2020-02-20 00:41:06 INFO  20200220004106170:35 - Loading CIJob schedules for orgnameautorabit.com-PmkSJi
2020-02-20 00:42:59 INFO  20200220004259697:35 - Loading CIJob schedules for orgnamenisum.com
2020-02-20 00:42:59 INFO  20200220004259697:35 - Loading CIJob schedules for orgnameautorabit.com-PmkSJi
