2020-04-29 12:18:44 INFO  1588142820210_customsettingsobject:2381 - Migrate Custom Setting Data process started.
2020-04-29 12:18:49 INFO  1588142820210_customsettingsobject:2397 - Fetching Custom Setting Objects from : RJ_SF_AR_BB
2020-04-29 12:18:50 INFO  1588142820210_customsettingsobject:2399 - Fetched Custom Setting Objects from : RJ_SF_AR_BBsuccessfully.
2020-04-29 12:22:03 INFO  1588142820210_customsettingsobject:860 - Records updation started for object: Multi_channel_settings__c
2020-04-29 12:22:09 INFO  1588142820210_customsettingsobject:870 - In Custom Object: Multi_channel_settings__cField: 'SetupOwnerId' does not exist in the destination.
2020-04-29 12:22:09 INFO  1588142820210_customsettingsobject:895 - Total records count: 1
2020-04-29 12:22:09 INFO  1588142820210_customsettingsobject:897 - Records batch count: 1
2020-04-29 12:22:13 INFO  1588142820210_customsettingsobject:922 - Fetched field with name: Name
2020-04-29 12:22:13 INFO  1588142820210_customsettingsobject:935 - Field with name: a0B2v00001MceN3 has been set with value: a0B2v00001MceN3
2020-04-29 12:22:13 INFO  1588142820210_customsettingsobject:922 - Fetched field with name: IssueField__c
2020-04-29 12:22:13 INFO  1588142820210_customsettingsobject:935 - Field with name: a0B2v00001MceN3 has been set with value: abc&amp;def
2020-04-29 12:22:13 INFO  1588142820210_customsettingsobject:418 - Total number of records are processing: 1
2020-04-29 12:22:13 INFO  1588142820210_customsettingsobject:421 - Total number of batches are processing: 1
2020-04-29 12:22:16 INFO  1588142820210_customsettingsobject:430 - updated record with id a0C2v000010bQn7EAE successfully
2020-04-29 12:22:16 INFO  1588142820210_customsettingsobject:1013 - Records updation completed for object: Multi_channel_settings__c
2020-04-29 12:22:25 INFO  1588142820210_customsettingsobject:2432 - Fetching Custom Setting History Object.
2020-04-29 12:22:26 INFO  1588142820210_customsettingsobject:2436 - Adding Custom Setting History Object to the list successfully : Multi_channel_settings__c
2020-04-29 12:22:51 INFO  1588142820210_customsettingsobject:2464 - Migrate Custom Setting Data process completed.
